{
  "contractName": "CloneFactory",
  "abi": [],
  "metadata": "{\"compiler\":{\"version\":\"0.6.5+commit.f956cc89\"},\"language\":\"Solidity\",\"output\":{\"abi\":[],\"devdoc\":{\"methods\":{}},\"userdoc\":{\"methods\":{}}},\"settings\":{\"compilationTarget\":{\"/C/Users/USER/Documents/projects/trottl/contracts/factory/CloneFactory.sol\":\"CloneFactory\"},\"evmVersion\":\"istanbul\",\"libraries\":{},\"metadata\":{\"bytecodeHash\":\"ipfs\"},\"optimizer\":{\"enabled\":false,\"runs\":200},\"remappings\":[]},\"sources\":{\"/C/Users/USER/Documents/projects/trottl/contracts/factory/CloneFactory.sol\":{\"keccak256\":\"0x26859d847eb36e13dc29b535c884b9253ba2df816df2339bdad836ae92c864e5\",\"urls\":[\"bzz-raw://3ff900b47751aefafd13b37d1cf3dd698dbf63f02ed7e2a7090329f1a468e126\",\"dweb:/ipfs/QmZpeVYD4arCA95rCVZXTkupLMkhY3hLMZ2p2eyMRcSmEM\"]}},\"version\":1}",
  "bytecode": "0x6080604052348015600f57600080fd5b50603f80601d6000396000f3fe6080604052600080fdfea2646970667358221220fbe0b3c37e68a4146f8ffcfe1e97d2543f02469d1b7cf7d43f0cf6b03f72df8a64736f6c63430006050033",
  "deployedBytecode": "0x6080604052600080fdfea2646970667358221220fbe0b3c37e68a4146f8ffcfe1e97d2543f02469d1b7cf7d43f0cf6b03f72df8a64736f6c63430006050033",
  "immutableReferences": {},
  "sourceMap": "1214:1123:0:-:0;;;;5:9:-1;2:2;;;27:1;24;17:12;2:2;1214:1123:0;;;;;;;",
  "deployedSourceMap": "1214:1123:0:-:0;;;12:1:-1;9;2:12",
  "source": "pragma solidity >=0.4.23;\r\n\r\n/*\r\nThe MIT License (MIT)\r\nCopyright (c) 2018 Murray Software, LLC.\r\nPermission is hereby granted, free of charge, to any person obtaining\r\na copy of this software and associated documentation files (the\r\n\"Software\"), to deal in the Software without restriction, including\r\nwithout limitation the rights to use, copy, modify, merge, publish,\r\ndistribute, sublicense, and/or sell copies of the Software, and to\r\npermit persons to whom the Software is furnished to do so, subject to\r\nthe following conditions:\r\nThe above copyright notice and this permission notice shall be included\r\nin all copies or substantial portions of the Software.\r\nTHE SOFTWARE IS PROVIDED \"AS IS\", WITHOUT WARRANTY OF ANY KIND, EXPRESS\r\nOR IMPLIED, INCLUDING BUT NOT LIMITED TO THE WARRANTIES OF\r\nMERCHANTABILITY, FITNESS FOR A PARTICULAR PURPOSE AND NONINFRINGEMENT.\r\nIN NO EVENT SHALL THE AUTHORS OR COPYRIGHT HOLDERS BE LIABLE FOR ANY\r\nCLAIM, DAMAGES OR OTHER LIABILITY, WHETHER IN AN ACTION OF CONTRACT,\r\nTORT OR OTHERWISE, ARISING FROM, OUT OF OR IN CONNECTION WITH THE\r\nSOFTWARE OR THE USE OR OTHER DEALINGS IN THE SOFTWARE.\r\n*/\r\n//solhint-disable max-line-length\r\n//solhint-disable no-inline-assembly\r\n\r\ncontract CloneFactory {\r\n\r\n  function createClone(address target) internal returns (address result) {\r\n    bytes20 targetBytes = bytes20(target);\r\n    assembly {\r\n      let clone := mload(0x40)\r\n      mstore(clone, 0x3d602d80600a3d3981f3363d3d373d3d3d363d73000000000000000000000000)\r\n      mstore(add(clone, 0x14), targetBytes)\r\n      mstore(add(clone, 0x28), 0x5af43d82803e903d91602b57fd5bf30000000000000000000000000000000000)\r\n      result := create(0, clone, 0x37)\r\n    }\r\n  }\r\n\r\n  function isClone(address target, address query) internal view returns (bool result) {\r\n    bytes20 targetBytes = bytes20(target);\r\n    assembly {\r\n      let clone := mload(0x40)\r\n      mstore(clone, 0x363d3d373d3d3d363d7300000000000000000000000000000000000000000000)\r\n      mstore(add(clone, 0xa), targetBytes)\r\n      mstore(add(clone, 0x1e), 0x5af43d82803e903d91602b57fd5bf30000000000000000000000000000000000)\r\n\r\n      let other := add(clone, 0x40)\r\n      extcodecopy(query, other, 0, 0x2d)\r\n      result := and(\r\n        eq(mload(clone), mload(other)),\r\n        eq(mload(add(clone, 0xd)), mload(add(other, 0xd)))\r\n      )\r\n    }\r\n  }\r\n}",
  "sourcePath": "C:/Users/USER/Documents/projects/trottl/contracts/factory/CloneFactory.sol",
  "ast": {
    "absolutePath": "/C/Users/USER/Documents/projects/trottl/contracts/factory/CloneFactory.sol",
    "exportedSymbols": {
      "CloneFactory": [
        36
      ]
    },
    "id": 37,
    "nodeType": "SourceUnit",
    "nodes": [
      {
        "id": 1,
        "literals": [
          "solidity",
          ">=",
          "0.4",
          ".23"
        ],
        "nodeType": "PragmaDirective",
        "src": "0:25:0"
      },
      {
        "abstract": false,
        "baseContracts": [],
        "contractDependencies": [],
        "contractKind": "contract",
        "documentation": null,
        "fullyImplemented": true,
        "id": 36,
        "linearizedBaseContracts": [
          36
        ],
        "name": "CloneFactory",
        "nodeType": "ContractDefinition",
        "nodes": [
          {
            "body": {
              "id": 16,
              "nodeType": "Block",
              "src": "1314:379:0",
              "statements": [
                {
                  "assignments": [
                    9
                  ],
                  "declarations": [
                    {
                      "constant": false,
                      "id": 9,
                      "name": "targetBytes",
                      "nodeType": "VariableDeclaration",
                      "overrides": null,
                      "scope": 16,
                      "src": "1321:19:0",
                      "stateVariable": false,
                      "storageLocation": "default",
                      "typeDescriptions": {
                        "typeIdentifier": "t_bytes20",
                        "typeString": "bytes20"
                      },
                      "typeName": {
                        "id": 8,
                        "name": "bytes20",
                        "nodeType": "ElementaryTypeName",
                        "src": "1321:7:0",
                        "typeDescriptions": {
                          "typeIdentifier": "t_bytes20",
                          "typeString": "bytes20"
                        }
                      },
                      "value": null,
                      "visibility": "internal"
                    }
                  ],
                  "id": 14,
                  "initialValue": {
                    "argumentTypes": null,
                    "arguments": [
                      {
                        "argumentTypes": null,
                        "id": 12,
                        "name": "target",
                        "nodeType": "Identifier",
                        "overloadedDeclarations": [],
                        "referencedDeclaration": 3,
                        "src": "1351:6:0",
                        "typeDescriptions": {
                          "typeIdentifier": "t_address",
                          "typeString": "address"
                        }
                      }
                    ],
                    "expression": {
                      "argumentTypes": [
                        {
                          "typeIdentifier": "t_address",
                          "typeString": "address"
                        }
                      ],
                      "id": 11,
                      "isConstant": false,
                      "isLValue": false,
                      "isPure": true,
                      "lValueRequested": false,
                      "nodeType": "ElementaryTypeNameExpression",
                      "src": "1343:7:0",
                      "typeDescriptions": {
                        "typeIdentifier": "t_type$_t_bytes20_$",
                        "typeString": "type(bytes20)"
                      },
                      "typeName": {
                        "id": 10,
                        "name": "bytes20",
                        "nodeType": "ElementaryTypeName",
                        "src": "1343:7:0",
                        "typeDescriptions": {
                          "typeIdentifier": null,
                          "typeString": null
                        }
                      }
                    },
                    "id": 13,
                    "isConstant": false,
                    "isLValue": false,
                    "isPure": false,
                    "kind": "typeConversion",
                    "lValueRequested": false,
                    "names": [],
                    "nodeType": "FunctionCall",
                    "src": "1343:15:0",
                    "tryCall": false,
                    "typeDescriptions": {
                      "typeIdentifier": "t_bytes20",
                      "typeString": "bytes20"
                    }
                  },
                  "nodeType": "VariableDeclarationStatement",
                  "src": "1321:37:0"
                },
                {
                  "AST": {
                    "nodeType": "YulBlock",
                    "src": "1374:314:0",
                    "statements": [
                      {
                        "nodeType": "YulVariableDeclaration",
                        "src": "1383:24:0",
                        "value": {
                          "arguments": [
                            {
                              "kind": "number",
                              "nodeType": "YulLiteral",
                              "src": "1402:4:0",
                              "type": "",
                              "value": "0x40"
                            }
                          ],
                          "functionName": {
                            "name": "mload",
                            "nodeType": "YulIdentifier",
                            "src": "1396:5:0"
                          },
                          "nodeType": "YulFunctionCall",
                          "src": "1396:11:0"
                        },
                        "variables": [
                          {
                            "name": "clone",
                            "nodeType": "YulTypedName",
                            "src": "1387:5:0",
                            "type": ""
                          }
                        ]
                      },
                      {
                        "expression": {
                          "arguments": [
                            {
                              "name": "clone",
                              "nodeType": "YulIdentifier",
                              "src": "1422:5:0"
                            },
                            {
                              "kind": "number",
                              "nodeType": "YulLiteral",
                              "src": "1429:66:0",
                              "type": "",
                              "value": "0x3d602d80600a3d3981f3363d3d373d3d3d363d73000000000000000000000000"
                            }
                          ],
                          "functionName": {
                            "name": "mstore",
                            "nodeType": "YulIdentifier",
                            "src": "1415:6:0"
                          },
                          "nodeType": "YulFunctionCall",
                          "src": "1415:81:0"
                        },
                        "nodeType": "YulExpressionStatement",
                        "src": "1415:81:0"
                      },
                      {
                        "expression": {
                          "arguments": [
                            {
                              "arguments": [
                                {
                                  "name": "clone",
                                  "nodeType": "YulIdentifier",
                                  "src": "1515:5:0"
                                },
                                {
                                  "kind": "number",
                                  "nodeType": "YulLiteral",
                                  "src": "1522:4:0",
                                  "type": "",
                                  "value": "0x14"
                                }
                              ],
                              "functionName": {
                                "name": "add",
                                "nodeType": "YulIdentifier",
                                "src": "1511:3:0"
                              },
                              "nodeType": "YulFunctionCall",
                              "src": "1511:16:0"
                            },
                            {
                              "name": "targetBytes",
                              "nodeType": "YulIdentifier",
                              "src": "1529:11:0"
                            }
                          ],
                          "functionName": {
                            "name": "mstore",
                            "nodeType": "YulIdentifier",
                            "src": "1504:6:0"
                          },
                          "nodeType": "YulFunctionCall",
                          "src": "1504:37:0"
                        },
                        "nodeType": "YulExpressionStatement",
                        "src": "1504:37:0"
                      },
                      {
                        "expression": {
                          "arguments": [
                            {
                              "arguments": [
                                {
                                  "name": "clone",
                                  "nodeType": "YulIdentifier",
                                  "src": "1560:5:0"
                                },
                                {
                                  "kind": "number",
                                  "nodeType": "YulLiteral",
                                  "src": "1567:4:0",
                                  "type": "",
                                  "value": "0x28"
                                }
                              ],
                              "functionName": {
                                "name": "add",
                                "nodeType": "YulIdentifier",
                                "src": "1556:3:0"
                              },
                              "nodeType": "YulFunctionCall",
                              "src": "1556:16:0"
                            },
                            {
                              "kind": "number",
                              "nodeType": "YulLiteral",
                              "src": "1574:66:0",
                              "type": "",
                              "value": "0x5af43d82803e903d91602b57fd5bf30000000000000000000000000000000000"
                            }
                          ],
                          "functionName": {
                            "name": "mstore",
                            "nodeType": "YulIdentifier",
                            "src": "1549:6:0"
                          },
                          "nodeType": "YulFunctionCall",
                          "src": "1549:92:0"
                        },
                        "nodeType": "YulExpressionStatement",
                        "src": "1549:92:0"
                      },
                      {
                        "nodeType": "YulAssignment",
                        "src": "1649:32:0",
                        "value": {
                          "arguments": [
                            {
                              "kind": "number",
                              "nodeType": "YulLiteral",
                              "src": "1666:1:0",
                              "type": "",
                              "value": "0"
                            },
                            {
                              "name": "clone",
                              "nodeType": "YulIdentifier",
                              "src": "1669:5:0"
                            },
                            {
                              "kind": "number",
                              "nodeType": "YulLiteral",
                              "src": "1676:4:0",
                              "type": "",
                              "value": "0x37"
                            }
                          ],
                          "functionName": {
                            "name": "create",
                            "nodeType": "YulIdentifier",
                            "src": "1659:6:0"
                          },
                          "nodeType": "YulFunctionCall",
                          "src": "1659:22:0"
                        },
                        "variableNames": [
                          {
                            "name": "result",
                            "nodeType": "YulIdentifier",
                            "src": "1649:6:0"
                          }
                        ]
                      }
                    ]
                  },
                  "evmVersion": "istanbul",
                  "externalReferences": [
                    {
                      "declaration": 6,
                      "isOffset": false,
                      "isSlot": false,
                      "src": "1649:6:0",
                      "valueSize": 1
                    },
                    {
                      "declaration": 9,
                      "isOffset": false,
                      "isSlot": false,
                      "src": "1529:11:0",
                      "valueSize": 1
                    }
                  ],
                  "id": 15,
                  "nodeType": "InlineAssembly",
                  "src": "1365:323:0"
                }
              ]
            },
            "documentation": null,
            "id": 17,
            "implemented": true,
            "kind": "function",
            "modifiers": [],
            "name": "createClone",
            "nodeType": "FunctionDefinition",
            "overrides": null,
            "parameters": {
              "id": 4,
              "nodeType": "ParameterList",
              "parameters": [
                {
                  "constant": false,
                  "id": 3,
                  "name": "target",
                  "nodeType": "VariableDeclaration",
                  "overrides": null,
                  "scope": 17,
                  "src": "1264:14:0",
                  "stateVariable": false,
                  "storageLocation": "default",
                  "typeDescriptions": {
                    "typeIdentifier": "t_address",
                    "typeString": "address"
                  },
                  "typeName": {
                    "id": 2,
                    "name": "address",
                    "nodeType": "ElementaryTypeName",
                    "src": "1264:7:0",
                    "stateMutability": "nonpayable",
                    "typeDescriptions": {
                      "typeIdentifier": "t_address",
                      "typeString": "address"
                    }
                  },
                  "value": null,
                  "visibility": "internal"
                }
              ],
              "src": "1263:16:0"
            },
            "returnParameters": {
              "id": 7,
              "nodeType": "ParameterList",
              "parameters": [
                {
                  "constant": false,
                  "id": 6,
                  "name": "result",
                  "nodeType": "VariableDeclaration",
                  "overrides": null,
                  "scope": 17,
                  "src": "1298:14:0",
                  "stateVariable": false,
                  "storageLocation": "default",
                  "typeDescriptions": {
                    "typeIdentifier": "t_address",
                    "typeString": "address"
                  },
                  "typeName": {
                    "id": 5,
                    "name": "address",
                    "nodeType": "ElementaryTypeName",
                    "src": "1298:7:0",
                    "stateMutability": "nonpayable",
                    "typeDescriptions": {
                      "typeIdentifier": "t_address",
                      "typeString": "address"
                    }
                  },
                  "value": null,
                  "visibility": "internal"
                }
              ],
              "src": "1297:16:0"
            },
            "scope": 36,
            "src": "1243:450:0",
            "stateMutability": "nonpayable",
            "virtual": false,
            "visibility": "internal"
          },
          {
            "body": {
              "id": 34,
              "nodeType": "Block",
              "src": "1783:551:0",
              "statements": [
                {
                  "assignments": [
                    27
                  ],
                  "declarations": [
                    {
                      "constant": false,
                      "id": 27,
                      "name": "targetBytes",
                      "nodeType": "VariableDeclaration",
                      "overrides": null,
                      "scope": 34,
                      "src": "1790:19:0",
                      "stateVariable": false,
                      "storageLocation": "default",
                      "typeDescriptions": {
                        "typeIdentifier": "t_bytes20",
                        "typeString": "bytes20"
                      },
                      "typeName": {
                        "id": 26,
                        "name": "bytes20",
                        "nodeType": "ElementaryTypeName",
                        "src": "1790:7:0",
                        "typeDescriptions": {
                          "typeIdentifier": "t_bytes20",
                          "typeString": "bytes20"
                        }
                      },
                      "value": null,
                      "visibility": "internal"
                    }
                  ],
                  "id": 32,
                  "initialValue": {
                    "argumentTypes": null,
                    "arguments": [
                      {
                        "argumentTypes": null,
                        "id": 30,
                        "name": "target",
                        "nodeType": "Identifier",
                        "overloadedDeclarations": [],
                        "referencedDeclaration": 19,
                        "src": "1820:6:0",
                        "typeDescriptions": {
                          "typeIdentifier": "t_address",
                          "typeString": "address"
                        }
                      }
                    ],
                    "expression": {
                      "argumentTypes": [
                        {
                          "typeIdentifier": "t_address",
                          "typeString": "address"
                        }
                      ],
                      "id": 29,
                      "isConstant": false,
                      "isLValue": false,
                      "isPure": true,
                      "lValueRequested": false,
                      "nodeType": "ElementaryTypeNameExpression",
                      "src": "1812:7:0",
                      "typeDescriptions": {
                        "typeIdentifier": "t_type$_t_bytes20_$",
                        "typeString": "type(bytes20)"
                      },
                      "typeName": {
                        "id": 28,
                        "name": "bytes20",
                        "nodeType": "ElementaryTypeName",
                        "src": "1812:7:0",
                        "typeDescriptions": {
                          "typeIdentifier": null,
                          "typeString": null
                        }
                      }
                    },
                    "id": 31,
                    "isConstant": false,
                    "isLValue": false,
                    "isPure": false,
                    "kind": "typeConversion",
                    "lValueRequested": false,
                    "names": [],
                    "nodeType": "FunctionCall",
                    "src": "1812:15:0",
                    "tryCall": false,
                    "typeDescriptions": {
                      "typeIdentifier": "t_bytes20",
                      "typeString": "bytes20"
                    }
                  },
                  "nodeType": "VariableDeclarationStatement",
                  "src": "1790:37:0"
                },
                {
                  "AST": {
                    "nodeType": "YulBlock",
                    "src": "1843:486:0",
                    "statements": [
                      {
                        "nodeType": "YulVariableDeclaration",
                        "src": "1852:24:0",
                        "value": {
                          "arguments": [
                            {
                              "kind": "number",
                              "nodeType": "YulLiteral",
                              "src": "1871:4:0",
                              "type": "",
                              "value": "0x40"
                            }
                          ],
                          "functionName": {
                            "name": "mload",
                            "nodeType": "YulIdentifier",
                            "src": "1865:5:0"
                          },
                          "nodeType": "YulFunctionCall",
                          "src": "1865:11:0"
                        },
                        "variables": [
                          {
                            "name": "clone",
                            "nodeType": "YulTypedName",
                            "src": "1856:5:0",
                            "type": ""
                          }
                        ]
                      },
                      {
                        "expression": {
                          "arguments": [
                            {
                              "name": "clone",
                              "nodeType": "YulIdentifier",
                              "src": "1891:5:0"
                            },
                            {
                              "kind": "number",
                              "nodeType": "YulLiteral",
                              "src": "1898:66:0",
                              "type": "",
                              "value": "0x363d3d373d3d3d363d7300000000000000000000000000000000000000000000"
                            }
                          ],
                          "functionName": {
                            "name": "mstore",
                            "nodeType": "YulIdentifier",
                            "src": "1884:6:0"
                          },
                          "nodeType": "YulFunctionCall",
                          "src": "1884:81:0"
                        },
                        "nodeType": "YulExpressionStatement",
                        "src": "1884:81:0"
                      },
                      {
                        "expression": {
                          "arguments": [
                            {
                              "arguments": [
                                {
                                  "name": "clone",
                                  "nodeType": "YulIdentifier",
                                  "src": "1984:5:0"
                                },
                                {
                                  "kind": "number",
                                  "nodeType": "YulLiteral",
                                  "src": "1991:3:0",
                                  "type": "",
                                  "value": "0xa"
                                }
                              ],
                              "functionName": {
                                "name": "add",
                                "nodeType": "YulIdentifier",
                                "src": "1980:3:0"
                              },
                              "nodeType": "YulFunctionCall",
                              "src": "1980:15:0"
                            },
                            {
                              "name": "targetBytes",
                              "nodeType": "YulIdentifier",
                              "src": "1997:11:0"
                            }
                          ],
                          "functionName": {
                            "name": "mstore",
                            "nodeType": "YulIdentifier",
                            "src": "1973:6:0"
                          },
                          "nodeType": "YulFunctionCall",
                          "src": "1973:36:0"
                        },
                        "nodeType": "YulExpressionStatement",
                        "src": "1973:36:0"
                      },
                      {
                        "expression": {
                          "arguments": [
                            {
                              "arguments": [
                                {
                                  "name": "clone",
                                  "nodeType": "YulIdentifier",
                                  "src": "2028:5:0"
                                },
                                {
                                  "kind": "number",
                                  "nodeType": "YulLiteral",
                                  "src": "2035:4:0",
                                  "type": "",
                                  "value": "0x1e"
                                }
                              ],
                              "functionName": {
                                "name": "add",
                                "nodeType": "YulIdentifier",
                                "src": "2024:3:0"
                              },
                              "nodeType": "YulFunctionCall",
                              "src": "2024:16:0"
                            },
                            {
                              "kind": "number",
                              "nodeType": "YulLiteral",
                              "src": "2042:66:0",
                              "type": "",
                              "value": "0x5af43d82803e903d91602b57fd5bf30000000000000000000000000000000000"
                            }
                          ],
                          "functionName": {
                            "name": "mstore",
                            "nodeType": "YulIdentifier",
                            "src": "2017:6:0"
                          },
                          "nodeType": "YulFunctionCall",
                          "src": "2017:92:0"
                        },
                        "nodeType": "YulExpressionStatement",
                        "src": "2017:92:0"
                      },
                      {
                        "nodeType": "YulVariableDeclaration",
                        "src": "2119:29:0",
                        "value": {
                          "arguments": [
                            {
                              "name": "clone",
                              "nodeType": "YulIdentifier",
                              "src": "2136:5:0"
                            },
                            {
                              "kind": "number",
                              "nodeType": "YulLiteral",
                              "src": "2143:4:0",
                              "type": "",
                              "value": "0x40"
                            }
                          ],
                          "functionName": {
                            "name": "add",
                            "nodeType": "YulIdentifier",
                            "src": "2132:3:0"
                          },
                          "nodeType": "YulFunctionCall",
                          "src": "2132:16:0"
                        },
                        "variables": [
                          {
                            "name": "other",
                            "nodeType": "YulTypedName",
                            "src": "2123:5:0",
                            "type": ""
                          }
                        ]
                      },
                      {
                        "expression": {
                          "arguments": [
                            {
                              "name": "query",
                              "nodeType": "YulIdentifier",
                              "src": "2168:5:0"
                            },
                            {
                              "name": "other",
                              "nodeType": "YulIdentifier",
                              "src": "2175:5:0"
                            },
                            {
                              "kind": "number",
                              "nodeType": "YulLiteral",
                              "src": "2182:1:0",
                              "type": "",
                              "value": "0"
                            },
                            {
                              "kind": "number",
                              "nodeType": "YulLiteral",
                              "src": "2185:4:0",
                              "type": "",
                              "value": "0x2d"
                            }
                          ],
                          "functionName": {
                            "name": "extcodecopy",
                            "nodeType": "YulIdentifier",
                            "src": "2156:11:0"
                          },
                          "nodeType": "YulFunctionCall",
                          "src": "2156:34:0"
                        },
                        "nodeType": "YulExpressionStatement",
                        "src": "2156:34:0"
                      },
                      {
                        "nodeType": "YulAssignment",
                        "src": "2198:124:0",
                        "value": {
                          "arguments": [
                            {
                              "arguments": [
                                {
                                  "arguments": [
                                    {
                                      "name": "clone",
                                      "nodeType": "YulIdentifier",
                                      "src": "2231:5:0"
                                    }
                                  ],
                                  "functionName": {
                                    "name": "mload",
                                    "nodeType": "YulIdentifier",
                                    "src": "2225:5:0"
                                  },
                                  "nodeType": "YulFunctionCall",
                                  "src": "2225:12:0"
                                },
                                {
                                  "arguments": [
                                    {
                                      "name": "other",
                                      "nodeType": "YulIdentifier",
                                      "src": "2245:5:0"
                                    }
                                  ],
                                  "functionName": {
                                    "name": "mload",
                                    "nodeType": "YulIdentifier",
                                    "src": "2239:5:0"
                                  },
                                  "nodeType": "YulFunctionCall",
                                  "src": "2239:12:0"
                                }
                              ],
                              "functionName": {
                                "name": "eq",
                                "nodeType": "YulIdentifier",
                                "src": "2222:2:0"
                              },
                              "nodeType": "YulFunctionCall",
                              "src": "2222:30:0"
                            },
                            {
                              "arguments": [
                                {
                                  "arguments": [
                                    {
                                      "arguments": [
                                        {
                                          "name": "clone",
                                          "nodeType": "YulIdentifier",
                                          "src": "2276:5:0"
                                        },
                                        {
                                          "kind": "number",
                                          "nodeType": "YulLiteral",
                                          "src": "2283:3:0",
                                          "type": "",
                                          "value": "0xd"
                                        }
                                      ],
                                      "functionName": {
                                        "name": "add",
                                        "nodeType": "YulIdentifier",
                                        "src": "2272:3:0"
                                      },
                                      "nodeType": "YulFunctionCall",
                                      "src": "2272:15:0"
                                    }
                                  ],
                                  "functionName": {
                                    "name": "mload",
                                    "nodeType": "YulIdentifier",
                                    "src": "2266:5:0"
                                  },
                                  "nodeType": "YulFunctionCall",
                                  "src": "2266:22:0"
                                },
                                {
                                  "arguments": [
                                    {
                                      "arguments": [
                                        {
                                          "name": "other",
                                          "nodeType": "YulIdentifier",
                                          "src": "2300:5:0"
                                        },
                                        {
                                          "kind": "number",
                                          "nodeType": "YulLiteral",
                                          "src": "2307:3:0",
                                          "type": "",
                                          "value": "0xd"
                                        }
                                      ],
                                      "functionName": {
                                        "name": "add",
                                        "nodeType": "YulIdentifier",
                                        "src": "2296:3:0"
                                      },
                                      "nodeType": "YulFunctionCall",
                                      "src": "2296:15:0"
                                    }
                                  ],
                                  "functionName": {
                                    "name": "mload",
                                    "nodeType": "YulIdentifier",
                                    "src": "2290:5:0"
                                  },
                                  "nodeType": "YulFunctionCall",
                                  "src": "2290:22:0"
                                }
                              ],
                              "functionName": {
                                "name": "eq",
                                "nodeType": "YulIdentifier",
                                "src": "2263:2:0"
                              },
                              "nodeType": "YulFunctionCall",
                              "src": "2263:50:0"
                            }
                          ],
                          "functionName": {
                            "name": "and",
                            "nodeType": "YulIdentifier",
                            "src": "2208:3:0"
                          },
                          "nodeType": "YulFunctionCall",
                          "src": "2208:114:0"
                        },
                        "variableNames": [
                          {
                            "name": "result",
                            "nodeType": "YulIdentifier",
                            "src": "2198:6:0"
                          }
                        ]
                      }
                    ]
                  },
                  "evmVersion": "istanbul",
                  "externalReferences": [
                    {
                      "declaration": 21,
                      "isOffset": false,
                      "isSlot": false,
                      "src": "2168:5:0",
                      "valueSize": 1
                    },
                    {
                      "declaration": 24,
                      "isOffset": false,
                      "isSlot": false,
                      "src": "2198:6:0",
                      "valueSize": 1
                    },
                    {
                      "declaration": 27,
                      "isOffset": false,
                      "isSlot": false,
                      "src": "1997:11:0",
                      "valueSize": 1
                    }
                  ],
                  "id": 33,
                  "nodeType": "InlineAssembly",
                  "src": "1834:495:0"
                }
              ]
            },
            "documentation": null,
            "id": 35,
            "implemented": true,
            "kind": "function",
            "modifiers": [],
            "name": "isClone",
            "nodeType": "FunctionDefinition",
            "overrides": null,
            "parameters": {
              "id": 22,
              "nodeType": "ParameterList",
              "parameters": [
                {
                  "constant": false,
                  "id": 19,
                  "name": "target",
                  "nodeType": "VariableDeclaration",
                  "overrides": null,
                  "scope": 35,
                  "src": "1716:14:0",
                  "stateVariable": false,
                  "storageLocation": "default",
                  "typeDescriptions": {
                    "typeIdentifier": "t_address",
                    "typeString": "address"
                  },
                  "typeName": {
                    "id": 18,
                    "name": "address",
                    "nodeType": "ElementaryTypeName",
                    "src": "1716:7:0",
                    "stateMutability": "nonpayable",
                    "typeDescriptions": {
                      "typeIdentifier": "t_address",
                      "typeString": "address"
                    }
                  },
                  "value": null,
                  "visibility": "internal"
                },
                {
                  "constant": false,
                  "id": 21,
                  "name": "query",
                  "nodeType": "VariableDeclaration",
                  "overrides": null,
                  "scope": 35,
                  "src": "1732:13:0",
                  "stateVariable": false,
                  "storageLocation": "default",
                  "typeDescriptions": {
                    "typeIdentifier": "t_address",
                    "typeString": "address"
                  },
                  "typeName": {
                    "id": 20,
                    "name": "address",
                    "nodeType": "ElementaryTypeName",
                    "src": "1732:7:0",
                    "stateMutability": "nonpayable",
                    "typeDescriptions": {
                      "typeIdentifier": "t_address",
                      "typeString": "address"
                    }
                  },
                  "value": null,
                  "visibility": "internal"
                }
              ],
              "src": "1715:31:0"
            },
            "returnParameters": {
              "id": 25,
              "nodeType": "ParameterList",
              "parameters": [
                {
                  "constant": false,
                  "id": 24,
                  "name": "result",
                  "nodeType": "VariableDeclaration",
                  "overrides": null,
                  "scope": 35,
                  "src": "1770:11:0",
                  "stateVariable": false,
                  "storageLocation": "default",
                  "typeDescriptions": {
                    "typeIdentifier": "t_bool",
                    "typeString": "bool"
                  },
                  "typeName": {
                    "id": 23,
                    "name": "bool",
                    "nodeType": "ElementaryTypeName",
                    "src": "1770:4:0",
                    "typeDescriptions": {
                      "typeIdentifier": "t_bool",
                      "typeString": "bool"
                    }
                  },
                  "value": null,
                  "visibility": "internal"
                }
              ],
              "src": "1769:13:0"
            },
            "scope": 36,
            "src": "1699:635:0",
            "stateMutability": "view",
            "virtual": false,
            "visibility": "internal"
          }
        ],
        "scope": 37,
        "src": "1214:1123:0"
      }
    ],
    "src": "0:2337:0"
  },
  "legacyAST": {
    "attributes": {
      "absolutePath": "/C/Users/USER/Documents/projects/trottl/contracts/factory/CloneFactory.sol",
      "exportedSymbols": {
        "CloneFactory": [
          36
        ]
      }
    },
    "children": [
      {
        "attributes": {
          "literals": [
            "solidity",
            ">=",
            "0.4",
            ".23"
          ]
        },
        "id": 1,
        "name": "PragmaDirective",
        "src": "0:25:0"
      },
      {
        "attributes": {
          "abstract": false,
          "baseContracts": [
            null
          ],
          "contractDependencies": [
            null
          ],
          "contractKind": "contract",
          "documentation": null,
          "fullyImplemented": true,
          "linearizedBaseContracts": [
            36
          ],
          "name": "CloneFactory",
          "scope": 37
        },
        "children": [
          {
            "attributes": {
              "documentation": null,
              "implemented": true,
              "isConstructor": false,
              "kind": "function",
              "modifiers": [
                null
              ],
              "name": "createClone",
              "overrides": null,
              "scope": 36,
              "stateMutability": "nonpayable",
              "virtual": false,
              "visibility": "internal"
            },
            "children": [
              {
                "children": [
                  {
                    "attributes": {
                      "constant": false,
                      "name": "target",
                      "overrides": null,
                      "scope": 17,
                      "stateVariable": false,
                      "storageLocation": "default",
                      "type": "address",
                      "value": null,
                      "visibility": "internal"
                    },
                    "children": [
                      {
                        "attributes": {
                          "name": "address",
                          "stateMutability": "nonpayable",
                          "type": "address"
                        },
                        "id": 2,
                        "name": "ElementaryTypeName",
                        "src": "1264:7:0"
                      }
                    ],
                    "id": 3,
                    "name": "VariableDeclaration",
                    "src": "1264:14:0"
                  }
                ],
                "id": 4,
                "name": "ParameterList",
                "src": "1263:16:0"
              },
              {
                "children": [
                  {
                    "attributes": {
                      "constant": false,
                      "name": "result",
                      "overrides": null,
                      "scope": 17,
                      "stateVariable": false,
                      "storageLocation": "default",
                      "type": "address",
                      "value": null,
                      "visibility": "internal"
                    },
                    "children": [
                      {
                        "attributes": {
                          "name": "address",
                          "stateMutability": "nonpayable",
                          "type": "address"
                        },
                        "id": 5,
                        "name": "ElementaryTypeName",
                        "src": "1298:7:0"
                      }
                    ],
                    "id": 6,
                    "name": "VariableDeclaration",
                    "src": "1298:14:0"
                  }
                ],
                "id": 7,
                "name": "ParameterList",
                "src": "1297:16:0"
              },
              {
                "children": [
                  {
                    "attributes": {
                      "assignments": [
                        9
                      ]
                    },
                    "children": [
                      {
                        "attributes": {
                          "constant": false,
                          "name": "targetBytes",
                          "overrides": null,
                          "scope": 16,
                          "stateVariable": false,
                          "storageLocation": "default",
                          "type": "bytes20",
                          "value": null,
                          "visibility": "internal"
                        },
                        "children": [
                          {
                            "attributes": {
                              "name": "bytes20",
                              "type": "bytes20"
                            },
                            "id": 8,
                            "name": "ElementaryTypeName",
                            "src": "1321:7:0"
                          }
                        ],
                        "id": 9,
                        "name": "VariableDeclaration",
                        "src": "1321:19:0"
                      },
                      {
                        "attributes": {
                          "argumentTypes": null,
                          "isConstant": false,
                          "isLValue": false,
                          "isPure": false,
                          "isStructConstructorCall": false,
                          "lValueRequested": false,
                          "names": [
                            null
                          ],
                          "tryCall": false,
                          "type": "bytes20",
                          "type_conversion": true
                        },
                        "children": [
                          {
                            "attributes": {
                              "argumentTypes": [
                                {
                                  "typeIdentifier": "t_address",
                                  "typeString": "address"
                                }
                              ],
                              "isConstant": false,
                              "isLValue": false,
                              "isPure": true,
                              "lValueRequested": false,
                              "type": "type(bytes20)"
                            },
                            "children": [
                              {
                                "attributes": {
                                  "name": "bytes20",
                                  "type": null
                                },
                                "id": 10,
                                "name": "ElementaryTypeName",
                                "src": "1343:7:0"
                              }
                            ],
                            "id": 11,
                            "name": "ElementaryTypeNameExpression",
                            "src": "1343:7:0"
                          },
                          {
                            "attributes": {
                              "argumentTypes": null,
                              "overloadedDeclarations": [
                                null
                              ],
                              "referencedDeclaration": 3,
                              "type": "address",
                              "value": "target"
                            },
                            "id": 12,
                            "name": "Identifier",
                            "src": "1351:6:0"
                          }
                        ],
                        "id": 13,
                        "name": "FunctionCall",
                        "src": "1343:15:0"
                      }
                    ],
                    "id": 14,
                    "name": "VariableDeclarationStatement",
                    "src": "1321:37:0"
                  },
                  {
                    "attributes": {
                      "evmVersion": "istanbul",
                      "externalReferences": [
                        {
                          "declaration": 6,
                          "isOffset": false,
                          "isSlot": false,
                          "src": "1649:6:0",
                          "valueSize": 1
                        },
                        {
                          "declaration": 9,
                          "isOffset": false,
                          "isSlot": false,
                          "src": "1529:11:0",
                          "valueSize": 1
                        }
                      ],
                      "operations": "{\n    let clone := mload(0x40)\n    mstore(clone, 0x3d602d80600a3d3981f3363d3d373d3d3d363d73000000000000000000000000)\n    mstore(add(clone, 0x14), targetBytes)\n    mstore(add(clone, 0x28), 0x5af43d82803e903d91602b57fd5bf30000000000000000000000000000000000)\n    result := create(0, clone, 0x37)\n}"
                    },
                    "children": [],
                    "id": 15,
                    "name": "InlineAssembly",
                    "src": "1365:323:0"
                  }
                ],
                "id": 16,
                "name": "Block",
                "src": "1314:379:0"
              }
            ],
            "id": 17,
            "name": "FunctionDefinition",
            "src": "1243:450:0"
          },
          {
            "attributes": {
              "documentation": null,
              "implemented": true,
              "isConstructor": false,
              "kind": "function",
              "modifiers": [
                null
              ],
              "name": "isClone",
              "overrides": null,
              "scope": 36,
              "stateMutability": "view",
              "virtual": false,
              "visibility": "internal"
            },
            "children": [
              {
                "children": [
                  {
                    "attributes": {
                      "constant": false,
                      "name": "target",
                      "overrides": null,
                      "scope": 35,
                      "stateVariable": false,
                      "storageLocation": "default",
                      "type": "address",
                      "value": null,
                      "visibility": "internal"
                    },
                    "children": [
                      {
                        "attributes": {
                          "name": "address",
                          "stateMutability": "nonpayable",
                          "type": "address"
                        },
                        "id": 18,
                        "name": "ElementaryTypeName",
                        "src": "1716:7:0"
                      }
                    ],
                    "id": 19,
                    "name": "VariableDeclaration",
                    "src": "1716:14:0"
                  },
                  {
                    "attributes": {
                      "constant": false,
                      "name": "query",
                      "overrides": null,
                      "scope": 35,
                      "stateVariable": false,
                      "storageLocation": "default",
                      "type": "address",
                      "value": null,
                      "visibility": "internal"
                    },
                    "children": [
                      {
                        "attributes": {
                          "name": "address",
                          "stateMutability": "nonpayable",
                          "type": "address"
                        },
                        "id": 20,
                        "name": "ElementaryTypeName",
                        "src": "1732:7:0"
                      }
                    ],
                    "id": 21,
                    "name": "VariableDeclaration",
                    "src": "1732:13:0"
                  }
                ],
                "id": 22,
                "name": "ParameterList",
                "src": "1715:31:0"
              },
              {
                "children": [
                  {
                    "attributes": {
                      "constant": false,
                      "name": "result",
                      "overrides": null,
                      "scope": 35,
                      "stateVariable": false,
                      "storageLocation": "default",
                      "type": "bool",
                      "value": null,
                      "visibility": "internal"
                    },
                    "children": [
                      {
                        "attributes": {
                          "name": "bool",
                          "type": "bool"
                        },
                        "id": 23,
                        "name": "ElementaryTypeName",
                        "src": "1770:4:0"
                      }
                    ],
                    "id": 24,
                    "name": "VariableDeclaration",
                    "src": "1770:11:0"
                  }
                ],
                "id": 25,
                "name": "ParameterList",
                "src": "1769:13:0"
              },
              {
                "children": [
                  {
                    "attributes": {
                      "assignments": [
                        27
                      ]
                    },
                    "children": [
                      {
                        "attributes": {
                          "constant": false,
                          "name": "targetBytes",
                          "overrides": null,
                          "scope": 34,
                          "stateVariable": false,
                          "storageLocation": "default",
                          "type": "bytes20",
                          "value": null,
                          "visibility": "internal"
                        },
                        "children": [
                          {
                            "attributes": {
                              "name": "bytes20",
                              "type": "bytes20"
                            },
                            "id": 26,
                            "name": "ElementaryTypeName",
                            "src": "1790:7:0"
                          }
                        ],
                        "id": 27,
                        "name": "VariableDeclaration",
                        "src": "1790:19:0"
                      },
                      {
                        "attributes": {
                          "argumentTypes": null,
                          "isConstant": false,
                          "isLValue": false,
                          "isPure": false,
                          "isStructConstructorCall": false,
                          "lValueRequested": false,
                          "names": [
                            null
                          ],
                          "tryCall": false,
                          "type": "bytes20",
                          "type_conversion": true
                        },
                        "children": [
                          {
                            "attributes": {
                              "argumentTypes": [
                                {
                                  "typeIdentifier": "t_address",
                                  "typeString": "address"
                                }
                              ],
                              "isConstant": false,
                              "isLValue": false,
                              "isPure": true,
                              "lValueRequested": false,
                              "type": "type(bytes20)"
                            },
                            "children": [
                              {
                                "attributes": {
                                  "name": "bytes20",
                                  "type": null
                                },
                                "id": 28,
                                "name": "ElementaryTypeName",
                                "src": "1812:7:0"
                              }
                            ],
                            "id": 29,
                            "name": "ElementaryTypeNameExpression",
                            "src": "1812:7:0"
                          },
                          {
                            "attributes": {
                              "argumentTypes": null,
                              "overloadedDeclarations": [
                                null
                              ],
                              "referencedDeclaration": 19,
                              "type": "address",
                              "value": "target"
                            },
                            "id": 30,
                            "name": "Identifier",
                            "src": "1820:6:0"
                          }
                        ],
                        "id": 31,
                        "name": "FunctionCall",
                        "src": "1812:15:0"
                      }
                    ],
                    "id": 32,
                    "name": "VariableDeclarationStatement",
                    "src": "1790:37:0"
                  },
                  {
                    "attributes": {
                      "evmVersion": "istanbul",
                      "externalReferences": [
                        {
                          "declaration": 21,
                          "isOffset": false,
                          "isSlot": false,
                          "src": "2168:5:0",
                          "valueSize": 1
                        },
                        {
                          "declaration": 24,
                          "isOffset": false,
                          "isSlot": false,
                          "src": "2198:6:0",
                          "valueSize": 1
                        },
                        {
                          "declaration": 27,
                          "isOffset": false,
                          "isSlot": false,
                          "src": "1997:11:0",
                          "valueSize": 1
                        }
                      ],
                      "operations": "{\n    let clone := mload(0x40)\n    mstore(clone, 0x363d3d373d3d3d363d7300000000000000000000000000000000000000000000)\n    mstore(add(clone, 0xa), targetBytes)\n    mstore(add(clone, 0x1e), 0x5af43d82803e903d91602b57fd5bf30000000000000000000000000000000000)\n    let other := add(clone, 0x40)\n    extcodecopy(query, other, 0, 0x2d)\n    result := and(eq(mload(clone), mload(other)), eq(mload(add(clone, 0xd)), mload(add(other, 0xd))))\n}"
                    },
                    "children": [],
                    "id": 33,
                    "name": "InlineAssembly",
                    "src": "1834:495:0"
                  }
                ],
                "id": 34,
                "name": "Block",
                "src": "1783:551:0"
              }
            ],
            "id": 35,
            "name": "FunctionDefinition",
            "src": "1699:635:0"
          }
        ],
        "id": 36,
        "name": "ContractDefinition",
        "src": "1214:1123:0"
      }
    ],
    "id": 37,
    "name": "SourceUnit",
    "src": "0:2337:0"
  },
  "compiler": {
    "name": "solc",
    "version": "0.6.5+commit.f956cc89.Emscripten.clang"
  },
  "networks": {},
  "schemaVersion": "3.4.1",
  "updatedAt": "2021-06-29T17:35:25.901Z",
  "devdoc": {
    "methods": {}
  },
  "userdoc": {
    "methods": {}
  }
}