{
  "contractName": "Context",
  "abi": [],
  "metadata": "{\"compiler\":{\"version\":\"0.6.5+commit.f956cc89\"},\"language\":\"Solidity\",\"output\":{\"abi\":[],\"devdoc\":{\"methods\":{}},\"userdoc\":{\"methods\":{}}},\"settings\":{\"compilationTarget\":{\"@openzeppelin/contracts/utils/Context.sol\":\"Context\"},\"evmVersion\":\"istanbul\",\"libraries\":{},\"metadata\":{\"bytecodeHash\":\"ipfs\"},\"optimizer\":{\"enabled\":false,\"runs\":200},\"remappings\":[]},\"sources\":{\"@openzeppelin/contracts/utils/Context.sol\":{\"keccak256\":\"0x8d3cb350f04ff49cfb10aef08d87f19dcbaecc8027b0bed12f3275cd12f38cf0\",\"urls\":[\"bzz-raw://ded47ec7c96750f9bd04bbbc84f659992d4ba901cb7b532a52cd468272cf378f\",\"dweb:/ipfs/QmfBrGtQP7rZEqEg6Wz6jh2N2Kukpj1z5v3CGWmAqrzm96\"]}},\"version\":1}",
  "bytecode": "0x",
  "deployedBytecode": "0x",
  "immutableReferences": {},
  "sourceMap": "",
  "deployedSourceMap": "",
  "source": "// SPDX-License-Identifier: MIT\n\npragma solidity >=0.6.0 <0.8.0;\n\n/*\n * @dev Provides information about the current execution context, including the\n * sender of the transaction and its data. While these are generally available\n * via msg.sender and msg.data, they should not be accessed in such a direct\n * manner, since when dealing with GSN meta-transactions the account sending and\n * paying for execution may not be the actual sender (as far as an application\n * is concerned).\n *\n * This contract is only required for intermediate, library-like contracts.\n */\nabstract contract Context {\n    function _msgSender() internal view virtual returns (address payable) {\n        return msg.sender;\n    }\n\n    function _msgData() internal view virtual returns (bytes memory) {\n        this; // silence state mutability warning without generating bytecode - see https://github.com/ethereum/solidity/issues/2691\n        return msg.data;\n    }\n}\n",
  "sourcePath": "@openzeppelin\\contracts\\utils\\Context.sol",
  "ast": {
    "absolutePath": "@openzeppelin/contracts/utils/Context.sol",
    "exportedSymbols": {
      "Context": [
        5868
      ]
    },
    "id": 5869,
    "nodeType": "SourceUnit",
    "nodes": [
      {
        "id": 5847,
        "literals": [
          "solidity",
          ">=",
          "0.6",
          ".0",
          "<",
          "0.8",
          ".0"
        ],
        "nodeType": "PragmaDirective",
        "src": "33:31:28"
      },
      {
        "abstract": true,
        "baseContracts": [],
        "contractDependencies": [],
        "contractKind": "contract",
        "documentation": null,
        "fullyImplemented": true,
        "id": 5868,
        "linearizedBaseContracts": [
          5868
        ],
        "name": "Context",
        "nodeType": "ContractDefinition",
        "nodes": [
          {
            "body": {
              "id": 5855,
              "nodeType": "Block",
              "src": "668:34:28",
              "statements": [
                {
                  "expression": {
                    "argumentTypes": null,
                    "expression": {
                      "argumentTypes": null,
                      "id": 5852,
                      "name": "msg",
                      "nodeType": "Identifier",
                      "overloadedDeclarations": [],
                      "referencedDeclaration": -15,
                      "src": "685:3:28",
                      "typeDescriptions": {
                        "typeIdentifier": "t_magic_message",
                        "typeString": "msg"
                      }
                    },
                    "id": 5853,
                    "isConstant": false,
                    "isLValue": false,
                    "isPure": false,
                    "lValueRequested": false,
                    "memberName": "sender",
                    "nodeType": "MemberAccess",
                    "referencedDeclaration": null,
                    "src": "685:10:28",
                    "typeDescriptions": {
                      "typeIdentifier": "t_address_payable",
                      "typeString": "address payable"
                    }
                  },
                  "functionReturnParameters": 5851,
                  "id": 5854,
                  "nodeType": "Return",
                  "src": "678:17:28"
                }
              ]
            },
            "documentation": null,
            "id": 5856,
            "implemented": true,
            "kind": "function",
            "modifiers": [],
            "name": "_msgSender",
            "nodeType": "FunctionDefinition",
            "overrides": null,
            "parameters": {
              "id": 5848,
              "nodeType": "ParameterList",
              "parameters": [],
              "src": "617:2:28"
            },
            "returnParameters": {
              "id": 5851,
              "nodeType": "ParameterList",
              "parameters": [
                {
                  "constant": false,
                  "id": 5850,
                  "name": "",
                  "nodeType": "VariableDeclaration",
                  "overrides": null,
                  "scope": 5856,
                  "src": "651:15:28",
                  "stateVariable": false,
                  "storageLocation": "default",
                  "typeDescriptions": {
                    "typeIdentifier": "t_address_payable",
                    "typeString": "address payable"
                  },
                  "typeName": {
                    "id": 5849,
                    "name": "address",
                    "nodeType": "ElementaryTypeName",
                    "src": "651:15:28",
                    "stateMutability": "payable",
                    "typeDescriptions": {
                      "typeIdentifier": "t_address_payable",
                      "typeString": "address payable"
                    }
                  },
                  "value": null,
                  "visibility": "internal"
                }
              ],
              "src": "650:17:28"
            },
            "scope": 5868,
            "src": "598:104:28",
            "stateMutability": "view",
            "virtual": true,
            "visibility": "internal"
          },
          {
            "body": {
              "id": 5866,
              "nodeType": "Block",
              "src": "773:165:28",
              "statements": [
                {
                  "expression": {
                    "argumentTypes": null,
                    "id": 5861,
                    "name": "this",
                    "nodeType": "Identifier",
                    "overloadedDeclarations": [],
                    "referencedDeclaration": -28,
                    "src": "783:4:28",
                    "typeDescriptions": {
                      "typeIdentifier": "t_contract$_Context_$5868",
                      "typeString": "contract Context"
                    }
                  },
                  "id": 5862,
                  "nodeType": "ExpressionStatement",
                  "src": "783:4:28"
                },
                {
                  "expression": {
                    "argumentTypes": null,
                    "expression": {
                      "argumentTypes": null,
                      "id": 5863,
                      "name": "msg",
                      "nodeType": "Identifier",
                      "overloadedDeclarations": [],
                      "referencedDeclaration": -15,
                      "src": "923:3:28",
                      "typeDescriptions": {
                        "typeIdentifier": "t_magic_message",
                        "typeString": "msg"
                      }
                    },
                    "id": 5864,
                    "isConstant": false,
                    "isLValue": false,
                    "isPure": false,
                    "lValueRequested": false,
                    "memberName": "data",
                    "nodeType": "MemberAccess",
                    "referencedDeclaration": null,
                    "src": "923:8:28",
                    "typeDescriptions": {
                      "typeIdentifier": "t_bytes_calldata_ptr",
                      "typeString": "bytes calldata"
                    }
                  },
                  "functionReturnParameters": 5860,
                  "id": 5865,
                  "nodeType": "Return",
                  "src": "916:15:28"
                }
              ]
            },
            "documentation": null,
            "id": 5867,
            "implemented": true,
            "kind": "function",
            "modifiers": [],
            "name": "_msgData",
            "nodeType": "FunctionDefinition",
            "overrides": null,
            "parameters": {
              "id": 5857,
              "nodeType": "ParameterList",
              "parameters": [],
              "src": "725:2:28"
            },
            "returnParameters": {
              "id": 5860,
              "nodeType": "ParameterList",
              "parameters": [
                {
                  "constant": false,
                  "id": 5859,
                  "name": "",
                  "nodeType": "VariableDeclaration",
                  "overrides": null,
                  "scope": 5867,
                  "src": "759:12:28",
                  "stateVariable": false,
                  "storageLocation": "memory",
                  "typeDescriptions": {
                    "typeIdentifier": "t_bytes_memory_ptr",
                    "typeString": "bytes"
                  },
                  "typeName": {
                    "id": 5858,
                    "name": "bytes",
                    "nodeType": "ElementaryTypeName",
                    "src": "759:5:28",
                    "typeDescriptions": {
                      "typeIdentifier": "t_bytes_storage_ptr",
                      "typeString": "bytes"
                    }
                  },
                  "value": null,
                  "visibility": "internal"
                }
              ],
              "src": "758:14:28"
            },
            "scope": 5868,
            "src": "708:230:28",
            "stateMutability": "view",
            "virtual": true,
            "visibility": "internal"
          }
        ],
        "scope": 5869,
        "src": "566:374:28"
      }
    ],
    "src": "33:908:28"
  },
  "legacyAST": {
    "attributes": {
      "absolutePath": "@openzeppelin/contracts/utils/Context.sol",
      "exportedSymbols": {
        "Context": [
          5868
        ]
      }
    },
    "children": [
      {
        "attributes": {
          "literals": [
            "solidity",
            ">=",
            "0.6",
            ".0",
            "<",
            "0.8",
            ".0"
          ]
        },
        "id": 5847,
        "name": "PragmaDirective",
        "src": "33:31:28"
      },
      {
        "attributes": {
          "abstract": true,
          "baseContracts": [
            null
          ],
          "contractDependencies": [
            null
          ],
          "contractKind": "contract",
          "documentation": null,
          "fullyImplemented": true,
          "linearizedBaseContracts": [
            5868
          ],
          "name": "Context",
          "scope": 5869
        },
        "children": [
          {
            "attributes": {
              "documentation": null,
              "implemented": true,
              "isConstructor": false,
              "kind": "function",
              "modifiers": [
                null
              ],
              "name": "_msgSender",
              "overrides": null,
              "scope": 5868,
              "stateMutability": "view",
              "virtual": true,
              "visibility": "internal"
            },
            "children": [
              {
                "attributes": {
                  "parameters": [
                    null
                  ]
                },
                "children": [],
                "id": 5848,
                "name": "ParameterList",
                "src": "617:2:28"
              },
              {
                "children": [
                  {
                    "attributes": {
                      "constant": false,
                      "name": "",
                      "overrides": null,
                      "scope": 5856,
                      "stateVariable": false,
                      "storageLocation": "default",
                      "type": "address payable",
                      "value": null,
                      "visibility": "internal"
                    },
                    "children": [
                      {
                        "attributes": {
                          "name": "address",
                          "stateMutability": "payable",
                          "type": "address payable"
                        },
                        "id": 5849,
                        "name": "ElementaryTypeName",
                        "src": "651:15:28"
                      }
                    ],
                    "id": 5850,
                    "name": "VariableDeclaration",
                    "src": "651:15:28"
                  }
                ],
                "id": 5851,
                "name": "ParameterList",
                "src": "650:17:28"
              },
              {
                "children": [
                  {
                    "attributes": {
                      "functionReturnParameters": 5851
                    },
                    "children": [
                      {
                        "attributes": {
                          "argumentTypes": null,
                          "isConstant": false,
                          "isLValue": false,
                          "isPure": false,
                          "lValueRequested": false,
                          "member_name": "sender",
                          "referencedDeclaration": null,
                          "type": "address payable"
                        },
                        "children": [
                          {
                            "attributes": {
                              "argumentTypes": null,
                              "overloadedDeclarations": [
                                null
                              ],
                              "referencedDeclaration": -15,
                              "type": "msg",
                              "value": "msg"
                            },
                            "id": 5852,
                            "name": "Identifier",
                            "src": "685:3:28"
                          }
                        ],
                        "id": 5853,
                        "name": "MemberAccess",
                        "src": "685:10:28"
                      }
                    ],
                    "id": 5854,
                    "name": "Return",
                    "src": "678:17:28"
                  }
                ],
                "id": 5855,
                "name": "Block",
                "src": "668:34:28"
              }
            ],
            "id": 5856,
            "name": "FunctionDefinition",
            "src": "598:104:28"
          },
          {
            "attributes": {
              "documentation": null,
              "implemented": true,
              "isConstructor": false,
              "kind": "function",
              "modifiers": [
                null
              ],
              "name": "_msgData",
              "overrides": null,
              "scope": 5868,
              "stateMutability": "view",
              "virtual": true,
              "visibility": "internal"
            },
            "children": [
              {
                "attributes": {
                  "parameters": [
                    null
                  ]
                },
                "children": [],
                "id": 5857,
                "name": "ParameterList",
                "src": "725:2:28"
              },
              {
                "children": [
                  {
                    "attributes": {
                      "constant": false,
                      "name": "",
                      "overrides": null,
                      "scope": 5867,
                      "stateVariable": false,
                      "storageLocation": "memory",
                      "type": "bytes",
                      "value": null,
                      "visibility": "internal"
                    },
                    "children": [
                      {
                        "attributes": {
                          "name": "bytes",
                          "type": "bytes"
                        },
                        "id": 5858,
                        "name": "ElementaryTypeName",
                        "src": "759:5:28"
                      }
                    ],
                    "id": 5859,
                    "name": "VariableDeclaration",
                    "src": "759:12:28"
                  }
                ],
                "id": 5860,
                "name": "ParameterList",
                "src": "758:14:28"
              },
              {
                "children": [
                  {
                    "children": [
                      {
                        "attributes": {
                          "argumentTypes": null,
                          "overloadedDeclarations": [
                            null
                          ],
                          "referencedDeclaration": -28,
                          "type": "contract Context",
                          "value": "this"
                        },
                        "id": 5861,
                        "name": "Identifier",
                        "src": "783:4:28"
                      }
                    ],
                    "id": 5862,
                    "name": "ExpressionStatement",
                    "src": "783:4:28"
                  },
                  {
                    "attributes": {
                      "functionReturnParameters": 5860
                    },
                    "children": [
                      {
                        "attributes": {
                          "argumentTypes": null,
                          "isConstant": false,
                          "isLValue": false,
                          "isPure": false,
                          "lValueRequested": false,
                          "member_name": "data",
                          "referencedDeclaration": null,
                          "type": "bytes calldata"
                        },
                        "children": [
                          {
                            "attributes": {
                              "argumentTypes": null,
                              "overloadedDeclarations": [
                                null
                              ],
                              "referencedDeclaration": -15,
                              "type": "msg",
                              "value": "msg"
                            },
                            "id": 5863,
                            "name": "Identifier",
                            "src": "923:3:28"
                          }
                        ],
                        "id": 5864,
                        "name": "MemberAccess",
                        "src": "923:8:28"
                      }
                    ],
                    "id": 5865,
                    "name": "Return",
                    "src": "916:15:28"
                  }
                ],
                "id": 5866,
                "name": "Block",
                "src": "773:165:28"
              }
            ],
            "id": 5867,
            "name": "FunctionDefinition",
            "src": "708:230:28"
          }
        ],
        "id": 5868,
        "name": "ContractDefinition",
        "src": "566:374:28"
      }
    ],
    "id": 5869,
    "name": "SourceUnit",
    "src": "33:908:28"
  },
  "compiler": {
    "name": "solc",
    "version": "0.6.5+commit.f956cc89.Emscripten.clang"
  },
  "networks": {},
  "schemaVersion": "3.4.1",
  "updatedAt": "2021-06-29T17:32:04.061Z",
  "devdoc": {
    "methods": {}
  },
  "userdoc": {
    "methods": {}
  }
}