{
  "contractName": "ERC20Burnable",
  "abi": [
    {
      "anonymous": false,
      "inputs": [
        {
          "indexed": true,
          "internalType": "address",
          "name": "owner",
          "type": "address"
        },
        {
          "indexed": true,
          "internalType": "address",
          "name": "spender",
          "type": "address"
        },
        {
          "indexed": false,
          "internalType": "uint256",
          "name": "value",
          "type": "uint256"
        }
      ],
      "name": "Approval",
      "type": "event"
    },
    {
      "anonymous": false,
      "inputs": [
        {
          "indexed": true,
          "internalType": "address",
          "name": "from",
          "type": "address"
        },
        {
          "indexed": true,
          "internalType": "address",
          "name": "to",
          "type": "address"
        },
        {
          "indexed": false,
          "internalType": "uint256",
          "name": "value",
          "type": "uint256"
        }
      ],
      "name": "Transfer",
      "type": "event"
    },
    {
      "inputs": [
        {
          "internalType": "address",
          "name": "owner",
          "type": "address"
        },
        {
          "internalType": "address",
          "name": "spender",
          "type": "address"
        }
      ],
      "name": "allowance",
      "outputs": [
        {
          "internalType": "uint256",
          "name": "",
          "type": "uint256"
        }
      ],
      "stateMutability": "view",
      "type": "function"
    },
    {
      "inputs": [
        {
          "internalType": "address",
          "name": "spender",
          "type": "address"
        },
        {
          "internalType": "uint256",
          "name": "amount",
          "type": "uint256"
        }
      ],
      "name": "approve",
      "outputs": [
        {
          "internalType": "bool",
          "name": "",
          "type": "bool"
        }
      ],
      "stateMutability": "nonpayable",
      "type": "function"
    },
    {
      "inputs": [
        {
          "internalType": "address",
          "name": "account",
          "type": "address"
        }
      ],
      "name": "balanceOf",
      "outputs": [
        {
          "internalType": "uint256",
          "name": "",
          "type": "uint256"
        }
      ],
      "stateMutability": "view",
      "type": "function"
    },
    {
      "inputs": [],
      "name": "decimals",
      "outputs": [
        {
          "internalType": "uint8",
          "name": "",
          "type": "uint8"
        }
      ],
      "stateMutability": "view",
      "type": "function"
    },
    {
      "inputs": [
        {
          "internalType": "address",
          "name": "spender",
          "type": "address"
        },
        {
          "internalType": "uint256",
          "name": "subtractedValue",
          "type": "uint256"
        }
      ],
      "name": "decreaseAllowance",
      "outputs": [
        {
          "internalType": "bool",
          "name": "",
          "type": "bool"
        }
      ],
      "stateMutability": "nonpayable",
      "type": "function"
    },
    {
      "inputs": [
        {
          "internalType": "address",
          "name": "spender",
          "type": "address"
        },
        {
          "internalType": "uint256",
          "name": "addedValue",
          "type": "uint256"
        }
      ],
      "name": "increaseAllowance",
      "outputs": [
        {
          "internalType": "bool",
          "name": "",
          "type": "bool"
        }
      ],
      "stateMutability": "nonpayable",
      "type": "function"
    },
    {
      "inputs": [],
      "name": "name",
      "outputs": [
        {
          "internalType": "string",
          "name": "",
          "type": "string"
        }
      ],
      "stateMutability": "view",
      "type": "function"
    },
    {
      "inputs": [],
      "name": "symbol",
      "outputs": [
        {
          "internalType": "string",
          "name": "",
          "type": "string"
        }
      ],
      "stateMutability": "view",
      "type": "function"
    },
    {
      "inputs": [],
      "name": "totalSupply",
      "outputs": [
        {
          "internalType": "uint256",
          "name": "",
          "type": "uint256"
        }
      ],
      "stateMutability": "view",
      "type": "function"
    },
    {
      "inputs": [
        {
          "internalType": "address",
          "name": "recipient",
          "type": "address"
        },
        {
          "internalType": "uint256",
          "name": "amount",
          "type": "uint256"
        }
      ],
      "name": "transfer",
      "outputs": [
        {
          "internalType": "bool",
          "name": "",
          "type": "bool"
        }
      ],
      "stateMutability": "nonpayable",
      "type": "function"
    },
    {
      "inputs": [
        {
          "internalType": "address",
          "name": "sender",
          "type": "address"
        },
        {
          "internalType": "address",
          "name": "recipient",
          "type": "address"
        },
        {
          "internalType": "uint256",
          "name": "amount",
          "type": "uint256"
        }
      ],
      "name": "transferFrom",
      "outputs": [
        {
          "internalType": "bool",
          "name": "",
          "type": "bool"
        }
      ],
      "stateMutability": "nonpayable",
      "type": "function"
    },
    {
      "inputs": [
        {
          "internalType": "uint256",
          "name": "amount",
          "type": "uint256"
        }
      ],
      "name": "burn",
      "outputs": [],
      "stateMutability": "nonpayable",
      "type": "function"
    },
    {
      "inputs": [
        {
          "internalType": "address",
          "name": "account",
          "type": "address"
        },
        {
          "internalType": "uint256",
          "name": "amount",
          "type": "uint256"
        }
      ],
      "name": "burnFrom",
      "outputs": [],
      "stateMutability": "nonpayable",
      "type": "function"
    }
  ],
  "metadata": "{\"compiler\":{\"version\":\"0.6.5+commit.f956cc89\"},\"language\":\"Solidity\",\"output\":{\"abi\":[{\"anonymous\":false,\"inputs\":[{\"indexed\":true,\"internalType\":\"address\",\"name\":\"owner\",\"type\":\"address\"},{\"indexed\":true,\"internalType\":\"address\",\"name\":\"spender\",\"type\":\"address\"},{\"indexed\":false,\"internalType\":\"uint256\",\"name\":\"value\",\"type\":\"uint256\"}],\"name\":\"Approval\",\"type\":\"event\"},{\"anonymous\":false,\"inputs\":[{\"indexed\":true,\"internalType\":\"address\",\"name\":\"from\",\"type\":\"address\"},{\"indexed\":true,\"internalType\":\"address\",\"name\":\"to\",\"type\":\"address\"},{\"indexed\":false,\"internalType\":\"uint256\",\"name\":\"value\",\"type\":\"uint256\"}],\"name\":\"Transfer\",\"type\":\"event\"},{\"inputs\":[{\"internalType\":\"address\",\"name\":\"owner\",\"type\":\"address\"},{\"internalType\":\"address\",\"name\":\"spender\",\"type\":\"address\"}],\"name\":\"allowance\",\"outputs\":[{\"internalType\":\"uint256\",\"name\":\"\",\"type\":\"uint256\"}],\"stateMutability\":\"view\",\"type\":\"function\"},{\"inputs\":[{\"internalType\":\"address\",\"name\":\"spender\",\"type\":\"address\"},{\"internalType\":\"uint256\",\"name\":\"amount\",\"type\":\"uint256\"}],\"name\":\"approve\",\"outputs\":[{\"internalType\":\"bool\",\"name\":\"\",\"type\":\"bool\"}],\"stateMutability\":\"nonpayable\",\"type\":\"function\"},{\"inputs\":[{\"internalType\":\"address\",\"name\":\"account\",\"type\":\"address\"}],\"name\":\"balanceOf\",\"outputs\":[{\"internalType\":\"uint256\",\"name\":\"\",\"type\":\"uint256\"}],\"stateMutability\":\"view\",\"type\":\"function\"},{\"inputs\":[{\"internalType\":\"uint256\",\"name\":\"amount\",\"type\":\"uint256\"}],\"name\":\"burn\",\"outputs\":[],\"stateMutability\":\"nonpayable\",\"type\":\"function\"},{\"inputs\":[{\"internalType\":\"address\",\"name\":\"account\",\"type\":\"address\"},{\"internalType\":\"uint256\",\"name\":\"amount\",\"type\":\"uint256\"}],\"name\":\"burnFrom\",\"outputs\":[],\"stateMutability\":\"nonpayable\",\"type\":\"function\"},{\"inputs\":[],\"name\":\"decimals\",\"outputs\":[{\"internalType\":\"uint8\",\"name\":\"\",\"type\":\"uint8\"}],\"stateMutability\":\"view\",\"type\":\"function\"},{\"inputs\":[{\"internalType\":\"address\",\"name\":\"spender\",\"type\":\"address\"},{\"internalType\":\"uint256\",\"name\":\"subtractedValue\",\"type\":\"uint256\"}],\"name\":\"decreaseAllowance\",\"outputs\":[{\"internalType\":\"bool\",\"name\":\"\",\"type\":\"bool\"}],\"stateMutability\":\"nonpayable\",\"type\":\"function\"},{\"inputs\":[{\"internalType\":\"address\",\"name\":\"spender\",\"type\":\"address\"},{\"internalType\":\"uint256\",\"name\":\"addedValue\",\"type\":\"uint256\"}],\"name\":\"increaseAllowance\",\"outputs\":[{\"internalType\":\"bool\",\"name\":\"\",\"type\":\"bool\"}],\"stateMutability\":\"nonpayable\",\"type\":\"function\"},{\"inputs\":[],\"name\":\"name\",\"outputs\":[{\"internalType\":\"string\",\"name\":\"\",\"type\":\"string\"}],\"stateMutability\":\"view\",\"type\":\"function\"},{\"inputs\":[],\"name\":\"symbol\",\"outputs\":[{\"internalType\":\"string\",\"name\":\"\",\"type\":\"string\"}],\"stateMutability\":\"view\",\"type\":\"function\"},{\"inputs\":[],\"name\":\"totalSupply\",\"outputs\":[{\"internalType\":\"uint256\",\"name\":\"\",\"type\":\"uint256\"}],\"stateMutability\":\"view\",\"type\":\"function\"},{\"inputs\":[{\"internalType\":\"address\",\"name\":\"recipient\",\"type\":\"address\"},{\"internalType\":\"uint256\",\"name\":\"amount\",\"type\":\"uint256\"}],\"name\":\"transfer\",\"outputs\":[{\"internalType\":\"bool\",\"name\":\"\",\"type\":\"bool\"}],\"stateMutability\":\"nonpayable\",\"type\":\"function\"},{\"inputs\":[{\"internalType\":\"address\",\"name\":\"sender\",\"type\":\"address\"},{\"internalType\":\"address\",\"name\":\"recipient\",\"type\":\"address\"},{\"internalType\":\"uint256\",\"name\":\"amount\",\"type\":\"uint256\"}],\"name\":\"transferFrom\",\"outputs\":[{\"internalType\":\"bool\",\"name\":\"\",\"type\":\"bool\"}],\"stateMutability\":\"nonpayable\",\"type\":\"function\"}],\"devdoc\":{\"details\":\"Extension of {ERC20} that allows token holders to destroy both their own tokens and those that they have an allowance for, in a way that can be recognized off-chain (via event analysis).\",\"methods\":{\"allowance(address,address)\":{\"details\":\"See {IERC20-allowance}.\"},\"approve(address,uint256)\":{\"details\":\"See {IERC20-approve}.     * Requirements:     * - `spender` cannot be the zero address.\"},\"balanceOf(address)\":{\"details\":\"See {IERC20-balanceOf}.\"},\"burn(uint256)\":{\"details\":\"Destroys `amount` tokens from the caller.     * See {ERC20-_burn}.\"},\"burnFrom(address,uint256)\":{\"details\":\"Destroys `amount` tokens from `account`, deducting from the caller's allowance.     * See {ERC20-_burn} and {ERC20-allowance}.     * Requirements:     * - the caller must have allowance for ``accounts``'s tokens of at least `amount`.\"},\"decimals()\":{\"details\":\"Returns the number of decimals used to get its user representation. For example, if `decimals` equals `2`, a balance of `505` tokens should be displayed to a user as `5,05` (`505 / 10 ** 2`).     * Tokens usually opt for a value of 18, imitating the relationship between Ether and Wei. This is the value {ERC20} uses, unless {_setupDecimals} is called.     * NOTE: This information is only used for _display_ purposes: it in no way affects any of the arithmetic of the contract, including {IERC20-balanceOf} and {IERC20-transfer}.\"},\"decreaseAllowance(address,uint256)\":{\"details\":\"Atomically decreases the allowance granted to `spender` by the caller.     * This is an alternative to {approve} that can be used as a mitigation for problems described in {IERC20-approve}.     * Emits an {Approval} event indicating the updated allowance.     * Requirements:     * - `spender` cannot be the zero address. - `spender` must have allowance for the caller of at least `subtractedValue`.\"},\"increaseAllowance(address,uint256)\":{\"details\":\"Atomically increases the allowance granted to `spender` by the caller.     * This is an alternative to {approve} that can be used as a mitigation for problems described in {IERC20-approve}.     * Emits an {Approval} event indicating the updated allowance.     * Requirements:     * - `spender` cannot be the zero address.\"},\"name()\":{\"details\":\"Returns the name of the token.\"},\"symbol()\":{\"details\":\"Returns the symbol of the token, usually a shorter version of the name.\"},\"totalSupply()\":{\"details\":\"See {IERC20-totalSupply}.\"},\"transfer(address,uint256)\":{\"details\":\"See {IERC20-transfer}.     * Requirements:     * - `recipient` cannot be the zero address. - the caller must have a balance of at least `amount`.\"},\"transferFrom(address,address,uint256)\":{\"details\":\"See {IERC20-transferFrom}.     * Emits an {Approval} event indicating the updated allowance. This is not required by the EIP. See the note at the beginning of {ERC20}.     * Requirements:     * - `sender` and `recipient` cannot be the zero address. - `sender` must have a balance of at least `amount`. - the caller must have allowance for ``sender``'s tokens of at least `amount`.\"}}},\"userdoc\":{\"methods\":{}}},\"settings\":{\"compilationTarget\":{\"@openzeppelin/contracts/token/ERC20/ERC20Burnable.sol\":\"ERC20Burnable\"},\"evmVersion\":\"istanbul\",\"libraries\":{},\"metadata\":{\"bytecodeHash\":\"ipfs\"},\"optimizer\":{\"enabled\":false,\"runs\":200},\"remappings\":[]},\"sources\":{\"@openzeppelin/contracts/math/SafeMath.sol\":{\"keccak256\":\"0xcc78a17dd88fa5a2edc60c8489e2f405c0913b377216a5b26b35656b2d0dab52\",\"urls\":[\"bzz-raw://526dc85e1f9b9b45830e202568d267d93dde7a4fcccf4ad7798dadcd92304d3c\",\"dweb:/ipfs/QmaoXMB972J3cSDLtBq3xBo4jLwqD2uzXTwujtSPqkYVhR\"]},\"@openzeppelin/contracts/token/ERC20/ERC20.sol\":{\"keccak256\":\"0xca0c2396dbeb3503b51abf4248ebf77a1461edad513c01529df51850a012bee3\",\"urls\":[\"bzz-raw://991b44ff44e0496e8554a90f4c0512c28faed45104d40430019f3c67ea67740e\",\"dweb:/ipfs/Qmc3nRapVbcctELoZS5qe17zLkFB3bETBfwzCTMF1CSuGE\"]},\"@openzeppelin/contracts/token/ERC20/ERC20Burnable.sol\":{\"keccak256\":\"0x9c0eb3b0e11d2480d49991dc384f1e5f9c9b9967cc81944d50916a9b9c6c4984\",\"urls\":[\"bzz-raw://99e4033d778624992e86f0b6d801a4f6d7b5c0cd5c79c1296be90a051ad5f5af\",\"dweb:/ipfs/QmShYmkUqh6pDEeoWadZ24icmCr4C2Xys1uE5boivPmbwf\"]},\"@openzeppelin/contracts/token/ERC20/IERC20.sol\":{\"keccak256\":\"0x5f02220344881ce43204ae4a6281145a67bc52c2bb1290a791857df3d19d78f5\",\"urls\":[\"bzz-raw://24427744bd3e6cb73c17010119af12a318289c0253a4d9acb8576c9fb3797b08\",\"dweb:/ipfs/QmTLDqpKRBuxGxRAmjgXt9AkXyACW3MtKzi7PYjm5iMfGC\"]},\"@openzeppelin/contracts/utils/Context.sol\":{\"keccak256\":\"0x8d3cb350f04ff49cfb10aef08d87f19dcbaecc8027b0bed12f3275cd12f38cf0\",\"urls\":[\"bzz-raw://ded47ec7c96750f9bd04bbbc84f659992d4ba901cb7b532a52cd468272cf378f\",\"dweb:/ipfs/QmfBrGtQP7rZEqEg6Wz6jh2N2Kukpj1z5v3CGWmAqrzm96\"]}},\"version\":1}",
  "bytecode": "0x",
  "deployedBytecode": "0x",
  "immutableReferences": {},
  "sourceMap": "",
  "deployedSourceMap": "",
  "source": "// SPDX-License-Identifier: MIT\n\npragma solidity >=0.6.0 <0.8.0;\n\nimport \"../../utils/Context.sol\";\nimport \"./ERC20.sol\";\n\n/**\n * @dev Extension of {ERC20} that allows token holders to destroy both their own\n * tokens and those that they have an allowance for, in a way that can be\n * recognized off-chain (via event analysis).\n */\nabstract contract ERC20Burnable is Context, ERC20 {\n    using SafeMath for uint256;\n\n    /**\n     * @dev Destroys `amount` tokens from the caller.\n     *\n     * See {ERC20-_burn}.\n     */\n    function burn(uint256 amount) public virtual {\n        _burn(_msgSender(), amount);\n    }\n\n    /**\n     * @dev Destroys `amount` tokens from `account`, deducting from the caller's\n     * allowance.\n     *\n     * See {ERC20-_burn} and {ERC20-allowance}.\n     *\n     * Requirements:\n     *\n     * - the caller must have allowance for ``accounts``'s tokens of at least\n     * `amount`.\n     */\n    function burnFrom(address account, uint256 amount) public virtual {\n        uint256 decreasedAllowance = allowance(account, _msgSender()).sub(amount, \"ERC20: burn amount exceeds allowance\");\n\n        _approve(account, _msgSender(), decreasedAllowance);\n        _burn(account, amount);\n    }\n}\n",
  "sourcePath": "@openzeppelin\\contracts\\token\\ERC20\\ERC20Burnable.sol",
  "ast": {
    "absolutePath": "@openzeppelin/contracts/token/ERC20/ERC20Burnable.sol",
    "exportedSymbols": {
      "ERC20Burnable": [
        5221
      ]
    },
    "id": 5222,
    "nodeType": "SourceUnit",
    "nodes": [
      {
        "id": 5164,
        "literals": [
          "solidity",
          ">=",
          "0.6",
          ".0",
          "<",
          "0.8",
          ".0"
        ],
        "nodeType": "PragmaDirective",
        "src": "33:31:23"
      },
      {
        "absolutePath": "@openzeppelin/contracts/utils/Context.sol",
        "file": "../../utils/Context.sol",
        "id": 5165,
        "nodeType": "ImportDirective",
        "scope": 5222,
        "sourceUnit": 5869,
        "src": "66:33:23",
        "symbolAliases": [],
        "unitAlias": ""
      },
      {
        "absolutePath": "@openzeppelin/contracts/token/ERC20/ERC20.sol",
        "file": "./ERC20.sol",
        "id": 5166,
        "nodeType": "ImportDirective",
        "scope": 5222,
        "sourceUnit": 5163,
        "src": "100:21:23",
        "symbolAliases": [],
        "unitAlias": ""
      },
      {
        "abstract": true,
        "baseContracts": [
          {
            "arguments": null,
            "baseName": {
              "contractScope": null,
              "id": 5168,
              "name": "Context",
              "nodeType": "UserDefinedTypeName",
              "referencedDeclaration": 5868,
              "src": "367:7:23",
              "typeDescriptions": {
                "typeIdentifier": "t_contract$_Context_$5868",
                "typeString": "contract Context"
              }
            },
            "id": 5169,
            "nodeType": "InheritanceSpecifier",
            "src": "367:7:23"
          },
          {
            "arguments": null,
            "baseName": {
              "contractScope": null,
              "id": 5170,
              "name": "ERC20",
              "nodeType": "UserDefinedTypeName",
              "referencedDeclaration": 5162,
              "src": "376:5:23",
              "typeDescriptions": {
                "typeIdentifier": "t_contract$_ERC20_$5162",
                "typeString": "contract ERC20"
              }
            },
            "id": 5171,
            "nodeType": "InheritanceSpecifier",
            "src": "376:5:23"
          }
        ],
        "contractDependencies": [
          5162,
          5336,
          5868
        ],
        "contractKind": "contract",
        "documentation": {
          "id": 5167,
          "nodeType": "StructuredDocumentation",
          "src": "123:208:23",
          "text": "@dev Extension of {ERC20} that allows token holders to destroy both their own\ntokens and those that they have an allowance for, in a way that can be\nrecognized off-chain (via event analysis)."
        },
        "fullyImplemented": false,
        "id": 5221,
        "linearizedBaseContracts": [
          5221,
          5162,
          5336,
          5868
        ],
        "name": "ERC20Burnable",
        "nodeType": "ContractDefinition",
        "nodes": [
          {
            "id": 5174,
            "libraryName": {
              "contractScope": null,
              "id": 5172,
              "name": "SafeMath",
              "nodeType": "UserDefinedTypeName",
              "referencedDeclaration": 4030,
              "src": "394:8:23",
              "typeDescriptions": {
                "typeIdentifier": "t_contract$_SafeMath_$4030",
                "typeString": "library SafeMath"
              }
            },
            "nodeType": "UsingForDirective",
            "src": "388:27:23",
            "typeName": {
              "id": 5173,
              "name": "uint256",
              "nodeType": "ElementaryTypeName",
              "src": "407:7:23",
              "typeDescriptions": {
                "typeIdentifier": "t_uint256",
                "typeString": "uint256"
              }
            }
          },
          {
            "body": {
              "id": 5186,
              "nodeType": "Block",
              "src": "569:44:23",
              "statements": [
                {
                  "expression": {
                    "argumentTypes": null,
                    "arguments": [
                      {
                        "argumentTypes": null,
                        "arguments": [],
                        "expression": {
                          "argumentTypes": [],
                          "id": 5181,
                          "name": "_msgSender",
                          "nodeType": "Identifier",
                          "overloadedDeclarations": [],
                          "referencedDeclaration": 5856,
                          "src": "585:10:23",
                          "typeDescriptions": {
                            "typeIdentifier": "t_function_internal_view$__$returns$_t_address_payable_$",
                            "typeString": "function () view returns (address payable)"
                          }
                        },
                        "id": 5182,
                        "isConstant": false,
                        "isLValue": false,
                        "isPure": false,
                        "kind": "functionCall",
                        "lValueRequested": false,
                        "names": [],
                        "nodeType": "FunctionCall",
                        "src": "585:12:23",
                        "tryCall": false,
                        "typeDescriptions": {
                          "typeIdentifier": "t_address_payable",
                          "typeString": "address payable"
                        }
                      },
                      {
                        "argumentTypes": null,
                        "id": 5183,
                        "name": "amount",
                        "nodeType": "Identifier",
                        "overloadedDeclarations": [],
                        "referencedDeclaration": 5177,
                        "src": "599:6:23",
                        "typeDescriptions": {
                          "typeIdentifier": "t_uint256",
                          "typeString": "uint256"
                        }
                      }
                    ],
                    "expression": {
                      "argumentTypes": [
                        {
                          "typeIdentifier": "t_address_payable",
                          "typeString": "address payable"
                        },
                        {
                          "typeIdentifier": "t_uint256",
                          "typeString": "uint256"
                        }
                      ],
                      "id": 5180,
                      "name": "_burn",
                      "nodeType": "Identifier",
                      "overloadedDeclarations": [],
                      "referencedDeclaration": 5094,
                      "src": "579:5:23",
                      "typeDescriptions": {
                        "typeIdentifier": "t_function_internal_nonpayable$_t_address_$_t_uint256_$returns$__$",
                        "typeString": "function (address,uint256)"
                      }
                    },
                    "id": 5184,
                    "isConstant": false,
                    "isLValue": false,
                    "isPure": false,
                    "kind": "functionCall",
                    "lValueRequested": false,
                    "names": [],
                    "nodeType": "FunctionCall",
                    "src": "579:27:23",
                    "tryCall": false,
                    "typeDescriptions": {
                      "typeIdentifier": "t_tuple$__$",
                      "typeString": "tuple()"
                    }
                  },
                  "id": 5185,
                  "nodeType": "ExpressionStatement",
                  "src": "579:27:23"
                }
              ]
            },
            "documentation": {
              "id": 5175,
              "nodeType": "StructuredDocumentation",
              "src": "421:98:23",
              "text": "@dev Destroys `amount` tokens from the caller.\n     * See {ERC20-_burn}."
            },
            "functionSelector": "42966c68",
            "id": 5187,
            "implemented": true,
            "kind": "function",
            "modifiers": [],
            "name": "burn",
            "nodeType": "FunctionDefinition",
            "overrides": null,
            "parameters": {
              "id": 5178,
              "nodeType": "ParameterList",
              "parameters": [
                {
                  "constant": false,
                  "id": 5177,
                  "name": "amount",
                  "nodeType": "VariableDeclaration",
                  "overrides": null,
                  "scope": 5187,
                  "src": "538:14:23",
                  "stateVariable": false,
                  "storageLocation": "default",
                  "typeDescriptions": {
                    "typeIdentifier": "t_uint256",
                    "typeString": "uint256"
                  },
                  "typeName": {
                    "id": 5176,
                    "name": "uint256",
                    "nodeType": "ElementaryTypeName",
                    "src": "538:7:23",
                    "typeDescriptions": {
                      "typeIdentifier": "t_uint256",
                      "typeString": "uint256"
                    }
                  },
                  "value": null,
                  "visibility": "internal"
                }
              ],
              "src": "537:16:23"
            },
            "returnParameters": {
              "id": 5179,
              "nodeType": "ParameterList",
              "parameters": [],
              "src": "569:0:23"
            },
            "scope": 5221,
            "src": "524:89:23",
            "stateMutability": "nonpayable",
            "virtual": true,
            "visibility": "public"
          },
          {
            "body": {
              "id": 5219,
              "nodeType": "Block",
              "src": "985:224:23",
              "statements": [
                {
                  "assignments": [
                    5196
                  ],
                  "declarations": [
                    {
                      "constant": false,
                      "id": 5196,
                      "name": "decreasedAllowance",
                      "nodeType": "VariableDeclaration",
                      "overrides": null,
                      "scope": 5219,
                      "src": "995:26:23",
                      "stateVariable": false,
                      "storageLocation": "default",
                      "typeDescriptions": {
                        "typeIdentifier": "t_uint256",
                        "typeString": "uint256"
                      },
                      "typeName": {
                        "id": 5195,
                        "name": "uint256",
                        "nodeType": "ElementaryTypeName",
                        "src": "995:7:23",
                        "typeDescriptions": {
                          "typeIdentifier": "t_uint256",
                          "typeString": "uint256"
                        }
                      },
                      "value": null,
                      "visibility": "internal"
                    }
                  ],
                  "id": 5206,
                  "initialValue": {
                    "argumentTypes": null,
                    "arguments": [
                      {
                        "argumentTypes": null,
                        "id": 5203,
                        "name": "amount",
                        "nodeType": "Identifier",
                        "overloadedDeclarations": [],
                        "referencedDeclaration": 5192,
                        "src": "1061:6:23",
                        "typeDescriptions": {
                          "typeIdentifier": "t_uint256",
                          "typeString": "uint256"
                        }
                      },
                      {
                        "argumentTypes": null,
                        "hexValue": "45524332303a206275726e20616d6f756e74206578636565647320616c6c6f77616e6365",
                        "id": 5204,
                        "isConstant": false,
                        "isLValue": false,
                        "isPure": true,
                        "kind": "string",
                        "lValueRequested": false,
                        "nodeType": "Literal",
                        "src": "1069:38:23",
                        "subdenomination": null,
                        "typeDescriptions": {
                          "typeIdentifier": "t_stringliteral_a287c363786607a1457a2d9d12fa61c0073358e02d76b4035fc2c2d86a19c0db",
                          "typeString": "literal_string \"ERC20: burn amount exceeds allowance\""
                        },
                        "value": "ERC20: burn amount exceeds allowance"
                      }
                    ],
                    "expression": {
                      "argumentTypes": [
                        {
                          "typeIdentifier": "t_uint256",
                          "typeString": "uint256"
                        },
                        {
                          "typeIdentifier": "t_stringliteral_a287c363786607a1457a2d9d12fa61c0073358e02d76b4035fc2c2d86a19c0db",
                          "typeString": "literal_string \"ERC20: burn amount exceeds allowance\""
                        }
                      ],
                      "expression": {
                        "argumentTypes": null,
                        "arguments": [
                          {
                            "argumentTypes": null,
                            "id": 5198,
                            "name": "account",
                            "nodeType": "Identifier",
                            "overloadedDeclarations": [],
                            "referencedDeclaration": 5190,
                            "src": "1034:7:23",
                            "typeDescriptions": {
                              "typeIdentifier": "t_address",
                              "typeString": "address"
                            }
                          },
                          {
                            "argumentTypes": null,
                            "arguments": [],
                            "expression": {
                              "argumentTypes": [],
                              "id": 5199,
                              "name": "_msgSender",
                              "nodeType": "Identifier",
                              "overloadedDeclarations": [],
                              "referencedDeclaration": 5856,
                              "src": "1043:10:23",
                              "typeDescriptions": {
                                "typeIdentifier": "t_function_internal_view$__$returns$_t_address_payable_$",
                                "typeString": "function () view returns (address payable)"
                              }
                            },
                            "id": 5200,
                            "isConstant": false,
                            "isLValue": false,
                            "isPure": false,
                            "kind": "functionCall",
                            "lValueRequested": false,
                            "names": [],
                            "nodeType": "FunctionCall",
                            "src": "1043:12:23",
                            "tryCall": false,
                            "typeDescriptions": {
                              "typeIdentifier": "t_address_payable",
                              "typeString": "address payable"
                            }
                          }
                        ],
                        "expression": {
                          "argumentTypes": [
                            {
                              "typeIdentifier": "t_address",
                              "typeString": "address"
                            },
                            {
                              "typeIdentifier": "t_address_payable",
                              "typeString": "address payable"
                            }
                          ],
                          "id": 5197,
                          "name": "allowance",
                          "nodeType": "Identifier",
                          "overloadedDeclarations": [],
                          "referencedDeclaration": 4801,
                          "src": "1024:9:23",
                          "typeDescriptions": {
                            "typeIdentifier": "t_function_internal_view$_t_address_$_t_address_$returns$_t_uint256_$",
                            "typeString": "function (address,address) view returns (uint256)"
                          }
                        },
                        "id": 5201,
                        "isConstant": false,
                        "isLValue": false,
                        "isPure": false,
                        "kind": "functionCall",
                        "lValueRequested": false,
                        "names": [],
                        "nodeType": "FunctionCall",
                        "src": "1024:32:23",
                        "tryCall": false,
                        "typeDescriptions": {
                          "typeIdentifier": "t_uint256",
                          "typeString": "uint256"
                        }
                      },
                      "id": 5202,
                      "isConstant": false,
                      "isLValue": false,
                      "isPure": false,
                      "lValueRequested": false,
                      "memberName": "sub",
                      "nodeType": "MemberAccess",
                      "referencedDeclaration": 3981,
                      "src": "1024:36:23",
                      "typeDescriptions": {
                        "typeIdentifier": "t_function_internal_pure$_t_uint256_$_t_uint256_$_t_string_memory_ptr_$returns$_t_uint256_$bound_to$_t_uint256_$",
                        "typeString": "function (uint256,uint256,string memory) pure returns (uint256)"
                      }
                    },
                    "id": 5205,
                    "isConstant": false,
                    "isLValue": false,
                    "isPure": false,
                    "kind": "functionCall",
                    "lValueRequested": false,
                    "names": [],
                    "nodeType": "FunctionCall",
                    "src": "1024:84:23",
                    "tryCall": false,
                    "typeDescriptions": {
                      "typeIdentifier": "t_uint256",
                      "typeString": "uint256"
                    }
                  },
                  "nodeType": "VariableDeclarationStatement",
                  "src": "995:113:23"
                },
                {
                  "expression": {
                    "argumentTypes": null,
                    "arguments": [
                      {
                        "argumentTypes": null,
                        "id": 5208,
                        "name": "account",
                        "nodeType": "Identifier",
                        "overloadedDeclarations": [],
                        "referencedDeclaration": 5190,
                        "src": "1128:7:23",
                        "typeDescriptions": {
                          "typeIdentifier": "t_address",
                          "typeString": "address"
                        }
                      },
                      {
                        "argumentTypes": null,
                        "arguments": [],
                        "expression": {
                          "argumentTypes": [],
                          "id": 5209,
                          "name": "_msgSender",
                          "nodeType": "Identifier",
                          "overloadedDeclarations": [],
                          "referencedDeclaration": 5856,
                          "src": "1137:10:23",
                          "typeDescriptions": {
                            "typeIdentifier": "t_function_internal_view$__$returns$_t_address_payable_$",
                            "typeString": "function () view returns (address payable)"
                          }
                        },
                        "id": 5210,
                        "isConstant": false,
                        "isLValue": false,
                        "isPure": false,
                        "kind": "functionCall",
                        "lValueRequested": false,
                        "names": [],
                        "nodeType": "FunctionCall",
                        "src": "1137:12:23",
                        "tryCall": false,
                        "typeDescriptions": {
                          "typeIdentifier": "t_address_payable",
                          "typeString": "address payable"
                        }
                      },
                      {
                        "argumentTypes": null,
                        "id": 5211,
                        "name": "decreasedAllowance",
                        "nodeType": "Identifier",
                        "overloadedDeclarations": [],
                        "referencedDeclaration": 5196,
                        "src": "1151:18:23",
                        "typeDescriptions": {
                          "typeIdentifier": "t_uint256",
                          "typeString": "uint256"
                        }
                      }
                    ],
                    "expression": {
                      "argumentTypes": [
                        {
                          "typeIdentifier": "t_address",
                          "typeString": "address"
                        },
                        {
                          "typeIdentifier": "t_address_payable",
                          "typeString": "address payable"
                        },
                        {
                          "typeIdentifier": "t_uint256",
                          "typeString": "uint256"
                        }
                      ],
                      "id": 5207,
                      "name": "_approve",
                      "nodeType": "Identifier",
                      "overloadedDeclarations": [],
                      "referencedDeclaration": 5139,
                      "src": "1119:8:23",
                      "typeDescriptions": {
                        "typeIdentifier": "t_function_internal_nonpayable$_t_address_$_t_address_$_t_uint256_$returns$__$",
                        "typeString": "function (address,address,uint256)"
                      }
                    },
                    "id": 5212,
                    "isConstant": false,
                    "isLValue": false,
                    "isPure": false,
                    "kind": "functionCall",
                    "lValueRequested": false,
                    "names": [],
                    "nodeType": "FunctionCall",
                    "src": "1119:51:23",
                    "tryCall": false,
                    "typeDescriptions": {
                      "typeIdentifier": "t_tuple$__$",
                      "typeString": "tuple()"
                    }
                  },
                  "id": 5213,
                  "nodeType": "ExpressionStatement",
                  "src": "1119:51:23"
                },
                {
                  "expression": {
                    "argumentTypes": null,
                    "arguments": [
                      {
                        "argumentTypes": null,
                        "id": 5215,
                        "name": "account",
                        "nodeType": "Identifier",
                        "overloadedDeclarations": [],
                        "referencedDeclaration": 5190,
                        "src": "1186:7:23",
                        "typeDescriptions": {
                          "typeIdentifier": "t_address",
                          "typeString": "address"
                        }
                      },
                      {
                        "argumentTypes": null,
                        "id": 5216,
                        "name": "amount",
                        "nodeType": "Identifier",
                        "overloadedDeclarations": [],
                        "referencedDeclaration": 5192,
                        "src": "1195:6:23",
                        "typeDescriptions": {
                          "typeIdentifier": "t_uint256",
                          "typeString": "uint256"
                        }
                      }
                    ],
                    "expression": {
                      "argumentTypes": [
                        {
                          "typeIdentifier": "t_address",
                          "typeString": "address"
                        },
                        {
                          "typeIdentifier": "t_uint256",
                          "typeString": "uint256"
                        }
                      ],
                      "id": 5214,
                      "name": "_burn",
                      "nodeType": "Identifier",
                      "overloadedDeclarations": [],
                      "referencedDeclaration": 5094,
                      "src": "1180:5:23",
                      "typeDescriptions": {
                        "typeIdentifier": "t_function_internal_nonpayable$_t_address_$_t_uint256_$returns$__$",
                        "typeString": "function (address,uint256)"
                      }
                    },
                    "id": 5217,
                    "isConstant": false,
                    "isLValue": false,
                    "isPure": false,
                    "kind": "functionCall",
                    "lValueRequested": false,
                    "names": [],
                    "nodeType": "FunctionCall",
                    "src": "1180:22:23",
                    "tryCall": false,
                    "typeDescriptions": {
                      "typeIdentifier": "t_tuple$__$",
                      "typeString": "tuple()"
                    }
                  },
                  "id": 5218,
                  "nodeType": "ExpressionStatement",
                  "src": "1180:22:23"
                }
              ]
            },
            "documentation": {
              "id": 5188,
              "nodeType": "StructuredDocumentation",
              "src": "619:295:23",
              "text": "@dev Destroys `amount` tokens from `account`, deducting from the caller's\nallowance.\n     * See {ERC20-_burn} and {ERC20-allowance}.\n     * Requirements:\n     * - the caller must have allowance for ``accounts``'s tokens of at least\n`amount`."
            },
            "functionSelector": "79cc6790",
            "id": 5220,
            "implemented": true,
            "kind": "function",
            "modifiers": [],
            "name": "burnFrom",
            "nodeType": "FunctionDefinition",
            "overrides": null,
            "parameters": {
              "id": 5193,
              "nodeType": "ParameterList",
              "parameters": [
                {
                  "constant": false,
                  "id": 5190,
                  "name": "account",
                  "nodeType": "VariableDeclaration",
                  "overrides": null,
                  "scope": 5220,
                  "src": "937:15:23",
                  "stateVariable": false,
                  "storageLocation": "default",
                  "typeDescriptions": {
                    "typeIdentifier": "t_address",
                    "typeString": "address"
                  },
                  "typeName": {
                    "id": 5189,
                    "name": "address",
                    "nodeType": "ElementaryTypeName",
                    "src": "937:7:23",
                    "stateMutability": "nonpayable",
                    "typeDescriptions": {
                      "typeIdentifier": "t_address",
                      "typeString": "address"
                    }
                  },
                  "value": null,
                  "visibility": "internal"
                },
                {
                  "constant": false,
                  "id": 5192,
                  "name": "amount",
                  "nodeType": "VariableDeclaration",
                  "overrides": null,
                  "scope": 5220,
                  "src": "954:14:23",
                  "stateVariable": false,
                  "storageLocation": "default",
                  "typeDescriptions": {
                    "typeIdentifier": "t_uint256",
                    "typeString": "uint256"
                  },
                  "typeName": {
                    "id": 5191,
                    "name": "uint256",
                    "nodeType": "ElementaryTypeName",
                    "src": "954:7:23",
                    "typeDescriptions": {
                      "typeIdentifier": "t_uint256",
                      "typeString": "uint256"
                    }
                  },
                  "value": null,
                  "visibility": "internal"
                }
              ],
              "src": "936:33:23"
            },
            "returnParameters": {
              "id": 5194,
              "nodeType": "ParameterList",
              "parameters": [],
              "src": "985:0:23"
            },
            "scope": 5221,
            "src": "919:290:23",
            "stateMutability": "nonpayable",
            "virtual": true,
            "visibility": "public"
          }
        ],
        "scope": 5222,
        "src": "332:879:23"
      }
    ],
    "src": "33:1179:23"
  },
  "legacyAST": {
    "attributes": {
      "absolutePath": "@openzeppelin/contracts/token/ERC20/ERC20Burnable.sol",
      "exportedSymbols": {
        "ERC20Burnable": [
          5221
        ]
      }
    },
    "children": [
      {
        "attributes": {
          "literals": [
            "solidity",
            ">=",
            "0.6",
            ".0",
            "<",
            "0.8",
            ".0"
          ]
        },
        "id": 5164,
        "name": "PragmaDirective",
        "src": "33:31:23"
      },
      {
        "attributes": {
          "SourceUnit": 5869,
          "absolutePath": "@openzeppelin/contracts/utils/Context.sol",
          "file": "../../utils/Context.sol",
          "scope": 5222,
          "symbolAliases": [
            null
          ],
          "unitAlias": ""
        },
        "id": 5165,
        "name": "ImportDirective",
        "src": "66:33:23"
      },
      {
        "attributes": {
          "SourceUnit": 5163,
          "absolutePath": "@openzeppelin/contracts/token/ERC20/ERC20.sol",
          "file": "./ERC20.sol",
          "scope": 5222,
          "symbolAliases": [
            null
          ],
          "unitAlias": ""
        },
        "id": 5166,
        "name": "ImportDirective",
        "src": "100:21:23"
      },
      {
        "attributes": {
          "abstract": true,
          "contractDependencies": [
            5162,
            5336,
            5868
          ],
          "contractKind": "contract",
          "fullyImplemented": false,
          "linearizedBaseContracts": [
            5221,
            5162,
            5336,
            5868
          ],
          "name": "ERC20Burnable",
          "scope": 5222
        },
        "children": [
          {
            "attributes": {
              "text": "@dev Extension of {ERC20} that allows token holders to destroy both their own\ntokens and those that they have an allowance for, in a way that can be\nrecognized off-chain (via event analysis)."
            },
            "id": 5167,
            "name": "StructuredDocumentation",
            "src": "123:208:23"
          },
          {
            "attributes": {
              "arguments": null
            },
            "children": [
              {
                "attributes": {
                  "contractScope": null,
                  "name": "Context",
                  "referencedDeclaration": 5868,
                  "type": "contract Context"
                },
                "id": 5168,
                "name": "UserDefinedTypeName",
                "src": "367:7:23"
              }
            ],
            "id": 5169,
            "name": "InheritanceSpecifier",
            "src": "367:7:23"
          },
          {
            "attributes": {
              "arguments": null
            },
            "children": [
              {
                "attributes": {
                  "contractScope": null,
                  "name": "ERC20",
                  "referencedDeclaration": 5162,
                  "type": "contract ERC20"
                },
                "id": 5170,
                "name": "UserDefinedTypeName",
                "src": "376:5:23"
              }
            ],
            "id": 5171,
            "name": "InheritanceSpecifier",
            "src": "376:5:23"
          },
          {
            "children": [
              {
                "attributes": {
                  "contractScope": null,
                  "name": "SafeMath",
                  "referencedDeclaration": 4030,
                  "type": "library SafeMath"
                },
                "id": 5172,
                "name": "UserDefinedTypeName",
                "src": "394:8:23"
              },
              {
                "attributes": {
                  "name": "uint256",
                  "type": "uint256"
                },
                "id": 5173,
                "name": "ElementaryTypeName",
                "src": "407:7:23"
              }
            ],
            "id": 5174,
            "name": "UsingForDirective",
            "src": "388:27:23"
          },
          {
            "attributes": {
              "functionSelector": "42966c68",
              "implemented": true,
              "isConstructor": false,
              "kind": "function",
              "modifiers": [
                null
              ],
              "name": "burn",
              "overrides": null,
              "scope": 5221,
              "stateMutability": "nonpayable",
              "virtual": true,
              "visibility": "public"
            },
            "children": [
              {
                "attributes": {
                  "text": "@dev Destroys `amount` tokens from the caller.\n     * See {ERC20-_burn}."
                },
                "id": 5175,
                "name": "StructuredDocumentation",
                "src": "421:98:23"
              },
              {
                "children": [
                  {
                    "attributes": {
                      "constant": false,
                      "name": "amount",
                      "overrides": null,
                      "scope": 5187,
                      "stateVariable": false,
                      "storageLocation": "default",
                      "type": "uint256",
                      "value": null,
                      "visibility": "internal"
                    },
                    "children": [
                      {
                        "attributes": {
                          "name": "uint256",
                          "type": "uint256"
                        },
                        "id": 5176,
                        "name": "ElementaryTypeName",
                        "src": "538:7:23"
                      }
                    ],
                    "id": 5177,
                    "name": "VariableDeclaration",
                    "src": "538:14:23"
                  }
                ],
                "id": 5178,
                "name": "ParameterList",
                "src": "537:16:23"
              },
              {
                "attributes": {
                  "parameters": [
                    null
                  ]
                },
                "children": [],
                "id": 5179,
                "name": "ParameterList",
                "src": "569:0:23"
              },
              {
                "children": [
                  {
                    "children": [
                      {
                        "attributes": {
                          "argumentTypes": null,
                          "isConstant": false,
                          "isLValue": false,
                          "isPure": false,
                          "isStructConstructorCall": false,
                          "lValueRequested": false,
                          "names": [
                            null
                          ],
                          "tryCall": false,
                          "type": "tuple()",
                          "type_conversion": false
                        },
                        "children": [
                          {
                            "attributes": {
                              "argumentTypes": [
                                {
                                  "typeIdentifier": "t_address_payable",
                                  "typeString": "address payable"
                                },
                                {
                                  "typeIdentifier": "t_uint256",
                                  "typeString": "uint256"
                                }
                              ],
                              "overloadedDeclarations": [
                                null
                              ],
                              "referencedDeclaration": 5094,
                              "type": "function (address,uint256)",
                              "value": "_burn"
                            },
                            "id": 5180,
                            "name": "Identifier",
                            "src": "579:5:23"
                          },
                          {
                            "attributes": {
                              "argumentTypes": null,
                              "arguments": [
                                null
                              ],
                              "isConstant": false,
                              "isLValue": false,
                              "isPure": false,
                              "isStructConstructorCall": false,
                              "lValueRequested": false,
                              "names": [
                                null
                              ],
                              "tryCall": false,
                              "type": "address payable",
                              "type_conversion": false
                            },
                            "children": [
                              {
                                "attributes": {
                                  "argumentTypes": [
                                    null
                                  ],
                                  "overloadedDeclarations": [
                                    null
                                  ],
                                  "referencedDeclaration": 5856,
                                  "type": "function () view returns (address payable)",
                                  "value": "_msgSender"
                                },
                                "id": 5181,
                                "name": "Identifier",
                                "src": "585:10:23"
                              }
                            ],
                            "id": 5182,
                            "name": "FunctionCall",
                            "src": "585:12:23"
                          },
                          {
                            "attributes": {
                              "argumentTypes": null,
                              "overloadedDeclarations": [
                                null
                              ],
                              "referencedDeclaration": 5177,
                              "type": "uint256",
                              "value": "amount"
                            },
                            "id": 5183,
                            "name": "Identifier",
                            "src": "599:6:23"
                          }
                        ],
                        "id": 5184,
                        "name": "FunctionCall",
                        "src": "579:27:23"
                      }
                    ],
                    "id": 5185,
                    "name": "ExpressionStatement",
                    "src": "579:27:23"
                  }
                ],
                "id": 5186,
                "name": "Block",
                "src": "569:44:23"
              }
            ],
            "id": 5187,
            "name": "FunctionDefinition",
            "src": "524:89:23"
          },
          {
            "attributes": {
              "functionSelector": "79cc6790",
              "implemented": true,
              "isConstructor": false,
              "kind": "function",
              "modifiers": [
                null
              ],
              "name": "burnFrom",
              "overrides": null,
              "scope": 5221,
              "stateMutability": "nonpayable",
              "virtual": true,
              "visibility": "public"
            },
            "children": [
              {
                "attributes": {
                  "text": "@dev Destroys `amount` tokens from `account`, deducting from the caller's\nallowance.\n     * See {ERC20-_burn} and {ERC20-allowance}.\n     * Requirements:\n     * - the caller must have allowance for ``accounts``'s tokens of at least\n`amount`."
                },
                "id": 5188,
                "name": "StructuredDocumentation",
                "src": "619:295:23"
              },
              {
                "children": [
                  {
                    "attributes": {
                      "constant": false,
                      "name": "account",
                      "overrides": null,
                      "scope": 5220,
                      "stateVariable": false,
                      "storageLocation": "default",
                      "type": "address",
                      "value": null,
                      "visibility": "internal"
                    },
                    "children": [
                      {
                        "attributes": {
                          "name": "address",
                          "stateMutability": "nonpayable",
                          "type": "address"
                        },
                        "id": 5189,
                        "name": "ElementaryTypeName",
                        "src": "937:7:23"
                      }
                    ],
                    "id": 5190,
                    "name": "VariableDeclaration",
                    "src": "937:15:23"
                  },
                  {
                    "attributes": {
                      "constant": false,
                      "name": "amount",
                      "overrides": null,
                      "scope": 5220,
                      "stateVariable": false,
                      "storageLocation": "default",
                      "type": "uint256",
                      "value": null,
                      "visibility": "internal"
                    },
                    "children": [
                      {
                        "attributes": {
                          "name": "uint256",
                          "type": "uint256"
                        },
                        "id": 5191,
                        "name": "ElementaryTypeName",
                        "src": "954:7:23"
                      }
                    ],
                    "id": 5192,
                    "name": "VariableDeclaration",
                    "src": "954:14:23"
                  }
                ],
                "id": 5193,
                "name": "ParameterList",
                "src": "936:33:23"
              },
              {
                "attributes": {
                  "parameters": [
                    null
                  ]
                },
                "children": [],
                "id": 5194,
                "name": "ParameterList",
                "src": "985:0:23"
              },
              {
                "children": [
                  {
                    "attributes": {
                      "assignments": [
                        5196
                      ]
                    },
                    "children": [
                      {
                        "attributes": {
                          "constant": false,
                          "name": "decreasedAllowance",
                          "overrides": null,
                          "scope": 5219,
                          "stateVariable": false,
                          "storageLocation": "default",
                          "type": "uint256",
                          "value": null,
                          "visibility": "internal"
                        },
                        "children": [
                          {
                            "attributes": {
                              "name": "uint256",
                              "type": "uint256"
                            },
                            "id": 5195,
                            "name": "ElementaryTypeName",
                            "src": "995:7:23"
                          }
                        ],
                        "id": 5196,
                        "name": "VariableDeclaration",
                        "src": "995:26:23"
                      },
                      {
                        "attributes": {
                          "argumentTypes": null,
                          "isConstant": false,
                          "isLValue": false,
                          "isPure": false,
                          "isStructConstructorCall": false,
                          "lValueRequested": false,
                          "names": [
                            null
                          ],
                          "tryCall": false,
                          "type": "uint256",
                          "type_conversion": false
                        },
                        "children": [
                          {
                            "attributes": {
                              "argumentTypes": [
                                {
                                  "typeIdentifier": "t_uint256",
                                  "typeString": "uint256"
                                },
                                {
                                  "typeIdentifier": "t_stringliteral_a287c363786607a1457a2d9d12fa61c0073358e02d76b4035fc2c2d86a19c0db",
                                  "typeString": "literal_string \"ERC20: burn amount exceeds allowance\""
                                }
                              ],
                              "isConstant": false,
                              "isLValue": false,
                              "isPure": false,
                              "lValueRequested": false,
                              "member_name": "sub",
                              "referencedDeclaration": 3981,
                              "type": "function (uint256,uint256,string memory) pure returns (uint256)"
                            },
                            "children": [
                              {
                                "attributes": {
                                  "argumentTypes": null,
                                  "isConstant": false,
                                  "isLValue": false,
                                  "isPure": false,
                                  "isStructConstructorCall": false,
                                  "lValueRequested": false,
                                  "names": [
                                    null
                                  ],
                                  "tryCall": false,
                                  "type": "uint256",
                                  "type_conversion": false
                                },
                                "children": [
                                  {
                                    "attributes": {
                                      "argumentTypes": [
                                        {
                                          "typeIdentifier": "t_address",
                                          "typeString": "address"
                                        },
                                        {
                                          "typeIdentifier": "t_address_payable",
                                          "typeString": "address payable"
                                        }
                                      ],
                                      "overloadedDeclarations": [
                                        null
                                      ],
                                      "referencedDeclaration": 4801,
                                      "type": "function (address,address) view returns (uint256)",
                                      "value": "allowance"
                                    },
                                    "id": 5197,
                                    "name": "Identifier",
                                    "src": "1024:9:23"
                                  },
                                  {
                                    "attributes": {
                                      "argumentTypes": null,
                                      "overloadedDeclarations": [
                                        null
                                      ],
                                      "referencedDeclaration": 5190,
                                      "type": "address",
                                      "value": "account"
                                    },
                                    "id": 5198,
                                    "name": "Identifier",
                                    "src": "1034:7:23"
                                  },
                                  {
                                    "attributes": {
                                      "argumentTypes": null,
                                      "arguments": [
                                        null
                                      ],
                                      "isConstant": false,
                                      "isLValue": false,
                                      "isPure": false,
                                      "isStructConstructorCall": false,
                                      "lValueRequested": false,
                                      "names": [
                                        null
                                      ],
                                      "tryCall": false,
                                      "type": "address payable",
                                      "type_conversion": false
                                    },
                                    "children": [
                                      {
                                        "attributes": {
                                          "argumentTypes": [
                                            null
                                          ],
                                          "overloadedDeclarations": [
                                            null
                                          ],
                                          "referencedDeclaration": 5856,
                                          "type": "function () view returns (address payable)",
                                          "value": "_msgSender"
                                        },
                                        "id": 5199,
                                        "name": "Identifier",
                                        "src": "1043:10:23"
                                      }
                                    ],
                                    "id": 5200,
                                    "name": "FunctionCall",
                                    "src": "1043:12:23"
                                  }
                                ],
                                "id": 5201,
                                "name": "FunctionCall",
                                "src": "1024:32:23"
                              }
                            ],
                            "id": 5202,
                            "name": "MemberAccess",
                            "src": "1024:36:23"
                          },
                          {
                            "attributes": {
                              "argumentTypes": null,
                              "overloadedDeclarations": [
                                null
                              ],
                              "referencedDeclaration": 5192,
                              "type": "uint256",
                              "value": "amount"
                            },
                            "id": 5203,
                            "name": "Identifier",
                            "src": "1061:6:23"
                          },
                          {
                            "attributes": {
                              "argumentTypes": null,
                              "hexvalue": "45524332303a206275726e20616d6f756e74206578636565647320616c6c6f77616e6365",
                              "isConstant": false,
                              "isLValue": false,
                              "isPure": true,
                              "lValueRequested": false,
                              "subdenomination": null,
                              "token": "string",
                              "type": "literal_string \"ERC20: burn amount exceeds allowance\"",
                              "value": "ERC20: burn amount exceeds allowance"
                            },
                            "id": 5204,
                            "name": "Literal",
                            "src": "1069:38:23"
                          }
                        ],
                        "id": 5205,
                        "name": "FunctionCall",
                        "src": "1024:84:23"
                      }
                    ],
                    "id": 5206,
                    "name": "VariableDeclarationStatement",
                    "src": "995:113:23"
                  },
                  {
                    "children": [
                      {
                        "attributes": {
                          "argumentTypes": null,
                          "isConstant": false,
                          "isLValue": false,
                          "isPure": false,
                          "isStructConstructorCall": false,
                          "lValueRequested": false,
                          "names": [
                            null
                          ],
                          "tryCall": false,
                          "type": "tuple()",
                          "type_conversion": false
                        },
                        "children": [
                          {
                            "attributes": {
                              "argumentTypes": [
                                {
                                  "typeIdentifier": "t_address",
                                  "typeString": "address"
                                },
                                {
                                  "typeIdentifier": "t_address_payable",
                                  "typeString": "address payable"
                                },
                                {
                                  "typeIdentifier": "t_uint256",
                                  "typeString": "uint256"
                                }
                              ],
                              "overloadedDeclarations": [
                                null
                              ],
                              "referencedDeclaration": 5139,
                              "type": "function (address,address,uint256)",
                              "value": "_approve"
                            },
                            "id": 5207,
                            "name": "Identifier",
                            "src": "1119:8:23"
                          },
                          {
                            "attributes": {
                              "argumentTypes": null,
                              "overloadedDeclarations": [
                                null
                              ],
                              "referencedDeclaration": 5190,
                              "type": "address",
                              "value": "account"
                            },
                            "id": 5208,
                            "name": "Identifier",
                            "src": "1128:7:23"
                          },
                          {
                            "attributes": {
                              "argumentTypes": null,
                              "arguments": [
                                null
                              ],
                              "isConstant": false,
                              "isLValue": false,
                              "isPure": false,
                              "isStructConstructorCall": false,
                              "lValueRequested": false,
                              "names": [
                                null
                              ],
                              "tryCall": false,
                              "type": "address payable",
                              "type_conversion": false
                            },
                            "children": [
                              {
                                "attributes": {
                                  "argumentTypes": [
                                    null
                                  ],
                                  "overloadedDeclarations": [
                                    null
                                  ],
                                  "referencedDeclaration": 5856,
                                  "type": "function () view returns (address payable)",
                                  "value": "_msgSender"
                                },
                                "id": 5209,
                                "name": "Identifier",
                                "src": "1137:10:23"
                              }
                            ],
                            "id": 5210,
                            "name": "FunctionCall",
                            "src": "1137:12:23"
                          },
                          {
                            "attributes": {
                              "argumentTypes": null,
                              "overloadedDeclarations": [
                                null
                              ],
                              "referencedDeclaration": 5196,
                              "type": "uint256",
                              "value": "decreasedAllowance"
                            },
                            "id": 5211,
                            "name": "Identifier",
                            "src": "1151:18:23"
                          }
                        ],
                        "id": 5212,
                        "name": "FunctionCall",
                        "src": "1119:51:23"
                      }
                    ],
                    "id": 5213,
                    "name": "ExpressionStatement",
                    "src": "1119:51:23"
                  },
                  {
                    "children": [
                      {
                        "attributes": {
                          "argumentTypes": null,
                          "isConstant": false,
                          "isLValue": false,
                          "isPure": false,
                          "isStructConstructorCall": false,
                          "lValueRequested": false,
                          "names": [
                            null
                          ],
                          "tryCall": false,
                          "type": "tuple()",
                          "type_conversion": false
                        },
                        "children": [
                          {
                            "attributes": {
                              "argumentTypes": [
                                {
                                  "typeIdentifier": "t_address",
                                  "typeString": "address"
                                },
                                {
                                  "typeIdentifier": "t_uint256",
                                  "typeString": "uint256"
                                }
                              ],
                              "overloadedDeclarations": [
                                null
                              ],
                              "referencedDeclaration": 5094,
                              "type": "function (address,uint256)",
                              "value": "_burn"
                            },
                            "id": 5214,
                            "name": "Identifier",
                            "src": "1180:5:23"
                          },
                          {
                            "attributes": {
                              "argumentTypes": null,
                              "overloadedDeclarations": [
                                null
                              ],
                              "referencedDeclaration": 5190,
                              "type": "address",
                              "value": "account"
                            },
                            "id": 5215,
                            "name": "Identifier",
                            "src": "1186:7:23"
                          },
                          {
                            "attributes": {
                              "argumentTypes": null,
                              "overloadedDeclarations": [
                                null
                              ],
                              "referencedDeclaration": 5192,
                              "type": "uint256",
                              "value": "amount"
                            },
                            "id": 5216,
                            "name": "Identifier",
                            "src": "1195:6:23"
                          }
                        ],
                        "id": 5217,
                        "name": "FunctionCall",
                        "src": "1180:22:23"
                      }
                    ],
                    "id": 5218,
                    "name": "ExpressionStatement",
                    "src": "1180:22:23"
                  }
                ],
                "id": 5219,
                "name": "Block",
                "src": "985:224:23"
              }
            ],
            "id": 5220,
            "name": "FunctionDefinition",
            "src": "919:290:23"
          }
        ],
        "id": 5221,
        "name": "ContractDefinition",
        "src": "332:879:23"
      }
    ],
    "id": 5222,
    "name": "SourceUnit",
    "src": "33:1179:23"
  },
  "compiler": {
    "name": "solc",
    "version": "0.6.5+commit.f956cc89.Emscripten.clang"
  },
  "networks": {},
  "schemaVersion": "3.4.1",
  "updatedAt": "2021-06-29T17:32:04.043Z",
  "devdoc": {
    "details": "Extension of {ERC20} that allows token holders to destroy both their own tokens and those that they have an allowance for, in a way that can be recognized off-chain (via event analysis).",
    "methods": {
      "allowance(address,address)": {
        "details": "See {IERC20-allowance}."
      },
      "approve(address,uint256)": {
        "details": "See {IERC20-approve}.     * Requirements:     * - `spender` cannot be the zero address."
      },
      "balanceOf(address)": {
        "details": "See {IERC20-balanceOf}."
      },
      "burn(uint256)": {
        "details": "Destroys `amount` tokens from the caller.     * See {ERC20-_burn}."
      },
      "burnFrom(address,uint256)": {
        "details": "Destroys `amount` tokens from `account`, deducting from the caller's allowance.     * See {ERC20-_burn} and {ERC20-allowance}.     * Requirements:     * - the caller must have allowance for ``accounts``'s tokens of at least `amount`."
      },
      "decimals()": {
        "details": "Returns the number of decimals used to get its user representation. For example, if `decimals` equals `2`, a balance of `505` tokens should be displayed to a user as `5,05` (`505 / 10 ** 2`).     * Tokens usually opt for a value of 18, imitating the relationship between Ether and Wei. This is the value {ERC20} uses, unless {_setupDecimals} is called.     * NOTE: This information is only used for _display_ purposes: it in no way affects any of the arithmetic of the contract, including {IERC20-balanceOf} and {IERC20-transfer}."
      },
      "decreaseAllowance(address,uint256)": {
        "details": "Atomically decreases the allowance granted to `spender` by the caller.     * This is an alternative to {approve} that can be used as a mitigation for problems described in {IERC20-approve}.     * Emits an {Approval} event indicating the updated allowance.     * Requirements:     * - `spender` cannot be the zero address. - `spender` must have allowance for the caller of at least `subtractedValue`."
      },
      "increaseAllowance(address,uint256)": {
        "details": "Atomically increases the allowance granted to `spender` by the caller.     * This is an alternative to {approve} that can be used as a mitigation for problems described in {IERC20-approve}.     * Emits an {Approval} event indicating the updated allowance.     * Requirements:     * - `spender` cannot be the zero address."
      },
      "name()": {
        "details": "Returns the name of the token."
      },
      "symbol()": {
        "details": "Returns the symbol of the token, usually a shorter version of the name."
      },
      "totalSupply()": {
        "details": "See {IERC20-totalSupply}."
      },
      "transfer(address,uint256)": {
        "details": "See {IERC20-transfer}.     * Requirements:     * - `recipient` cannot be the zero address. - the caller must have a balance of at least `amount`."
      },
      "transferFrom(address,address,uint256)": {
        "details": "See {IERC20-transferFrom}.     * Emits an {Approval} event indicating the updated allowance. This is not required by the EIP. See the note at the beginning of {ERC20}.     * Requirements:     * - `sender` and `recipient` cannot be the zero address. - `sender` must have a balance of at least `amount`. - the caller must have allowance for ``sender``'s tokens of at least `amount`."
      }
    }
  },
  "userdoc": {
    "methods": {}
  }
}