{
  "contractName": "IFarmSponsorRewarder",
  "abi": [
    {
      "inputs": [
        {
          "internalType": "uint256",
          "name": "pid",
          "type": "uint256"
        },
        {
          "internalType": "address",
          "name": "user",
          "type": "address"
        },
        {
          "internalType": "address",
          "name": "recipient",
          "type": "address"
        },
        {
          "internalType": "uint256",
          "name": "trottlAmount",
          "type": "uint256"
        },
        {
          "internalType": "uint256",
          "name": "newLpAmount",
          "type": "uint256"
        }
      ],
      "name": "onSponsorshipReward",
      "outputs": [],
      "stateMutability": "nonpayable",
      "type": "function"
    },
    {
      "inputs": [
        {
          "internalType": "uint256",
          "name": "pid",
          "type": "uint256"
        },
        {
          "internalType": "address",
          "name": "user",
          "type": "address"
        },
        {
          "internalType": "uint256",
          "name": "trottlAmount",
          "type": "uint256"
        }
      ],
      "name": "pendingTokens",
      "outputs": [
        {
          "internalType": "contract IERC20[]",
          "name": "",
          "type": "address[]"
        },
        {
          "internalType": "uint256[]",
          "name": "",
          "type": "uint256[]"
        }
      ],
      "stateMutability": "view",
      "type": "function"
    }
  ],
  "metadata": "{\"compiler\":{\"version\":\"0.6.5+commit.f956cc89\"},\"language\":\"Solidity\",\"output\":{\"abi\":[{\"inputs\":[{\"internalType\":\"uint256\",\"name\":\"pid\",\"type\":\"uint256\"},{\"internalType\":\"address\",\"name\":\"user\",\"type\":\"address\"},{\"internalType\":\"address\",\"name\":\"recipient\",\"type\":\"address\"},{\"internalType\":\"uint256\",\"name\":\"trottlAmount\",\"type\":\"uint256\"},{\"internalType\":\"uint256\",\"name\":\"newLpAmount\",\"type\":\"uint256\"}],\"name\":\"onSponsorshipReward\",\"outputs\":[],\"stateMutability\":\"nonpayable\",\"type\":\"function\"},{\"inputs\":[{\"internalType\":\"uint256\",\"name\":\"pid\",\"type\":\"uint256\"},{\"internalType\":\"address\",\"name\":\"user\",\"type\":\"address\"},{\"internalType\":\"uint256\",\"name\":\"trottlAmount\",\"type\":\"uint256\"}],\"name\":\"pendingTokens\",\"outputs\":[{\"internalType\":\"contract IERC20[]\",\"name\":\"\",\"type\":\"address[]\"},{\"internalType\":\"uint256[]\",\"name\":\"\",\"type\":\"uint256[]\"}],\"stateMutability\":\"view\",\"type\":\"function\"}],\"devdoc\":{\"methods\":{\"onSponsorshipReward(uint256,address,address,uint256,uint256)\":{\"details\":\"Returns ...\"},\"pendingTokens(uint256,address,uint256)\":{\"details\":\"Returns ...\"}}},\"userdoc\":{\"methods\":{}}},\"settings\":{\"compilationTarget\":{\"/C/Users/USER/Documents/projects/trottl/contracts/interfaces/ITrottlSponsorRewarder.sol\":\"IFarmSponsorRewarder\"},\"evmVersion\":\"istanbul\",\"libraries\":{},\"metadata\":{\"bytecodeHash\":\"ipfs\"},\"optimizer\":{\"enabled\":false,\"runs\":200},\"remappings\":[]},\"sources\":{\"/C/Users/USER/Documents/projects/trottl/contracts/interfaces/ITrottlSponsorRewarder.sol\":{\"keccak256\":\"0x9a46410ba3926de127daf02eee29de411a7fb0986273b1b7fdb5ed4f722f8492\",\"urls\":[\"bzz-raw://2edbd1d027c2694caa42341abd1b107787d0fad0d32d03f0119b5ff2b1b1b933\",\"dweb:/ipfs/Qmcx49Eu1vVhzakzHW2m2zRn16mqWjSm4q2wcjYDsibgL2\"]},\"@openzeppelin/contracts/math/SafeMath.sol\":{\"keccak256\":\"0xcc78a17dd88fa5a2edc60c8489e2f405c0913b377216a5b26b35656b2d0dab52\",\"urls\":[\"bzz-raw://526dc85e1f9b9b45830e202568d267d93dde7a4fcccf4ad7798dadcd92304d3c\",\"dweb:/ipfs/QmaoXMB972J3cSDLtBq3xBo4jLwqD2uzXTwujtSPqkYVhR\"]},\"@openzeppelin/contracts/token/ERC20/IERC20.sol\":{\"keccak256\":\"0x5f02220344881ce43204ae4a6281145a67bc52c2bb1290a791857df3d19d78f5\",\"urls\":[\"bzz-raw://24427744bd3e6cb73c17010119af12a318289c0253a4d9acb8576c9fb3797b08\",\"dweb:/ipfs/QmTLDqpKRBuxGxRAmjgXt9AkXyACW3MtKzi7PYjm5iMfGC\"]},\"@openzeppelin/contracts/token/ERC20/SafeERC20.sol\":{\"keccak256\":\"0xf12dfbe97e6276980b83d2830bb0eb75e0cf4f3e626c2471137f82158ae6a0fc\",\"urls\":[\"bzz-raw://b3a849c2d95e85463909e5b5c920b13e7a11216ca14127085e16d22b9379d52a\",\"dweb:/ipfs/QmUg3CZDbCCcQdroEpexBy5ZFd5vD1UWijWQq9qHZjtJNQ\"]},\"@openzeppelin/contracts/utils/Address.sol\":{\"keccak256\":\"0x28911e614500ae7c607a432a709d35da25f3bc5ddc8bd12b278b66358070c0ea\",\"urls\":[\"bzz-raw://256c8c8af5eb072bc473226ab2b2187149b8fc04f5f4a4820db22527f5ce8e3c\",\"dweb:/ipfs/QmRvi5BhnL7Rxf85KrJhwM6RRhukm4tzoctRdgQEheNyiN\"]}},\"version\":1}",
  "bytecode": "0x",
  "deployedBytecode": "0x",
  "immutableReferences": {},
  "sourceMap": "",
  "deployedSourceMap": "",
  "source": "// SPDX-License-Identifier: MIT\r\n\r\npragma solidity >=0.6.0 <0.8.0;\r\n\r\nimport \"@openzeppelin/contracts/token/ERC20/SafeERC20.sol\";\r\n\r\n\r\ninterface IFarmSponsorRewarder {\r\n    using SafeERC20 for IERC20;\r\n    /**\r\n     * @dev Returns ...\r\n     */\r\n    function onSponsorshipReward(uint256 pid, address user, address recipient, uint256 trottlAmount, uint256 newLpAmount) external;\r\n    \r\n    /**\r\n     * @dev Returns ...\r\n     */\r\n    function pendingTokens(uint256 pid, address user, uint256 trottlAmount) external view returns (IERC20[] memory, uint256[] memory);\r\n}\r\n",
  "sourcePath": "C:/Users/USER/Documents/projects/trottl/contracts/interfaces/ITrottlSponsorRewarder.sol",
  "ast": {
    "absolutePath": "/C/Users/USER/Documents/projects/trottl/contracts/interfaces/ITrottlSponsorRewarder.sol",
    "exportedSymbols": {
      "IFarmSponsorRewarder": [
        3134
      ]
    },
    "id": 3135,
    "nodeType": "SourceUnit",
    "nodes": [
      {
        "id": 3099,
        "literals": [
          "solidity",
          ">=",
          "0.6",
          ".0",
          "<",
          "0.8",
          ".0"
        ],
        "nodeType": "PragmaDirective",
        "src": "35:31:10"
      },
      {
        "absolutePath": "@openzeppelin/contracts/token/ERC20/SafeERC20.sol",
        "file": "@openzeppelin/contracts/token/ERC20/SafeERC20.sol",
        "id": 3100,
        "nodeType": "ImportDirective",
        "scope": 3135,
        "sourceUnit": 5550,
        "src": "70:59:10",
        "symbolAliases": [],
        "unitAlias": ""
      },
      {
        "abstract": false,
        "baseContracts": [],
        "contractDependencies": [],
        "contractKind": "interface",
        "documentation": null,
        "fullyImplemented": false,
        "id": 3134,
        "linearizedBaseContracts": [
          3134
        ],
        "name": "IFarmSponsorRewarder",
        "nodeType": "ContractDefinition",
        "nodes": [
          {
            "id": 3103,
            "libraryName": {
              "contractScope": null,
              "id": 3101,
              "name": "SafeERC20",
              "nodeType": "UserDefinedTypeName",
              "referencedDeclaration": 5549,
              "src": "179:9:10",
              "typeDescriptions": {
                "typeIdentifier": "t_contract$_SafeERC20_$5549",
                "typeString": "library SafeERC20"
              }
            },
            "nodeType": "UsingForDirective",
            "src": "173:27:10",
            "typeName": {
              "contractScope": null,
              "id": 3102,
              "name": "IERC20",
              "nodeType": "UserDefinedTypeName",
              "referencedDeclaration": 5336,
              "src": "193:6:10",
              "typeDescriptions": {
                "typeIdentifier": "t_contract$_IERC20_$5336",
                "typeString": "contract IERC20"
              }
            }
          },
          {
            "body": null,
            "documentation": {
              "id": 3104,
              "nodeType": "StructuredDocumentation",
              "src": "206:37:10",
              "text": "@dev Returns ..."
            },
            "functionSelector": "a6849f80",
            "id": 3117,
            "implemented": false,
            "kind": "function",
            "modifiers": [],
            "name": "onSponsorshipReward",
            "nodeType": "FunctionDefinition",
            "overrides": null,
            "parameters": {
              "id": 3115,
              "nodeType": "ParameterList",
              "parameters": [
                {
                  "constant": false,
                  "id": 3106,
                  "name": "pid",
                  "nodeType": "VariableDeclaration",
                  "overrides": null,
                  "scope": 3117,
                  "src": "278:11:10",
                  "stateVariable": false,
                  "storageLocation": "default",
                  "typeDescriptions": {
                    "typeIdentifier": "t_uint256",
                    "typeString": "uint256"
                  },
                  "typeName": {
                    "id": 3105,
                    "name": "uint256",
                    "nodeType": "ElementaryTypeName",
                    "src": "278:7:10",
                    "typeDescriptions": {
                      "typeIdentifier": "t_uint256",
                      "typeString": "uint256"
                    }
                  },
                  "value": null,
                  "visibility": "internal"
                },
                {
                  "constant": false,
                  "id": 3108,
                  "name": "user",
                  "nodeType": "VariableDeclaration",
                  "overrides": null,
                  "scope": 3117,
                  "src": "291:12:10",
                  "stateVariable": false,
                  "storageLocation": "default",
                  "typeDescriptions": {
                    "typeIdentifier": "t_address",
                    "typeString": "address"
                  },
                  "typeName": {
                    "id": 3107,
                    "name": "address",
                    "nodeType": "ElementaryTypeName",
                    "src": "291:7:10",
                    "stateMutability": "nonpayable",
                    "typeDescriptions": {
                      "typeIdentifier": "t_address",
                      "typeString": "address"
                    }
                  },
                  "value": null,
                  "visibility": "internal"
                },
                {
                  "constant": false,
                  "id": 3110,
                  "name": "recipient",
                  "nodeType": "VariableDeclaration",
                  "overrides": null,
                  "scope": 3117,
                  "src": "305:17:10",
                  "stateVariable": false,
                  "storageLocation": "default",
                  "typeDescriptions": {
                    "typeIdentifier": "t_address",
                    "typeString": "address"
                  },
                  "typeName": {
                    "id": 3109,
                    "name": "address",
                    "nodeType": "ElementaryTypeName",
                    "src": "305:7:10",
                    "stateMutability": "nonpayable",
                    "typeDescriptions": {
                      "typeIdentifier": "t_address",
                      "typeString": "address"
                    }
                  },
                  "value": null,
                  "visibility": "internal"
                },
                {
                  "constant": false,
                  "id": 3112,
                  "name": "trottlAmount",
                  "nodeType": "VariableDeclaration",
                  "overrides": null,
                  "scope": 3117,
                  "src": "324:20:10",
                  "stateVariable": false,
                  "storageLocation": "default",
                  "typeDescriptions": {
                    "typeIdentifier": "t_uint256",
                    "typeString": "uint256"
                  },
                  "typeName": {
                    "id": 3111,
                    "name": "uint256",
                    "nodeType": "ElementaryTypeName",
                    "src": "324:7:10",
                    "typeDescriptions": {
                      "typeIdentifier": "t_uint256",
                      "typeString": "uint256"
                    }
                  },
                  "value": null,
                  "visibility": "internal"
                },
                {
                  "constant": false,
                  "id": 3114,
                  "name": "newLpAmount",
                  "nodeType": "VariableDeclaration",
                  "overrides": null,
                  "scope": 3117,
                  "src": "346:19:10",
                  "stateVariable": false,
                  "storageLocation": "default",
                  "typeDescriptions": {
                    "typeIdentifier": "t_uint256",
                    "typeString": "uint256"
                  },
                  "typeName": {
                    "id": 3113,
                    "name": "uint256",
                    "nodeType": "ElementaryTypeName",
                    "src": "346:7:10",
                    "typeDescriptions": {
                      "typeIdentifier": "t_uint256",
                      "typeString": "uint256"
                    }
                  },
                  "value": null,
                  "visibility": "internal"
                }
              ],
              "src": "277:89:10"
            },
            "returnParameters": {
              "id": 3116,
              "nodeType": "ParameterList",
              "parameters": [],
              "src": "375:0:10"
            },
            "scope": 3134,
            "src": "249:127:10",
            "stateMutability": "nonpayable",
            "virtual": false,
            "visibility": "external"
          },
          {
            "body": null,
            "documentation": {
              "id": 3118,
              "nodeType": "StructuredDocumentation",
              "src": "388:37:10",
              "text": "@dev Returns ..."
            },
            "functionSelector": "d63b3c49",
            "id": 3133,
            "implemented": false,
            "kind": "function",
            "modifiers": [],
            "name": "pendingTokens",
            "nodeType": "FunctionDefinition",
            "overrides": null,
            "parameters": {
              "id": 3125,
              "nodeType": "ParameterList",
              "parameters": [
                {
                  "constant": false,
                  "id": 3120,
                  "name": "pid",
                  "nodeType": "VariableDeclaration",
                  "overrides": null,
                  "scope": 3133,
                  "src": "454:11:10",
                  "stateVariable": false,
                  "storageLocation": "default",
                  "typeDescriptions": {
                    "typeIdentifier": "t_uint256",
                    "typeString": "uint256"
                  },
                  "typeName": {
                    "id": 3119,
                    "name": "uint256",
                    "nodeType": "ElementaryTypeName",
                    "src": "454:7:10",
                    "typeDescriptions": {
                      "typeIdentifier": "t_uint256",
                      "typeString": "uint256"
                    }
                  },
                  "value": null,
                  "visibility": "internal"
                },
                {
                  "constant": false,
                  "id": 3122,
                  "name": "user",
                  "nodeType": "VariableDeclaration",
                  "overrides": null,
                  "scope": 3133,
                  "src": "467:12:10",
                  "stateVariable": false,
                  "storageLocation": "default",
                  "typeDescriptions": {
                    "typeIdentifier": "t_address",
                    "typeString": "address"
                  },
                  "typeName": {
                    "id": 3121,
                    "name": "address",
                    "nodeType": "ElementaryTypeName",
                    "src": "467:7:10",
                    "stateMutability": "nonpayable",
                    "typeDescriptions": {
                      "typeIdentifier": "t_address",
                      "typeString": "address"
                    }
                  },
                  "value": null,
                  "visibility": "internal"
                },
                {
                  "constant": false,
                  "id": 3124,
                  "name": "trottlAmount",
                  "nodeType": "VariableDeclaration",
                  "overrides": null,
                  "scope": 3133,
                  "src": "481:20:10",
                  "stateVariable": false,
                  "storageLocation": "default",
                  "typeDescriptions": {
                    "typeIdentifier": "t_uint256",
                    "typeString": "uint256"
                  },
                  "typeName": {
                    "id": 3123,
                    "name": "uint256",
                    "nodeType": "ElementaryTypeName",
                    "src": "481:7:10",
                    "typeDescriptions": {
                      "typeIdentifier": "t_uint256",
                      "typeString": "uint256"
                    }
                  },
                  "value": null,
                  "visibility": "internal"
                }
              ],
              "src": "453:49:10"
            },
            "returnParameters": {
              "id": 3132,
              "nodeType": "ParameterList",
              "parameters": [
                {
                  "constant": false,
                  "id": 3128,
                  "name": "",
                  "nodeType": "VariableDeclaration",
                  "overrides": null,
                  "scope": 3133,
                  "src": "526:15:10",
                  "stateVariable": false,
                  "storageLocation": "memory",
                  "typeDescriptions": {
                    "typeIdentifier": "t_array$_t_contract$_IERC20_$5336_$dyn_memory_ptr",
                    "typeString": "contract IERC20[]"
                  },
                  "typeName": {
                    "baseType": {
                      "contractScope": null,
                      "id": 3126,
                      "name": "IERC20",
                      "nodeType": "UserDefinedTypeName",
                      "referencedDeclaration": 5336,
                      "src": "526:6:10",
                      "typeDescriptions": {
                        "typeIdentifier": "t_contract$_IERC20_$5336",
                        "typeString": "contract IERC20"
                      }
                    },
                    "id": 3127,
                    "length": null,
                    "nodeType": "ArrayTypeName",
                    "src": "526:8:10",
                    "typeDescriptions": {
                      "typeIdentifier": "t_array$_t_contract$_IERC20_$5336_$dyn_storage_ptr",
                      "typeString": "contract IERC20[]"
                    }
                  },
                  "value": null,
                  "visibility": "internal"
                },
                {
                  "constant": false,
                  "id": 3131,
                  "name": "",
                  "nodeType": "VariableDeclaration",
                  "overrides": null,
                  "scope": 3133,
                  "src": "543:16:10",
                  "stateVariable": false,
                  "storageLocation": "memory",
                  "typeDescriptions": {
                    "typeIdentifier": "t_array$_t_uint256_$dyn_memory_ptr",
                    "typeString": "uint256[]"
                  },
                  "typeName": {
                    "baseType": {
                      "id": 3129,
                      "name": "uint256",
                      "nodeType": "ElementaryTypeName",
                      "src": "543:7:10",
                      "typeDescriptions": {
                        "typeIdentifier": "t_uint256",
                        "typeString": "uint256"
                      }
                    },
                    "id": 3130,
                    "length": null,
                    "nodeType": "ArrayTypeName",
                    "src": "543:9:10",
                    "typeDescriptions": {
                      "typeIdentifier": "t_array$_t_uint256_$dyn_storage_ptr",
                      "typeString": "uint256[]"
                    }
                  },
                  "value": null,
                  "visibility": "internal"
                }
              ],
              "src": "525:35:10"
            },
            "scope": 3134,
            "src": "431:130:10",
            "stateMutability": "view",
            "virtual": false,
            "visibility": "external"
          }
        ],
        "scope": 3135,
        "src": "135:429:10"
      }
    ],
    "src": "35:531:10"
  },
  "legacyAST": {
    "attributes": {
      "absolutePath": "/C/Users/USER/Documents/projects/trottl/contracts/interfaces/ITrottlSponsorRewarder.sol",
      "exportedSymbols": {
        "IFarmSponsorRewarder": [
          3134
        ]
      }
    },
    "children": [
      {
        "attributes": {
          "literals": [
            "solidity",
            ">=",
            "0.6",
            ".0",
            "<",
            "0.8",
            ".0"
          ]
        },
        "id": 3099,
        "name": "PragmaDirective",
        "src": "35:31:10"
      },
      {
        "attributes": {
          "SourceUnit": 5550,
          "absolutePath": "@openzeppelin/contracts/token/ERC20/SafeERC20.sol",
          "file": "@openzeppelin/contracts/token/ERC20/SafeERC20.sol",
          "scope": 3135,
          "symbolAliases": [
            null
          ],
          "unitAlias": ""
        },
        "id": 3100,
        "name": "ImportDirective",
        "src": "70:59:10"
      },
      {
        "attributes": {
          "abstract": false,
          "baseContracts": [
            null
          ],
          "contractDependencies": [
            null
          ],
          "contractKind": "interface",
          "documentation": null,
          "fullyImplemented": false,
          "linearizedBaseContracts": [
            3134
          ],
          "name": "IFarmSponsorRewarder",
          "scope": 3135
        },
        "children": [
          {
            "children": [
              {
                "attributes": {
                  "contractScope": null,
                  "name": "SafeERC20",
                  "referencedDeclaration": 5549,
                  "type": "library SafeERC20"
                },
                "id": 3101,
                "name": "UserDefinedTypeName",
                "src": "179:9:10"
              },
              {
                "attributes": {
                  "contractScope": null,
                  "name": "IERC20",
                  "referencedDeclaration": 5336,
                  "type": "contract IERC20"
                },
                "id": 3102,
                "name": "UserDefinedTypeName",
                "src": "193:6:10"
              }
            ],
            "id": 3103,
            "name": "UsingForDirective",
            "src": "173:27:10"
          },
          {
            "attributes": {
              "body": null,
              "functionSelector": "a6849f80",
              "implemented": false,
              "isConstructor": false,
              "kind": "function",
              "modifiers": [
                null
              ],
              "name": "onSponsorshipReward",
              "overrides": null,
              "scope": 3134,
              "stateMutability": "nonpayable",
              "virtual": false,
              "visibility": "external"
            },
            "children": [
              {
                "attributes": {
                  "text": "@dev Returns ..."
                },
                "id": 3104,
                "name": "StructuredDocumentation",
                "src": "206:37:10"
              },
              {
                "children": [
                  {
                    "attributes": {
                      "constant": false,
                      "name": "pid",
                      "overrides": null,
                      "scope": 3117,
                      "stateVariable": false,
                      "storageLocation": "default",
                      "type": "uint256",
                      "value": null,
                      "visibility": "internal"
                    },
                    "children": [
                      {
                        "attributes": {
                          "name": "uint256",
                          "type": "uint256"
                        },
                        "id": 3105,
                        "name": "ElementaryTypeName",
                        "src": "278:7:10"
                      }
                    ],
                    "id": 3106,
                    "name": "VariableDeclaration",
                    "src": "278:11:10"
                  },
                  {
                    "attributes": {
                      "constant": false,
                      "name": "user",
                      "overrides": null,
                      "scope": 3117,
                      "stateVariable": false,
                      "storageLocation": "default",
                      "type": "address",
                      "value": null,
                      "visibility": "internal"
                    },
                    "children": [
                      {
                        "attributes": {
                          "name": "address",
                          "stateMutability": "nonpayable",
                          "type": "address"
                        },
                        "id": 3107,
                        "name": "ElementaryTypeName",
                        "src": "291:7:10"
                      }
                    ],
                    "id": 3108,
                    "name": "VariableDeclaration",
                    "src": "291:12:10"
                  },
                  {
                    "attributes": {
                      "constant": false,
                      "name": "recipient",
                      "overrides": null,
                      "scope": 3117,
                      "stateVariable": false,
                      "storageLocation": "default",
                      "type": "address",
                      "value": null,
                      "visibility": "internal"
                    },
                    "children": [
                      {
                        "attributes": {
                          "name": "address",
                          "stateMutability": "nonpayable",
                          "type": "address"
                        },
                        "id": 3109,
                        "name": "ElementaryTypeName",
                        "src": "305:7:10"
                      }
                    ],
                    "id": 3110,
                    "name": "VariableDeclaration",
                    "src": "305:17:10"
                  },
                  {
                    "attributes": {
                      "constant": false,
                      "name": "trottlAmount",
                      "overrides": null,
                      "scope": 3117,
                      "stateVariable": false,
                      "storageLocation": "default",
                      "type": "uint256",
                      "value": null,
                      "visibility": "internal"
                    },
                    "children": [
                      {
                        "attributes": {
                          "name": "uint256",
                          "type": "uint256"
                        },
                        "id": 3111,
                        "name": "ElementaryTypeName",
                        "src": "324:7:10"
                      }
                    ],
                    "id": 3112,
                    "name": "VariableDeclaration",
                    "src": "324:20:10"
                  },
                  {
                    "attributes": {
                      "constant": false,
                      "name": "newLpAmount",
                      "overrides": null,
                      "scope": 3117,
                      "stateVariable": false,
                      "storageLocation": "default",
                      "type": "uint256",
                      "value": null,
                      "visibility": "internal"
                    },
                    "children": [
                      {
                        "attributes": {
                          "name": "uint256",
                          "type": "uint256"
                        },
                        "id": 3113,
                        "name": "ElementaryTypeName",
                        "src": "346:7:10"
                      }
                    ],
                    "id": 3114,
                    "name": "VariableDeclaration",
                    "src": "346:19:10"
                  }
                ],
                "id": 3115,
                "name": "ParameterList",
                "src": "277:89:10"
              },
              {
                "attributes": {
                  "parameters": [
                    null
                  ]
                },
                "children": [],
                "id": 3116,
                "name": "ParameterList",
                "src": "375:0:10"
              }
            ],
            "id": 3117,
            "name": "FunctionDefinition",
            "src": "249:127:10"
          },
          {
            "attributes": {
              "body": null,
              "functionSelector": "d63b3c49",
              "implemented": false,
              "isConstructor": false,
              "kind": "function",
              "modifiers": [
                null
              ],
              "name": "pendingTokens",
              "overrides": null,
              "scope": 3134,
              "stateMutability": "view",
              "virtual": false,
              "visibility": "external"
            },
            "children": [
              {
                "attributes": {
                  "text": "@dev Returns ..."
                },
                "id": 3118,
                "name": "StructuredDocumentation",
                "src": "388:37:10"
              },
              {
                "children": [
                  {
                    "attributes": {
                      "constant": false,
                      "name": "pid",
                      "overrides": null,
                      "scope": 3133,
                      "stateVariable": false,
                      "storageLocation": "default",
                      "type": "uint256",
                      "value": null,
                      "visibility": "internal"
                    },
                    "children": [
                      {
                        "attributes": {
                          "name": "uint256",
                          "type": "uint256"
                        },
                        "id": 3119,
                        "name": "ElementaryTypeName",
                        "src": "454:7:10"
                      }
                    ],
                    "id": 3120,
                    "name": "VariableDeclaration",
                    "src": "454:11:10"
                  },
                  {
                    "attributes": {
                      "constant": false,
                      "name": "user",
                      "overrides": null,
                      "scope": 3133,
                      "stateVariable": false,
                      "storageLocation": "default",
                      "type": "address",
                      "value": null,
                      "visibility": "internal"
                    },
                    "children": [
                      {
                        "attributes": {
                          "name": "address",
                          "stateMutability": "nonpayable",
                          "type": "address"
                        },
                        "id": 3121,
                        "name": "ElementaryTypeName",
                        "src": "467:7:10"
                      }
                    ],
                    "id": 3122,
                    "name": "VariableDeclaration",
                    "src": "467:12:10"
                  },
                  {
                    "attributes": {
                      "constant": false,
                      "name": "trottlAmount",
                      "overrides": null,
                      "scope": 3133,
                      "stateVariable": false,
                      "storageLocation": "default",
                      "type": "uint256",
                      "value": null,
                      "visibility": "internal"
                    },
                    "children": [
                      {
                        "attributes": {
                          "name": "uint256",
                          "type": "uint256"
                        },
                        "id": 3123,
                        "name": "ElementaryTypeName",
                        "src": "481:7:10"
                      }
                    ],
                    "id": 3124,
                    "name": "VariableDeclaration",
                    "src": "481:20:10"
                  }
                ],
                "id": 3125,
                "name": "ParameterList",
                "src": "453:49:10"
              },
              {
                "children": [
                  {
                    "attributes": {
                      "constant": false,
                      "name": "",
                      "overrides": null,
                      "scope": 3133,
                      "stateVariable": false,
                      "storageLocation": "memory",
                      "type": "contract IERC20[]",
                      "value": null,
                      "visibility": "internal"
                    },
                    "children": [
                      {
                        "attributes": {
                          "length": null,
                          "type": "contract IERC20[]"
                        },
                        "children": [
                          {
                            "attributes": {
                              "contractScope": null,
                              "name": "IERC20",
                              "referencedDeclaration": 5336,
                              "type": "contract IERC20"
                            },
                            "id": 3126,
                            "name": "UserDefinedTypeName",
                            "src": "526:6:10"
                          }
                        ],
                        "id": 3127,
                        "name": "ArrayTypeName",
                        "src": "526:8:10"
                      }
                    ],
                    "id": 3128,
                    "name": "VariableDeclaration",
                    "src": "526:15:10"
                  },
                  {
                    "attributes": {
                      "constant": false,
                      "name": "",
                      "overrides": null,
                      "scope": 3133,
                      "stateVariable": false,
                      "storageLocation": "memory",
                      "type": "uint256[]",
                      "value": null,
                      "visibility": "internal"
                    },
                    "children": [
                      {
                        "attributes": {
                          "length": null,
                          "type": "uint256[]"
                        },
                        "children": [
                          {
                            "attributes": {
                              "name": "uint256",
                              "type": "uint256"
                            },
                            "id": 3129,
                            "name": "ElementaryTypeName",
                            "src": "543:7:10"
                          }
                        ],
                        "id": 3130,
                        "name": "ArrayTypeName",
                        "src": "543:9:10"
                      }
                    ],
                    "id": 3131,
                    "name": "VariableDeclaration",
                    "src": "543:16:10"
                  }
                ],
                "id": 3132,
                "name": "ParameterList",
                "src": "525:35:10"
              }
            ],
            "id": 3133,
            "name": "FunctionDefinition",
            "src": "431:130:10"
          }
        ],
        "id": 3134,
        "name": "ContractDefinition",
        "src": "135:429:10"
      }
    ],
    "id": 3135,
    "name": "SourceUnit",
    "src": "35:531:10"
  },
  "compiler": {
    "name": "solc",
    "version": "0.6.5+commit.f956cc89.Emscripten.clang"
  },
  "networks": {},
  "schemaVersion": "3.4.1",
  "updatedAt": "2021-06-29T17:32:03.984Z",
  "devdoc": {
    "methods": {
      "onSponsorshipReward(uint256,address,address,uint256,uint256)": {
        "details": "Returns ..."
      },
      "pendingTokens(uint256,address,uint256)": {
        "details": "Returns ..."
      }
    }
  },
  "userdoc": {
    "methods": {}
  }
}