{
  "contractName": "ITrottlAgroEstate",
  "abi": [
    {
      "anonymous": false,
      "inputs": [
        {
          "indexed": true,
          "internalType": "address",
          "name": "to",
          "type": "address"
        },
        {
          "indexed": true,
          "internalType": "address",
          "name": "from",
          "type": "address"
        },
        {
          "indexed": false,
          "internalType": "uint256",
          "name": "value",
          "type": "uint256"
        }
      ],
      "name": "Payout",
      "type": "event"
    },
    {
      "anonymous": false,
      "inputs": [
        {
          "indexed": true,
          "internalType": "address",
          "name": "from",
          "type": "address"
        },
        {
          "indexed": false,
          "internalType": "uint256",
          "name": "value",
          "type": "uint256"
        }
      ],
      "name": "Sponsorship",
      "type": "event"
    },
    {
      "anonymous": false,
      "inputs": [
        {
          "indexed": true,
          "internalType": "address",
          "name": "previousOwner",
          "type": "address"
        },
        {
          "indexed": true,
          "internalType": "address",
          "name": "newOwner",
          "type": "address"
        }
      ],
      "name": "TransferSponsorship",
      "type": "event"
    },
    {
      "inputs": [],
      "name": "totalSponsorship",
      "outputs": [
        {
          "internalType": "uint256",
          "name": "",
          "type": "uint256"
        }
      ],
      "stateMutability": "view",
      "type": "function"
    },
    {
      "inputs": [
        {
          "internalType": "address",
          "name": "sponsor",
          "type": "address"
        }
      ],
      "name": "getSponsorship",
      "outputs": [
        {
          "internalType": "bytes32",
          "name": "",
          "type": "bytes32"
        }
      ],
      "stateMutability": "view",
      "type": "function"
    },
    {
      "inputs": [
        {
          "internalType": "address",
          "name": "sponsor",
          "type": "address"
        },
        {
          "internalType": "uint256",
          "name": "amount",
          "type": "uint256"
        }
      ],
      "name": "payout",
      "outputs": [
        {
          "internalType": "bool",
          "name": "",
          "type": "bool"
        }
      ],
      "stateMutability": "nonpayable",
      "type": "function"
    },
    {
      "inputs": [
        {
          "internalType": "address",
          "name": "owner",
          "type": "address"
        },
        {
          "internalType": "address",
          "name": "recipient",
          "type": "address"
        }
      ],
      "name": "transferSponsorship",
      "outputs": [
        {
          "internalType": "bool",
          "name": "",
          "type": "bool"
        }
      ],
      "stateMutability": "nonpayable",
      "type": "function"
    },
    {
      "inputs": [
        {
          "internalType": "address",
          "name": "farm",
          "type": "address"
        },
        {
          "internalType": "uint256",
          "name": "amount",
          "type": "uint256"
        }
      ],
      "name": "sponsor",
      "outputs": [
        {
          "internalType": "bool",
          "name": "",
          "type": "bool"
        }
      ],
      "stateMutability": "nonpayable",
      "type": "function"
    }
  ],
  "metadata": "{\"compiler\":{\"version\":\"0.6.5+commit.f956cc89\"},\"language\":\"Solidity\",\"output\":{\"abi\":[{\"anonymous\":false,\"inputs\":[{\"indexed\":true,\"internalType\":\"address\",\"name\":\"to\",\"type\":\"address\"},{\"indexed\":true,\"internalType\":\"address\",\"name\":\"from\",\"type\":\"address\"},{\"indexed\":false,\"internalType\":\"uint256\",\"name\":\"value\",\"type\":\"uint256\"}],\"name\":\"Payout\",\"type\":\"event\"},{\"anonymous\":false,\"inputs\":[{\"indexed\":true,\"internalType\":\"address\",\"name\":\"from\",\"type\":\"address\"},{\"indexed\":false,\"internalType\":\"uint256\",\"name\":\"value\",\"type\":\"uint256\"}],\"name\":\"Sponsorship\",\"type\":\"event\"},{\"anonymous\":false,\"inputs\":[{\"indexed\":true,\"internalType\":\"address\",\"name\":\"previousOwner\",\"type\":\"address\"},{\"indexed\":true,\"internalType\":\"address\",\"name\":\"newOwner\",\"type\":\"address\"}],\"name\":\"TransferSponsorship\",\"type\":\"event\"},{\"inputs\":[{\"internalType\":\"address\",\"name\":\"sponsor\",\"type\":\"address\"}],\"name\":\"getSponsorship\",\"outputs\":[{\"internalType\":\"bytes32\",\"name\":\"\",\"type\":\"bytes32\"}],\"stateMutability\":\"view\",\"type\":\"function\"},{\"inputs\":[{\"internalType\":\"address\",\"name\":\"sponsor\",\"type\":\"address\"},{\"internalType\":\"uint256\",\"name\":\"amount\",\"type\":\"uint256\"}],\"name\":\"payout\",\"outputs\":[{\"internalType\":\"bool\",\"name\":\"\",\"type\":\"bool\"}],\"stateMutability\":\"nonpayable\",\"type\":\"function\"},{\"inputs\":[{\"internalType\":\"address\",\"name\":\"farm\",\"type\":\"address\"},{\"internalType\":\"uint256\",\"name\":\"amount\",\"type\":\"uint256\"}],\"name\":\"sponsor\",\"outputs\":[{\"internalType\":\"bool\",\"name\":\"\",\"type\":\"bool\"}],\"stateMutability\":\"nonpayable\",\"type\":\"function\"},{\"inputs\":[],\"name\":\"totalSponsorship\",\"outputs\":[{\"internalType\":\"uint256\",\"name\":\"\",\"type\":\"uint256\"}],\"stateMutability\":\"view\",\"type\":\"function\"},{\"inputs\":[{\"internalType\":\"address\",\"name\":\"owner\",\"type\":\"address\"},{\"internalType\":\"address\",\"name\":\"recipient\",\"type\":\"address\"}],\"name\":\"transferSponsorship\",\"outputs\":[{\"internalType\":\"bool\",\"name\":\"\",\"type\":\"bool\"}],\"stateMutability\":\"nonpayable\",\"type\":\"function\"}],\"devdoc\":{\"details\":\"Interface of the TrottlAgroEstate Smart Contract:: version: 0.0.1\",\"methods\":{\"getSponsorship(address)\":{\"details\":\"Returns the total number of sponsorships for a specific sponsor ...\"},\"payout(address,uint256)\":{\"details\":\"Pays out returns in Trottl Token to sponsor...\"},\"sponsor(address,uint256)\":{\"details\":\"Sponsors a farm on the AgroEstate ...\"},\"totalSponsorship()\":{\"details\":\"Returns Total number of sponsorships on the AgroEstate...\"},\"transferSponsorship(address,address)\":{\"details\":\"Changes ownership of a sponsorship from owner to newOwner/recipient...\"}}},\"userdoc\":{\"methods\":{}}},\"settings\":{\"compilationTarget\":{\"/C/Users/USER/Documents/projects/trottl/contracts/interfaces/ITrottlAgroEstate.sol\":\"ITrottlAgroEstate\"},\"evmVersion\":\"istanbul\",\"libraries\":{},\"metadata\":{\"bytecodeHash\":\"ipfs\"},\"optimizer\":{\"enabled\":false,\"runs\":200},\"remappings\":[]},\"sources\":{\"/C/Users/USER/Documents/projects/trottl/contracts/interfaces/ITrottlAgroEstate.sol\":{\"keccak256\":\"0xefdb3ab472aa71706d0bd7ddf23994f59f34ba1d80de3e0ade81c1577b9f97db\",\"urls\":[\"bzz-raw://4885683f137d14c416e885adc83b9418825eadd92a9f80a6faf6912f502a6b10\",\"dweb:/ipfs/QmWPrszwrBM2pSFw5PQ4ihWFgGEPtnZbv9xsU8xkQghKzM\"]}},\"version\":1}",
  "bytecode": "0x",
  "deployedBytecode": "0x",
  "immutableReferences": {},
  "sourceMap": "",
  "deployedSourceMap": "",
  "source": "// SPDX-License-Identifier: MIT\r\n\r\npragma solidity >=0.6.0 <0.8.0;\r\n\r\n/**\r\n * @dev Interface of the TrottlAgroEstate Smart Contract:: version: 0.0.1\r\n */\r\ninterface ITrottlAgroEstate {\r\n    /**\r\n     * @dev Returns Total number of sponsorships on the AgroEstate...\r\n     */\r\n    function totalSponsorship() external view returns (uint256);\r\n\r\n    /**\r\n     * @dev Returns the total number of sponsorships for a specific sponsor ...\r\n     */\r\n    function getSponsorship(address sponsor) external view returns (bytes32);\r\n\r\n    /**\r\n     * @dev Pays out returns in Trottl Token to sponsor...\r\n     */\r\n    function payout(address sponsor, uint256 amount) external returns (bool);\r\n\r\n    /**\r\n     * @dev Changes ownership of a sponsorship from owner to newOwner/recipient...\r\n     */\r\n    function transferSponsorship(address owner, address recipient) external returns (bool);\r\n\r\n    /**\r\n     * @dev Sponsors a farm on the AgroEstate ...\r\n     */\r\n    function sponsor(address farm, uint256 amount) external returns (bool);\r\n\r\n    /**\r\n     * @dev Emitted when Sponsor makes a sponsorship on the AgroEstate...\r\n     */\r\n    event Sponsorship(address indexed from, uint256 value);\r\n    \r\n    /**\r\n     * @dev Emitted when Sponsor transfers ownership of their sponsorship on the AgroEstate...\r\n     */\r\n    event TransferSponsorship(address indexed previousOwner, address indexed newOwner);\r\n\r\n    /**\r\n     * @dev Emitted when Sponsor withdraws Trottl Token paid out ...\r\n     */\r\n    event Payout(address indexed to, address indexed from, uint256 value);\r\n}\r\n",
  "sourcePath": "C:/Users/USER/Documents/projects/trottl/contracts/interfaces/ITrottlAgroEstate.sol",
  "ast": {
    "absolutePath": "/C/Users/USER/Documents/projects/trottl/contracts/interfaces/ITrottlAgroEstate.sol",
    "exportedSymbols": {
      "ITrottlAgroEstate": [
        3053
      ]
    },
    "id": 3054,
    "nodeType": "SourceUnit",
    "nodes": [
      {
        "id": 2984,
        "literals": [
          "solidity",
          ">=",
          "0.6",
          ".0",
          "<",
          "0.8",
          ".0"
        ],
        "nodeType": "PragmaDirective",
        "src": "35:31:8"
      },
      {
        "abstract": false,
        "baseContracts": [],
        "contractDependencies": [],
        "contractKind": "interface",
        "documentation": {
          "id": 2985,
          "nodeType": "StructuredDocumentation",
          "src": "70:83:8",
          "text": "@dev Interface of the TrottlAgroEstate Smart Contract:: version: 0.0.1"
        },
        "fullyImplemented": false,
        "id": 3053,
        "linearizedBaseContracts": [
          3053
        ],
        "name": "ITrottlAgroEstate",
        "nodeType": "ContractDefinition",
        "nodes": [
          {
            "body": null,
            "documentation": {
              "id": 2986,
              "nodeType": "StructuredDocumentation",
              "src": "190:83:8",
              "text": "@dev Returns Total number of sponsorships on the AgroEstate..."
            },
            "functionSelector": "b071536d",
            "id": 2991,
            "implemented": false,
            "kind": "function",
            "modifiers": [],
            "name": "totalSponsorship",
            "nodeType": "FunctionDefinition",
            "overrides": null,
            "parameters": {
              "id": 2987,
              "nodeType": "ParameterList",
              "parameters": [],
              "src": "304:2:8"
            },
            "returnParameters": {
              "id": 2990,
              "nodeType": "ParameterList",
              "parameters": [
                {
                  "constant": false,
                  "id": 2989,
                  "name": "",
                  "nodeType": "VariableDeclaration",
                  "overrides": null,
                  "scope": 2991,
                  "src": "330:7:8",
                  "stateVariable": false,
                  "storageLocation": "default",
                  "typeDescriptions": {
                    "typeIdentifier": "t_uint256",
                    "typeString": "uint256"
                  },
                  "typeName": {
                    "id": 2988,
                    "name": "uint256",
                    "nodeType": "ElementaryTypeName",
                    "src": "330:7:8",
                    "typeDescriptions": {
                      "typeIdentifier": "t_uint256",
                      "typeString": "uint256"
                    }
                  },
                  "value": null,
                  "visibility": "internal"
                }
              ],
              "src": "329:9:8"
            },
            "scope": 3053,
            "src": "279:60:8",
            "stateMutability": "view",
            "virtual": false,
            "visibility": "external"
          },
          {
            "body": null,
            "documentation": {
              "id": 2992,
              "nodeType": "StructuredDocumentation",
              "src": "347:93:8",
              "text": "@dev Returns the total number of sponsorships for a specific sponsor ..."
            },
            "functionSelector": "096a0d35",
            "id": 2999,
            "implemented": false,
            "kind": "function",
            "modifiers": [],
            "name": "getSponsorship",
            "nodeType": "FunctionDefinition",
            "overrides": null,
            "parameters": {
              "id": 2995,
              "nodeType": "ParameterList",
              "parameters": [
                {
                  "constant": false,
                  "id": 2994,
                  "name": "sponsor",
                  "nodeType": "VariableDeclaration",
                  "overrides": null,
                  "scope": 2999,
                  "src": "470:15:8",
                  "stateVariable": false,
                  "storageLocation": "default",
                  "typeDescriptions": {
                    "typeIdentifier": "t_address",
                    "typeString": "address"
                  },
                  "typeName": {
                    "id": 2993,
                    "name": "address",
                    "nodeType": "ElementaryTypeName",
                    "src": "470:7:8",
                    "stateMutability": "nonpayable",
                    "typeDescriptions": {
                      "typeIdentifier": "t_address",
                      "typeString": "address"
                    }
                  },
                  "value": null,
                  "visibility": "internal"
                }
              ],
              "src": "469:17:8"
            },
            "returnParameters": {
              "id": 2998,
              "nodeType": "ParameterList",
              "parameters": [
                {
                  "constant": false,
                  "id": 2997,
                  "name": "",
                  "nodeType": "VariableDeclaration",
                  "overrides": null,
                  "scope": 2999,
                  "src": "510:7:8",
                  "stateVariable": false,
                  "storageLocation": "default",
                  "typeDescriptions": {
                    "typeIdentifier": "t_bytes32",
                    "typeString": "bytes32"
                  },
                  "typeName": {
                    "id": 2996,
                    "name": "bytes32",
                    "nodeType": "ElementaryTypeName",
                    "src": "510:7:8",
                    "typeDescriptions": {
                      "typeIdentifier": "t_bytes32",
                      "typeString": "bytes32"
                    }
                  },
                  "value": null,
                  "visibility": "internal"
                }
              ],
              "src": "509:9:8"
            },
            "scope": 3053,
            "src": "446:73:8",
            "stateMutability": "view",
            "virtual": false,
            "visibility": "external"
          },
          {
            "body": null,
            "documentation": {
              "id": 3000,
              "nodeType": "StructuredDocumentation",
              "src": "527:72:8",
              "text": "@dev Pays out returns in Trottl Token to sponsor..."
            },
            "functionSelector": "117de2fd",
            "id": 3009,
            "implemented": false,
            "kind": "function",
            "modifiers": [],
            "name": "payout",
            "nodeType": "FunctionDefinition",
            "overrides": null,
            "parameters": {
              "id": 3005,
              "nodeType": "ParameterList",
              "parameters": [
                {
                  "constant": false,
                  "id": 3002,
                  "name": "sponsor",
                  "nodeType": "VariableDeclaration",
                  "overrides": null,
                  "scope": 3009,
                  "src": "621:15:8",
                  "stateVariable": false,
                  "storageLocation": "default",
                  "typeDescriptions": {
                    "typeIdentifier": "t_address",
                    "typeString": "address"
                  },
                  "typeName": {
                    "id": 3001,
                    "name": "address",
                    "nodeType": "ElementaryTypeName",
                    "src": "621:7:8",
                    "stateMutability": "nonpayable",
                    "typeDescriptions": {
                      "typeIdentifier": "t_address",
                      "typeString": "address"
                    }
                  },
                  "value": null,
                  "visibility": "internal"
                },
                {
                  "constant": false,
                  "id": 3004,
                  "name": "amount",
                  "nodeType": "VariableDeclaration",
                  "overrides": null,
                  "scope": 3009,
                  "src": "638:14:8",
                  "stateVariable": false,
                  "storageLocation": "default",
                  "typeDescriptions": {
                    "typeIdentifier": "t_uint256",
                    "typeString": "uint256"
                  },
                  "typeName": {
                    "id": 3003,
                    "name": "uint256",
                    "nodeType": "ElementaryTypeName",
                    "src": "638:7:8",
                    "typeDescriptions": {
                      "typeIdentifier": "t_uint256",
                      "typeString": "uint256"
                    }
                  },
                  "value": null,
                  "visibility": "internal"
                }
              ],
              "src": "620:33:8"
            },
            "returnParameters": {
              "id": 3008,
              "nodeType": "ParameterList",
              "parameters": [
                {
                  "constant": false,
                  "id": 3007,
                  "name": "",
                  "nodeType": "VariableDeclaration",
                  "overrides": null,
                  "scope": 3009,
                  "src": "672:4:8",
                  "stateVariable": false,
                  "storageLocation": "default",
                  "typeDescriptions": {
                    "typeIdentifier": "t_bool",
                    "typeString": "bool"
                  },
                  "typeName": {
                    "id": 3006,
                    "name": "bool",
                    "nodeType": "ElementaryTypeName",
                    "src": "672:4:8",
                    "typeDescriptions": {
                      "typeIdentifier": "t_bool",
                      "typeString": "bool"
                    }
                  },
                  "value": null,
                  "visibility": "internal"
                }
              ],
              "src": "671:6:8"
            },
            "scope": 3053,
            "src": "605:73:8",
            "stateMutability": "nonpayable",
            "virtual": false,
            "visibility": "external"
          },
          {
            "body": null,
            "documentation": {
              "id": 3010,
              "nodeType": "StructuredDocumentation",
              "src": "686:96:8",
              "text": "@dev Changes ownership of a sponsorship from owner to newOwner/recipient..."
            },
            "functionSelector": "c19b76a9",
            "id": 3019,
            "implemented": false,
            "kind": "function",
            "modifiers": [],
            "name": "transferSponsorship",
            "nodeType": "FunctionDefinition",
            "overrides": null,
            "parameters": {
              "id": 3015,
              "nodeType": "ParameterList",
              "parameters": [
                {
                  "constant": false,
                  "id": 3012,
                  "name": "owner",
                  "nodeType": "VariableDeclaration",
                  "overrides": null,
                  "scope": 3019,
                  "src": "817:13:8",
                  "stateVariable": false,
                  "storageLocation": "default",
                  "typeDescriptions": {
                    "typeIdentifier": "t_address",
                    "typeString": "address"
                  },
                  "typeName": {
                    "id": 3011,
                    "name": "address",
                    "nodeType": "ElementaryTypeName",
                    "src": "817:7:8",
                    "stateMutability": "nonpayable",
                    "typeDescriptions": {
                      "typeIdentifier": "t_address",
                      "typeString": "address"
                    }
                  },
                  "value": null,
                  "visibility": "internal"
                },
                {
                  "constant": false,
                  "id": 3014,
                  "name": "recipient",
                  "nodeType": "VariableDeclaration",
                  "overrides": null,
                  "scope": 3019,
                  "src": "832:17:8",
                  "stateVariable": false,
                  "storageLocation": "default",
                  "typeDescriptions": {
                    "typeIdentifier": "t_address",
                    "typeString": "address"
                  },
                  "typeName": {
                    "id": 3013,
                    "name": "address",
                    "nodeType": "ElementaryTypeName",
                    "src": "832:7:8",
                    "stateMutability": "nonpayable",
                    "typeDescriptions": {
                      "typeIdentifier": "t_address",
                      "typeString": "address"
                    }
                  },
                  "value": null,
                  "visibility": "internal"
                }
              ],
              "src": "816:34:8"
            },
            "returnParameters": {
              "id": 3018,
              "nodeType": "ParameterList",
              "parameters": [
                {
                  "constant": false,
                  "id": 3017,
                  "name": "",
                  "nodeType": "VariableDeclaration",
                  "overrides": null,
                  "scope": 3019,
                  "src": "869:4:8",
                  "stateVariable": false,
                  "storageLocation": "default",
                  "typeDescriptions": {
                    "typeIdentifier": "t_bool",
                    "typeString": "bool"
                  },
                  "typeName": {
                    "id": 3016,
                    "name": "bool",
                    "nodeType": "ElementaryTypeName",
                    "src": "869:4:8",
                    "typeDescriptions": {
                      "typeIdentifier": "t_bool",
                      "typeString": "bool"
                    }
                  },
                  "value": null,
                  "visibility": "internal"
                }
              ],
              "src": "868:6:8"
            },
            "scope": 3053,
            "src": "788:87:8",
            "stateMutability": "nonpayable",
            "virtual": false,
            "visibility": "external"
          },
          {
            "body": null,
            "documentation": {
              "id": 3020,
              "nodeType": "StructuredDocumentation",
              "src": "883:63:8",
              "text": "@dev Sponsors a farm on the AgroEstate ..."
            },
            "functionSelector": "8c995e44",
            "id": 3029,
            "implemented": false,
            "kind": "function",
            "modifiers": [],
            "name": "sponsor",
            "nodeType": "FunctionDefinition",
            "overrides": null,
            "parameters": {
              "id": 3025,
              "nodeType": "ParameterList",
              "parameters": [
                {
                  "constant": false,
                  "id": 3022,
                  "name": "farm",
                  "nodeType": "VariableDeclaration",
                  "overrides": null,
                  "scope": 3029,
                  "src": "969:12:8",
                  "stateVariable": false,
                  "storageLocation": "default",
                  "typeDescriptions": {
                    "typeIdentifier": "t_address",
                    "typeString": "address"
                  },
                  "typeName": {
                    "id": 3021,
                    "name": "address",
                    "nodeType": "ElementaryTypeName",
                    "src": "969:7:8",
                    "stateMutability": "nonpayable",
                    "typeDescriptions": {
                      "typeIdentifier": "t_address",
                      "typeString": "address"
                    }
                  },
                  "value": null,
                  "visibility": "internal"
                },
                {
                  "constant": false,
                  "id": 3024,
                  "name": "amount",
                  "nodeType": "VariableDeclaration",
                  "overrides": null,
                  "scope": 3029,
                  "src": "983:14:8",
                  "stateVariable": false,
                  "storageLocation": "default",
                  "typeDescriptions": {
                    "typeIdentifier": "t_uint256",
                    "typeString": "uint256"
                  },
                  "typeName": {
                    "id": 3023,
                    "name": "uint256",
                    "nodeType": "ElementaryTypeName",
                    "src": "983:7:8",
                    "typeDescriptions": {
                      "typeIdentifier": "t_uint256",
                      "typeString": "uint256"
                    }
                  },
                  "value": null,
                  "visibility": "internal"
                }
              ],
              "src": "968:30:8"
            },
            "returnParameters": {
              "id": 3028,
              "nodeType": "ParameterList",
              "parameters": [
                {
                  "constant": false,
                  "id": 3027,
                  "name": "",
                  "nodeType": "VariableDeclaration",
                  "overrides": null,
                  "scope": 3029,
                  "src": "1017:4:8",
                  "stateVariable": false,
                  "storageLocation": "default",
                  "typeDescriptions": {
                    "typeIdentifier": "t_bool",
                    "typeString": "bool"
                  },
                  "typeName": {
                    "id": 3026,
                    "name": "bool",
                    "nodeType": "ElementaryTypeName",
                    "src": "1017:4:8",
                    "typeDescriptions": {
                      "typeIdentifier": "t_bool",
                      "typeString": "bool"
                    }
                  },
                  "value": null,
                  "visibility": "internal"
                }
              ],
              "src": "1016:6:8"
            },
            "scope": 3053,
            "src": "952:71:8",
            "stateMutability": "nonpayable",
            "virtual": false,
            "visibility": "external"
          },
          {
            "anonymous": false,
            "documentation": {
              "id": 3030,
              "nodeType": "StructuredDocumentation",
              "src": "1031:87:8",
              "text": "@dev Emitted when Sponsor makes a sponsorship on the AgroEstate..."
            },
            "id": 3036,
            "name": "Sponsorship",
            "nodeType": "EventDefinition",
            "parameters": {
              "id": 3035,
              "nodeType": "ParameterList",
              "parameters": [
                {
                  "constant": false,
                  "id": 3032,
                  "indexed": true,
                  "name": "from",
                  "nodeType": "VariableDeclaration",
                  "overrides": null,
                  "scope": 3036,
                  "src": "1142:20:8",
                  "stateVariable": false,
                  "storageLocation": "default",
                  "typeDescriptions": {
                    "typeIdentifier": "t_address",
                    "typeString": "address"
                  },
                  "typeName": {
                    "id": 3031,
                    "name": "address",
                    "nodeType": "ElementaryTypeName",
                    "src": "1142:7:8",
                    "stateMutability": "nonpayable",
                    "typeDescriptions": {
                      "typeIdentifier": "t_address",
                      "typeString": "address"
                    }
                  },
                  "value": null,
                  "visibility": "internal"
                },
                {
                  "constant": false,
                  "id": 3034,
                  "indexed": false,
                  "name": "value",
                  "nodeType": "VariableDeclaration",
                  "overrides": null,
                  "scope": 3036,
                  "src": "1164:13:8",
                  "stateVariable": false,
                  "storageLocation": "default",
                  "typeDescriptions": {
                    "typeIdentifier": "t_uint256",
                    "typeString": "uint256"
                  },
                  "typeName": {
                    "id": 3033,
                    "name": "uint256",
                    "nodeType": "ElementaryTypeName",
                    "src": "1164:7:8",
                    "typeDescriptions": {
                      "typeIdentifier": "t_uint256",
                      "typeString": "uint256"
                    }
                  },
                  "value": null,
                  "visibility": "internal"
                }
              ],
              "src": "1141:37:8"
            },
            "src": "1124:55:8"
          },
          {
            "anonymous": false,
            "documentation": {
              "id": 3037,
              "nodeType": "StructuredDocumentation",
              "src": "1191:108:8",
              "text": "@dev Emitted when Sponsor transfers ownership of their sponsorship on the AgroEstate..."
            },
            "id": 3043,
            "name": "TransferSponsorship",
            "nodeType": "EventDefinition",
            "parameters": {
              "id": 3042,
              "nodeType": "ParameterList",
              "parameters": [
                {
                  "constant": false,
                  "id": 3039,
                  "indexed": true,
                  "name": "previousOwner",
                  "nodeType": "VariableDeclaration",
                  "overrides": null,
                  "scope": 3043,
                  "src": "1331:29:8",
                  "stateVariable": false,
                  "storageLocation": "default",
                  "typeDescriptions": {
                    "typeIdentifier": "t_address",
                    "typeString": "address"
                  },
                  "typeName": {
                    "id": 3038,
                    "name": "address",
                    "nodeType": "ElementaryTypeName",
                    "src": "1331:7:8",
                    "stateMutability": "nonpayable",
                    "typeDescriptions": {
                      "typeIdentifier": "t_address",
                      "typeString": "address"
                    }
                  },
                  "value": null,
                  "visibility": "internal"
                },
                {
                  "constant": false,
                  "id": 3041,
                  "indexed": true,
                  "name": "newOwner",
                  "nodeType": "VariableDeclaration",
                  "overrides": null,
                  "scope": 3043,
                  "src": "1362:24:8",
                  "stateVariable": false,
                  "storageLocation": "default",
                  "typeDescriptions": {
                    "typeIdentifier": "t_address",
                    "typeString": "address"
                  },
                  "typeName": {
                    "id": 3040,
                    "name": "address",
                    "nodeType": "ElementaryTypeName",
                    "src": "1362:7:8",
                    "stateMutability": "nonpayable",
                    "typeDescriptions": {
                      "typeIdentifier": "t_address",
                      "typeString": "address"
                    }
                  },
                  "value": null,
                  "visibility": "internal"
                }
              ],
              "src": "1330:57:8"
            },
            "src": "1305:83:8"
          },
          {
            "anonymous": false,
            "documentation": {
              "id": 3044,
              "nodeType": "StructuredDocumentation",
              "src": "1396:82:8",
              "text": "@dev Emitted when Sponsor withdraws Trottl Token paid out ..."
            },
            "id": 3052,
            "name": "Payout",
            "nodeType": "EventDefinition",
            "parameters": {
              "id": 3051,
              "nodeType": "ParameterList",
              "parameters": [
                {
                  "constant": false,
                  "id": 3046,
                  "indexed": true,
                  "name": "to",
                  "nodeType": "VariableDeclaration",
                  "overrides": null,
                  "scope": 3052,
                  "src": "1497:18:8",
                  "stateVariable": false,
                  "storageLocation": "default",
                  "typeDescriptions": {
                    "typeIdentifier": "t_address",
                    "typeString": "address"
                  },
                  "typeName": {
                    "id": 3045,
                    "name": "address",
                    "nodeType": "ElementaryTypeName",
                    "src": "1497:7:8",
                    "stateMutability": "nonpayable",
                    "typeDescriptions": {
                      "typeIdentifier": "t_address",
                      "typeString": "address"
                    }
                  },
                  "value": null,
                  "visibility": "internal"
                },
                {
                  "constant": false,
                  "id": 3048,
                  "indexed": true,
                  "name": "from",
                  "nodeType": "VariableDeclaration",
                  "overrides": null,
                  "scope": 3052,
                  "src": "1517:20:8",
                  "stateVariable": false,
                  "storageLocation": "default",
                  "typeDescriptions": {
                    "typeIdentifier": "t_address",
                    "typeString": "address"
                  },
                  "typeName": {
                    "id": 3047,
                    "name": "address",
                    "nodeType": "ElementaryTypeName",
                    "src": "1517:7:8",
                    "stateMutability": "nonpayable",
                    "typeDescriptions": {
                      "typeIdentifier": "t_address",
                      "typeString": "address"
                    }
                  },
                  "value": null,
                  "visibility": "internal"
                },
                {
                  "constant": false,
                  "id": 3050,
                  "indexed": false,
                  "name": "value",
                  "nodeType": "VariableDeclaration",
                  "overrides": null,
                  "scope": 3052,
                  "src": "1539:13:8",
                  "stateVariable": false,
                  "storageLocation": "default",
                  "typeDescriptions": {
                    "typeIdentifier": "t_uint256",
                    "typeString": "uint256"
                  },
                  "typeName": {
                    "id": 3049,
                    "name": "uint256",
                    "nodeType": "ElementaryTypeName",
                    "src": "1539:7:8",
                    "typeDescriptions": {
                      "typeIdentifier": "t_uint256",
                      "typeString": "uint256"
                    }
                  },
                  "value": null,
                  "visibility": "internal"
                }
              ],
              "src": "1496:57:8"
            },
            "src": "1484:70:8"
          }
        ],
        "scope": 3054,
        "src": "155:1402:8"
      }
    ],
    "src": "35:1524:8"
  },
  "legacyAST": {
    "attributes": {
      "absolutePath": "/C/Users/USER/Documents/projects/trottl/contracts/interfaces/ITrottlAgroEstate.sol",
      "exportedSymbols": {
        "ITrottlAgroEstate": [
          3053
        ]
      }
    },
    "children": [
      {
        "attributes": {
          "literals": [
            "solidity",
            ">=",
            "0.6",
            ".0",
            "<",
            "0.8",
            ".0"
          ]
        },
        "id": 2984,
        "name": "PragmaDirective",
        "src": "35:31:8"
      },
      {
        "attributes": {
          "abstract": false,
          "baseContracts": [
            null
          ],
          "contractDependencies": [
            null
          ],
          "contractKind": "interface",
          "fullyImplemented": false,
          "linearizedBaseContracts": [
            3053
          ],
          "name": "ITrottlAgroEstate",
          "scope": 3054
        },
        "children": [
          {
            "attributes": {
              "text": "@dev Interface of the TrottlAgroEstate Smart Contract:: version: 0.0.1"
            },
            "id": 2985,
            "name": "StructuredDocumentation",
            "src": "70:83:8"
          },
          {
            "attributes": {
              "body": null,
              "functionSelector": "b071536d",
              "implemented": false,
              "isConstructor": false,
              "kind": "function",
              "modifiers": [
                null
              ],
              "name": "totalSponsorship",
              "overrides": null,
              "scope": 3053,
              "stateMutability": "view",
              "virtual": false,
              "visibility": "external"
            },
            "children": [
              {
                "attributes": {
                  "text": "@dev Returns Total number of sponsorships on the AgroEstate..."
                },
                "id": 2986,
                "name": "StructuredDocumentation",
                "src": "190:83:8"
              },
              {
                "attributes": {
                  "parameters": [
                    null
                  ]
                },
                "children": [],
                "id": 2987,
                "name": "ParameterList",
                "src": "304:2:8"
              },
              {
                "children": [
                  {
                    "attributes": {
                      "constant": false,
                      "name": "",
                      "overrides": null,
                      "scope": 2991,
                      "stateVariable": false,
                      "storageLocation": "default",
                      "type": "uint256",
                      "value": null,
                      "visibility": "internal"
                    },
                    "children": [
                      {
                        "attributes": {
                          "name": "uint256",
                          "type": "uint256"
                        },
                        "id": 2988,
                        "name": "ElementaryTypeName",
                        "src": "330:7:8"
                      }
                    ],
                    "id": 2989,
                    "name": "VariableDeclaration",
                    "src": "330:7:8"
                  }
                ],
                "id": 2990,
                "name": "ParameterList",
                "src": "329:9:8"
              }
            ],
            "id": 2991,
            "name": "FunctionDefinition",
            "src": "279:60:8"
          },
          {
            "attributes": {
              "body": null,
              "functionSelector": "096a0d35",
              "implemented": false,
              "isConstructor": false,
              "kind": "function",
              "modifiers": [
                null
              ],
              "name": "getSponsorship",
              "overrides": null,
              "scope": 3053,
              "stateMutability": "view",
              "virtual": false,
              "visibility": "external"
            },
            "children": [
              {
                "attributes": {
                  "text": "@dev Returns the total number of sponsorships for a specific sponsor ..."
                },
                "id": 2992,
                "name": "StructuredDocumentation",
                "src": "347:93:8"
              },
              {
                "children": [
                  {
                    "attributes": {
                      "constant": false,
                      "name": "sponsor",
                      "overrides": null,
                      "scope": 2999,
                      "stateVariable": false,
                      "storageLocation": "default",
                      "type": "address",
                      "value": null,
                      "visibility": "internal"
                    },
                    "children": [
                      {
                        "attributes": {
                          "name": "address",
                          "stateMutability": "nonpayable",
                          "type": "address"
                        },
                        "id": 2993,
                        "name": "ElementaryTypeName",
                        "src": "470:7:8"
                      }
                    ],
                    "id": 2994,
                    "name": "VariableDeclaration",
                    "src": "470:15:8"
                  }
                ],
                "id": 2995,
                "name": "ParameterList",
                "src": "469:17:8"
              },
              {
                "children": [
                  {
                    "attributes": {
                      "constant": false,
                      "name": "",
                      "overrides": null,
                      "scope": 2999,
                      "stateVariable": false,
                      "storageLocation": "default",
                      "type": "bytes32",
                      "value": null,
                      "visibility": "internal"
                    },
                    "children": [
                      {
                        "attributes": {
                          "name": "bytes32",
                          "type": "bytes32"
                        },
                        "id": 2996,
                        "name": "ElementaryTypeName",
                        "src": "510:7:8"
                      }
                    ],
                    "id": 2997,
                    "name": "VariableDeclaration",
                    "src": "510:7:8"
                  }
                ],
                "id": 2998,
                "name": "ParameterList",
                "src": "509:9:8"
              }
            ],
            "id": 2999,
            "name": "FunctionDefinition",
            "src": "446:73:8"
          },
          {
            "attributes": {
              "body": null,
              "functionSelector": "117de2fd",
              "implemented": false,
              "isConstructor": false,
              "kind": "function",
              "modifiers": [
                null
              ],
              "name": "payout",
              "overrides": null,
              "scope": 3053,
              "stateMutability": "nonpayable",
              "virtual": false,
              "visibility": "external"
            },
            "children": [
              {
                "attributes": {
                  "text": "@dev Pays out returns in Trottl Token to sponsor..."
                },
                "id": 3000,
                "name": "StructuredDocumentation",
                "src": "527:72:8"
              },
              {
                "children": [
                  {
                    "attributes": {
                      "constant": false,
                      "name": "sponsor",
                      "overrides": null,
                      "scope": 3009,
                      "stateVariable": false,
                      "storageLocation": "default",
                      "type": "address",
                      "value": null,
                      "visibility": "internal"
                    },
                    "children": [
                      {
                        "attributes": {
                          "name": "address",
                          "stateMutability": "nonpayable",
                          "type": "address"
                        },
                        "id": 3001,
                        "name": "ElementaryTypeName",
                        "src": "621:7:8"
                      }
                    ],
                    "id": 3002,
                    "name": "VariableDeclaration",
                    "src": "621:15:8"
                  },
                  {
                    "attributes": {
                      "constant": false,
                      "name": "amount",
                      "overrides": null,
                      "scope": 3009,
                      "stateVariable": false,
                      "storageLocation": "default",
                      "type": "uint256",
                      "value": null,
                      "visibility": "internal"
                    },
                    "children": [
                      {
                        "attributes": {
                          "name": "uint256",
                          "type": "uint256"
                        },
                        "id": 3003,
                        "name": "ElementaryTypeName",
                        "src": "638:7:8"
                      }
                    ],
                    "id": 3004,
                    "name": "VariableDeclaration",
                    "src": "638:14:8"
                  }
                ],
                "id": 3005,
                "name": "ParameterList",
                "src": "620:33:8"
              },
              {
                "children": [
                  {
                    "attributes": {
                      "constant": false,
                      "name": "",
                      "overrides": null,
                      "scope": 3009,
                      "stateVariable": false,
                      "storageLocation": "default",
                      "type": "bool",
                      "value": null,
                      "visibility": "internal"
                    },
                    "children": [
                      {
                        "attributes": {
                          "name": "bool",
                          "type": "bool"
                        },
                        "id": 3006,
                        "name": "ElementaryTypeName",
                        "src": "672:4:8"
                      }
                    ],
                    "id": 3007,
                    "name": "VariableDeclaration",
                    "src": "672:4:8"
                  }
                ],
                "id": 3008,
                "name": "ParameterList",
                "src": "671:6:8"
              }
            ],
            "id": 3009,
            "name": "FunctionDefinition",
            "src": "605:73:8"
          },
          {
            "attributes": {
              "body": null,
              "functionSelector": "c19b76a9",
              "implemented": false,
              "isConstructor": false,
              "kind": "function",
              "modifiers": [
                null
              ],
              "name": "transferSponsorship",
              "overrides": null,
              "scope": 3053,
              "stateMutability": "nonpayable",
              "virtual": false,
              "visibility": "external"
            },
            "children": [
              {
                "attributes": {
                  "text": "@dev Changes ownership of a sponsorship from owner to newOwner/recipient..."
                },
                "id": 3010,
                "name": "StructuredDocumentation",
                "src": "686:96:8"
              },
              {
                "children": [
                  {
                    "attributes": {
                      "constant": false,
                      "name": "owner",
                      "overrides": null,
                      "scope": 3019,
                      "stateVariable": false,
                      "storageLocation": "default",
                      "type": "address",
                      "value": null,
                      "visibility": "internal"
                    },
                    "children": [
                      {
                        "attributes": {
                          "name": "address",
                          "stateMutability": "nonpayable",
                          "type": "address"
                        },
                        "id": 3011,
                        "name": "ElementaryTypeName",
                        "src": "817:7:8"
                      }
                    ],
                    "id": 3012,
                    "name": "VariableDeclaration",
                    "src": "817:13:8"
                  },
                  {
                    "attributes": {
                      "constant": false,
                      "name": "recipient",
                      "overrides": null,
                      "scope": 3019,
                      "stateVariable": false,
                      "storageLocation": "default",
                      "type": "address",
                      "value": null,
                      "visibility": "internal"
                    },
                    "children": [
                      {
                        "attributes": {
                          "name": "address",
                          "stateMutability": "nonpayable",
                          "type": "address"
                        },
                        "id": 3013,
                        "name": "ElementaryTypeName",
                        "src": "832:7:8"
                      }
                    ],
                    "id": 3014,
                    "name": "VariableDeclaration",
                    "src": "832:17:8"
                  }
                ],
                "id": 3015,
                "name": "ParameterList",
                "src": "816:34:8"
              },
              {
                "children": [
                  {
                    "attributes": {
                      "constant": false,
                      "name": "",
                      "overrides": null,
                      "scope": 3019,
                      "stateVariable": false,
                      "storageLocation": "default",
                      "type": "bool",
                      "value": null,
                      "visibility": "internal"
                    },
                    "children": [
                      {
                        "attributes": {
                          "name": "bool",
                          "type": "bool"
                        },
                        "id": 3016,
                        "name": "ElementaryTypeName",
                        "src": "869:4:8"
                      }
                    ],
                    "id": 3017,
                    "name": "VariableDeclaration",
                    "src": "869:4:8"
                  }
                ],
                "id": 3018,
                "name": "ParameterList",
                "src": "868:6:8"
              }
            ],
            "id": 3019,
            "name": "FunctionDefinition",
            "src": "788:87:8"
          },
          {
            "attributes": {
              "body": null,
              "functionSelector": "8c995e44",
              "implemented": false,
              "isConstructor": false,
              "kind": "function",
              "modifiers": [
                null
              ],
              "name": "sponsor",
              "overrides": null,
              "scope": 3053,
              "stateMutability": "nonpayable",
              "virtual": false,
              "visibility": "external"
            },
            "children": [
              {
                "attributes": {
                  "text": "@dev Sponsors a farm on the AgroEstate ..."
                },
                "id": 3020,
                "name": "StructuredDocumentation",
                "src": "883:63:8"
              },
              {
                "children": [
                  {
                    "attributes": {
                      "constant": false,
                      "name": "farm",
                      "overrides": null,
                      "scope": 3029,
                      "stateVariable": false,
                      "storageLocation": "default",
                      "type": "address",
                      "value": null,
                      "visibility": "internal"
                    },
                    "children": [
                      {
                        "attributes": {
                          "name": "address",
                          "stateMutability": "nonpayable",
                          "type": "address"
                        },
                        "id": 3021,
                        "name": "ElementaryTypeName",
                        "src": "969:7:8"
                      }
                    ],
                    "id": 3022,
                    "name": "VariableDeclaration",
                    "src": "969:12:8"
                  },
                  {
                    "attributes": {
                      "constant": false,
                      "name": "amount",
                      "overrides": null,
                      "scope": 3029,
                      "stateVariable": false,
                      "storageLocation": "default",
                      "type": "uint256",
                      "value": null,
                      "visibility": "internal"
                    },
                    "children": [
                      {
                        "attributes": {
                          "name": "uint256",
                          "type": "uint256"
                        },
                        "id": 3023,
                        "name": "ElementaryTypeName",
                        "src": "983:7:8"
                      }
                    ],
                    "id": 3024,
                    "name": "VariableDeclaration",
                    "src": "983:14:8"
                  }
                ],
                "id": 3025,
                "name": "ParameterList",
                "src": "968:30:8"
              },
              {
                "children": [
                  {
                    "attributes": {
                      "constant": false,
                      "name": "",
                      "overrides": null,
                      "scope": 3029,
                      "stateVariable": false,
                      "storageLocation": "default",
                      "type": "bool",
                      "value": null,
                      "visibility": "internal"
                    },
                    "children": [
                      {
                        "attributes": {
                          "name": "bool",
                          "type": "bool"
                        },
                        "id": 3026,
                        "name": "ElementaryTypeName",
                        "src": "1017:4:8"
                      }
                    ],
                    "id": 3027,
                    "name": "VariableDeclaration",
                    "src": "1017:4:8"
                  }
                ],
                "id": 3028,
                "name": "ParameterList",
                "src": "1016:6:8"
              }
            ],
            "id": 3029,
            "name": "FunctionDefinition",
            "src": "952:71:8"
          },
          {
            "attributes": {
              "anonymous": false,
              "name": "Sponsorship"
            },
            "children": [
              {
                "attributes": {
                  "text": "@dev Emitted when Sponsor makes a sponsorship on the AgroEstate..."
                },
                "id": 3030,
                "name": "StructuredDocumentation",
                "src": "1031:87:8"
              },
              {
                "children": [
                  {
                    "attributes": {
                      "constant": false,
                      "indexed": true,
                      "name": "from",
                      "overrides": null,
                      "scope": 3036,
                      "stateVariable": false,
                      "storageLocation": "default",
                      "type": "address",
                      "value": null,
                      "visibility": "internal"
                    },
                    "children": [
                      {
                        "attributes": {
                          "name": "address",
                          "stateMutability": "nonpayable",
                          "type": "address"
                        },
                        "id": 3031,
                        "name": "ElementaryTypeName",
                        "src": "1142:7:8"
                      }
                    ],
                    "id": 3032,
                    "name": "VariableDeclaration",
                    "src": "1142:20:8"
                  },
                  {
                    "attributes": {
                      "constant": false,
                      "indexed": false,
                      "name": "value",
                      "overrides": null,
                      "scope": 3036,
                      "stateVariable": false,
                      "storageLocation": "default",
                      "type": "uint256",
                      "value": null,
                      "visibility": "internal"
                    },
                    "children": [
                      {
                        "attributes": {
                          "name": "uint256",
                          "type": "uint256"
                        },
                        "id": 3033,
                        "name": "ElementaryTypeName",
                        "src": "1164:7:8"
                      }
                    ],
                    "id": 3034,
                    "name": "VariableDeclaration",
                    "src": "1164:13:8"
                  }
                ],
                "id": 3035,
                "name": "ParameterList",
                "src": "1141:37:8"
              }
            ],
            "id": 3036,
            "name": "EventDefinition",
            "src": "1124:55:8"
          },
          {
            "attributes": {
              "anonymous": false,
              "name": "TransferSponsorship"
            },
            "children": [
              {
                "attributes": {
                  "text": "@dev Emitted when Sponsor transfers ownership of their sponsorship on the AgroEstate..."
                },
                "id": 3037,
                "name": "StructuredDocumentation",
                "src": "1191:108:8"
              },
              {
                "children": [
                  {
                    "attributes": {
                      "constant": false,
                      "indexed": true,
                      "name": "previousOwner",
                      "overrides": null,
                      "scope": 3043,
                      "stateVariable": false,
                      "storageLocation": "default",
                      "type": "address",
                      "value": null,
                      "visibility": "internal"
                    },
                    "children": [
                      {
                        "attributes": {
                          "name": "address",
                          "stateMutability": "nonpayable",
                          "type": "address"
                        },
                        "id": 3038,
                        "name": "ElementaryTypeName",
                        "src": "1331:7:8"
                      }
                    ],
                    "id": 3039,
                    "name": "VariableDeclaration",
                    "src": "1331:29:8"
                  },
                  {
                    "attributes": {
                      "constant": false,
                      "indexed": true,
                      "name": "newOwner",
                      "overrides": null,
                      "scope": 3043,
                      "stateVariable": false,
                      "storageLocation": "default",
                      "type": "address",
                      "value": null,
                      "visibility": "internal"
                    },
                    "children": [
                      {
                        "attributes": {
                          "name": "address",
                          "stateMutability": "nonpayable",
                          "type": "address"
                        },
                        "id": 3040,
                        "name": "ElementaryTypeName",
                        "src": "1362:7:8"
                      }
                    ],
                    "id": 3041,
                    "name": "VariableDeclaration",
                    "src": "1362:24:8"
                  }
                ],
                "id": 3042,
                "name": "ParameterList",
                "src": "1330:57:8"
              }
            ],
            "id": 3043,
            "name": "EventDefinition",
            "src": "1305:83:8"
          },
          {
            "attributes": {
              "anonymous": false,
              "name": "Payout"
            },
            "children": [
              {
                "attributes": {
                  "text": "@dev Emitted when Sponsor withdraws Trottl Token paid out ..."
                },
                "id": 3044,
                "name": "StructuredDocumentation",
                "src": "1396:82:8"
              },
              {
                "children": [
                  {
                    "attributes": {
                      "constant": false,
                      "indexed": true,
                      "name": "to",
                      "overrides": null,
                      "scope": 3052,
                      "stateVariable": false,
                      "storageLocation": "default",
                      "type": "address",
                      "value": null,
                      "visibility": "internal"
                    },
                    "children": [
                      {
                        "attributes": {
                          "name": "address",
                          "stateMutability": "nonpayable",
                          "type": "address"
                        },
                        "id": 3045,
                        "name": "ElementaryTypeName",
                        "src": "1497:7:8"
                      }
                    ],
                    "id": 3046,
                    "name": "VariableDeclaration",
                    "src": "1497:18:8"
                  },
                  {
                    "attributes": {
                      "constant": false,
                      "indexed": true,
                      "name": "from",
                      "overrides": null,
                      "scope": 3052,
                      "stateVariable": false,
                      "storageLocation": "default",
                      "type": "address",
                      "value": null,
                      "visibility": "internal"
                    },
                    "children": [
                      {
                        "attributes": {
                          "name": "address",
                          "stateMutability": "nonpayable",
                          "type": "address"
                        },
                        "id": 3047,
                        "name": "ElementaryTypeName",
                        "src": "1517:7:8"
                      }
                    ],
                    "id": 3048,
                    "name": "VariableDeclaration",
                    "src": "1517:20:8"
                  },
                  {
                    "attributes": {
                      "constant": false,
                      "indexed": false,
                      "name": "value",
                      "overrides": null,
                      "scope": 3052,
                      "stateVariable": false,
                      "storageLocation": "default",
                      "type": "uint256",
                      "value": null,
                      "visibility": "internal"
                    },
                    "children": [
                      {
                        "attributes": {
                          "name": "uint256",
                          "type": "uint256"
                        },
                        "id": 3049,
                        "name": "ElementaryTypeName",
                        "src": "1539:7:8"
                      }
                    ],
                    "id": 3050,
                    "name": "VariableDeclaration",
                    "src": "1539:13:8"
                  }
                ],
                "id": 3051,
                "name": "ParameterList",
                "src": "1496:57:8"
              }
            ],
            "id": 3052,
            "name": "EventDefinition",
            "src": "1484:70:8"
          }
        ],
        "id": 3053,
        "name": "ContractDefinition",
        "src": "155:1402:8"
      }
    ],
    "id": 3054,
    "name": "SourceUnit",
    "src": "35:1524:8"
  },
  "compiler": {
    "name": "solc",
    "version": "0.6.5+commit.f956cc89.Emscripten.clang"
  },
  "networks": {},
  "schemaVersion": "3.4.1",
  "updatedAt": "2021-06-29T17:32:03.979Z",
  "devdoc": {
    "details": "Interface of the TrottlAgroEstate Smart Contract:: version: 0.0.1",
    "methods": {
      "getSponsorship(address)": {
        "details": "Returns the total number of sponsorships for a specific sponsor ..."
      },
      "payout(address,uint256)": {
        "details": "Pays out returns in Trottl Token to sponsor..."
      },
      "sponsor(address,uint256)": {
        "details": "Sponsors a farm on the AgroEstate ..."
      },
      "totalSponsorship()": {
        "details": "Returns Total number of sponsorships on the AgroEstate..."
      },
      "transferSponsorship(address,address)": {
        "details": "Changes ownership of a sponsorship from owner to newOwner/recipient..."
      }
    }
  },
  "userdoc": {
    "methods": {}
  }
}