{
  "contractName": "Pausable",
  "abi": [
    {
      "inputs": [],
      "stateMutability": "nonpayable",
      "type": "constructor"
    },
    {
      "anonymous": false,
      "inputs": [
        {
          "indexed": false,
          "internalType": "address",
          "name": "account",
          "type": "address"
        }
      ],
      "name": "Paused",
      "type": "event"
    },
    {
      "anonymous": false,
      "inputs": [
        {
          "indexed": false,
          "internalType": "address",
          "name": "account",
          "type": "address"
        }
      ],
      "name": "Unpaused",
      "type": "event"
    },
    {
      "inputs": [],
      "name": "paused",
      "outputs": [
        {
          "internalType": "bool",
          "name": "",
          "type": "bool"
        }
      ],
      "stateMutability": "view",
      "type": "function"
    }
  ],
  "metadata": "{\"compiler\":{\"version\":\"0.6.5+commit.f956cc89\"},\"language\":\"Solidity\",\"output\":{\"abi\":[{\"inputs\":[],\"stateMutability\":\"nonpayable\",\"type\":\"constructor\"},{\"anonymous\":false,\"inputs\":[{\"indexed\":false,\"internalType\":\"address\",\"name\":\"account\",\"type\":\"address\"}],\"name\":\"Paused\",\"type\":\"event\"},{\"anonymous\":false,\"inputs\":[{\"indexed\":false,\"internalType\":\"address\",\"name\":\"account\",\"type\":\"address\"}],\"name\":\"Unpaused\",\"type\":\"event\"},{\"inputs\":[],\"name\":\"paused\",\"outputs\":[{\"internalType\":\"bool\",\"name\":\"\",\"type\":\"bool\"}],\"stateMutability\":\"view\",\"type\":\"function\"}],\"devdoc\":{\"details\":\"Contract module which allows children to implement an emergency stop mechanism that can be triggered by an authorized account. * This module is used through inheritance. It will make available the modifiers `whenNotPaused` and `whenPaused`, which can be applied to the functions of your contract. Note that they will not be pausable by simply including this module, only once the modifiers are put in place.\",\"methods\":{\"constructor\":{\"details\":\"Initializes the contract in unpaused state.\"},\"paused()\":{\"details\":\"Returns true if the contract is paused, and false otherwise.\"}}},\"userdoc\":{\"methods\":{}}},\"settings\":{\"compilationTarget\":{\"@openzeppelin/contracts/utils/Pausable.sol\":\"Pausable\"},\"evmVersion\":\"istanbul\",\"libraries\":{},\"metadata\":{\"bytecodeHash\":\"ipfs\"},\"optimizer\":{\"enabled\":false,\"runs\":200},\"remappings\":[]},\"sources\":{\"@openzeppelin/contracts/utils/Context.sol\":{\"keccak256\":\"0x8d3cb350f04ff49cfb10aef08d87f19dcbaecc8027b0bed12f3275cd12f38cf0\",\"urls\":[\"bzz-raw://ded47ec7c96750f9bd04bbbc84f659992d4ba901cb7b532a52cd468272cf378f\",\"dweb:/ipfs/QmfBrGtQP7rZEqEg6Wz6jh2N2Kukpj1z5v3CGWmAqrzm96\"]},\"@openzeppelin/contracts/utils/Pausable.sol\":{\"keccak256\":\"0x212fb1b1d4beaf74354dad9bc329f44ee3c5375ef1c32acff76b4ecefc10f1d8\",\"urls\":[\"bzz-raw://d21c68cb321d1c8d0fa39fd9ecb6bbe3b2f26623b0f38af280a010c916c85f23\",\"dweb:/ipfs/Qmf2P51HRC4ekDHLYfbXu5SXR33gXrWtq6oKSmfyWqVRuC\"]}},\"version\":1}",
  "bytecode": "0x",
  "deployedBytecode": "0x",
  "immutableReferences": {},
  "sourceMap": "",
  "deployedSourceMap": "",
  "source": "// SPDX-License-Identifier: MIT\n\npragma solidity >=0.6.0 <0.8.0;\n\nimport \"./Context.sol\";\n\n/**\n * @dev Contract module which allows children to implement an emergency stop\n * mechanism that can be triggered by an authorized account.\n *\n * This module is used through inheritance. It will make available the\n * modifiers `whenNotPaused` and `whenPaused`, which can be applied to\n * the functions of your contract. Note that they will not be pausable by\n * simply including this module, only once the modifiers are put in place.\n */\nabstract contract Pausable is Context {\n    /**\n     * @dev Emitted when the pause is triggered by `account`.\n     */\n    event Paused(address account);\n\n    /**\n     * @dev Emitted when the pause is lifted by `account`.\n     */\n    event Unpaused(address account);\n\n    bool private _paused;\n\n    /**\n     * @dev Initializes the contract in unpaused state.\n     */\n    constructor () internal {\n        _paused = false;\n    }\n\n    /**\n     * @dev Returns true if the contract is paused, and false otherwise.\n     */\n    function paused() public view virtual returns (bool) {\n        return _paused;\n    }\n\n    /**\n     * @dev Modifier to make a function callable only when the contract is not paused.\n     *\n     * Requirements:\n     *\n     * - The contract must not be paused.\n     */\n    modifier whenNotPaused() {\n        require(!paused(), \"Pausable: paused\");\n        _;\n    }\n\n    /**\n     * @dev Modifier to make a function callable only when the contract is paused.\n     *\n     * Requirements:\n     *\n     * - The contract must be paused.\n     */\n    modifier whenPaused() {\n        require(paused(), \"Pausable: not paused\");\n        _;\n    }\n\n    /**\n     * @dev Triggers stopped state.\n     *\n     * Requirements:\n     *\n     * - The contract must not be paused.\n     */\n    function _pause() internal virtual whenNotPaused {\n        _paused = true;\n        emit Paused(_msgSender());\n    }\n\n    /**\n     * @dev Returns to normal state.\n     *\n     * Requirements:\n     *\n     * - The contract must be paused.\n     */\n    function _unpause() internal virtual whenPaused {\n        _paused = false;\n        emit Unpaused(_msgSender());\n    }\n}\n",
  "sourcePath": "@openzeppelin\\contracts\\utils\\Pausable.sol",
  "ast": {
    "absolutePath": "@openzeppelin/contracts/utils/Pausable.sol",
    "exportedSymbols": {
      "Pausable": [
        6452
      ]
    },
    "id": 6453,
    "nodeType": "SourceUnit",
    "nodes": [
      {
        "id": 6362,
        "literals": [
          "solidity",
          ">=",
          "0.6",
          ".0",
          "<",
          "0.8",
          ".0"
        ],
        "nodeType": "PragmaDirective",
        "src": "33:31:30"
      },
      {
        "absolutePath": "@openzeppelin/contracts/utils/Context.sol",
        "file": "./Context.sol",
        "id": 6363,
        "nodeType": "ImportDirective",
        "scope": 6453,
        "sourceUnit": 5869,
        "src": "66:23:30",
        "symbolAliases": [],
        "unitAlias": ""
      },
      {
        "abstract": true,
        "baseContracts": [
          {
            "arguments": null,
            "baseName": {
              "contractScope": null,
              "id": 6365,
              "name": "Context",
              "nodeType": "UserDefinedTypeName",
              "referencedDeclaration": 5868,
              "src": "561:7:30",
              "typeDescriptions": {
                "typeIdentifier": "t_contract$_Context_$5868",
                "typeString": "contract Context"
              }
            },
            "id": 6366,
            "nodeType": "InheritanceSpecifier",
            "src": "561:7:30"
          }
        ],
        "contractDependencies": [
          5868
        ],
        "contractKind": "contract",
        "documentation": {
          "id": 6364,
          "nodeType": "StructuredDocumentation",
          "src": "91:439:30",
          "text": "@dev Contract module which allows children to implement an emergency stop\nmechanism that can be triggered by an authorized account.\n * This module is used through inheritance. It will make available the\nmodifiers `whenNotPaused` and `whenPaused`, which can be applied to\nthe functions of your contract. Note that they will not be pausable by\nsimply including this module, only once the modifiers are put in place."
        },
        "fullyImplemented": true,
        "id": 6452,
        "linearizedBaseContracts": [
          6452,
          5868
        ],
        "name": "Pausable",
        "nodeType": "ContractDefinition",
        "nodes": [
          {
            "anonymous": false,
            "documentation": {
              "id": 6367,
              "nodeType": "StructuredDocumentation",
              "src": "575:73:30",
              "text": "@dev Emitted when the pause is triggered by `account`."
            },
            "id": 6371,
            "name": "Paused",
            "nodeType": "EventDefinition",
            "parameters": {
              "id": 6370,
              "nodeType": "ParameterList",
              "parameters": [
                {
                  "constant": false,
                  "id": 6369,
                  "indexed": false,
                  "name": "account",
                  "nodeType": "VariableDeclaration",
                  "overrides": null,
                  "scope": 6371,
                  "src": "666:15:30",
                  "stateVariable": false,
                  "storageLocation": "default",
                  "typeDescriptions": {
                    "typeIdentifier": "t_address",
                    "typeString": "address"
                  },
                  "typeName": {
                    "id": 6368,
                    "name": "address",
                    "nodeType": "ElementaryTypeName",
                    "src": "666:7:30",
                    "stateMutability": "nonpayable",
                    "typeDescriptions": {
                      "typeIdentifier": "t_address",
                      "typeString": "address"
                    }
                  },
                  "value": null,
                  "visibility": "internal"
                }
              ],
              "src": "665:17:30"
            },
            "src": "653:30:30"
          },
          {
            "anonymous": false,
            "documentation": {
              "id": 6372,
              "nodeType": "StructuredDocumentation",
              "src": "689:70:30",
              "text": "@dev Emitted when the pause is lifted by `account`."
            },
            "id": 6376,
            "name": "Unpaused",
            "nodeType": "EventDefinition",
            "parameters": {
              "id": 6375,
              "nodeType": "ParameterList",
              "parameters": [
                {
                  "constant": false,
                  "id": 6374,
                  "indexed": false,
                  "name": "account",
                  "nodeType": "VariableDeclaration",
                  "overrides": null,
                  "scope": 6376,
                  "src": "779:15:30",
                  "stateVariable": false,
                  "storageLocation": "default",
                  "typeDescriptions": {
                    "typeIdentifier": "t_address",
                    "typeString": "address"
                  },
                  "typeName": {
                    "id": 6373,
                    "name": "address",
                    "nodeType": "ElementaryTypeName",
                    "src": "779:7:30",
                    "stateMutability": "nonpayable",
                    "typeDescriptions": {
                      "typeIdentifier": "t_address",
                      "typeString": "address"
                    }
                  },
                  "value": null,
                  "visibility": "internal"
                }
              ],
              "src": "778:17:30"
            },
            "src": "764:32:30"
          },
          {
            "constant": false,
            "id": 6378,
            "name": "_paused",
            "nodeType": "VariableDeclaration",
            "overrides": null,
            "scope": 6452,
            "src": "802:20:30",
            "stateVariable": true,
            "storageLocation": "default",
            "typeDescriptions": {
              "typeIdentifier": "t_bool",
              "typeString": "bool"
            },
            "typeName": {
              "id": 6377,
              "name": "bool",
              "nodeType": "ElementaryTypeName",
              "src": "802:4:30",
              "typeDescriptions": {
                "typeIdentifier": "t_bool",
                "typeString": "bool"
              }
            },
            "value": null,
            "visibility": "private"
          },
          {
            "body": {
              "id": 6386,
              "nodeType": "Block",
              "src": "925:32:30",
              "statements": [
                {
                  "expression": {
                    "argumentTypes": null,
                    "id": 6384,
                    "isConstant": false,
                    "isLValue": false,
                    "isPure": false,
                    "lValueRequested": false,
                    "leftHandSide": {
                      "argumentTypes": null,
                      "id": 6382,
                      "name": "_paused",
                      "nodeType": "Identifier",
                      "overloadedDeclarations": [],
                      "referencedDeclaration": 6378,
                      "src": "935:7:30",
                      "typeDescriptions": {
                        "typeIdentifier": "t_bool",
                        "typeString": "bool"
                      }
                    },
                    "nodeType": "Assignment",
                    "operator": "=",
                    "rightHandSide": {
                      "argumentTypes": null,
                      "hexValue": "66616c7365",
                      "id": 6383,
                      "isConstant": false,
                      "isLValue": false,
                      "isPure": true,
                      "kind": "bool",
                      "lValueRequested": false,
                      "nodeType": "Literal",
                      "src": "945:5:30",
                      "subdenomination": null,
                      "typeDescriptions": {
                        "typeIdentifier": "t_bool",
                        "typeString": "bool"
                      },
                      "value": "false"
                    },
                    "src": "935:15:30",
                    "typeDescriptions": {
                      "typeIdentifier": "t_bool",
                      "typeString": "bool"
                    }
                  },
                  "id": 6385,
                  "nodeType": "ExpressionStatement",
                  "src": "935:15:30"
                }
              ]
            },
            "documentation": {
              "id": 6379,
              "nodeType": "StructuredDocumentation",
              "src": "829:67:30",
              "text": "@dev Initializes the contract in unpaused state."
            },
            "id": 6387,
            "implemented": true,
            "kind": "constructor",
            "modifiers": [],
            "name": "",
            "nodeType": "FunctionDefinition",
            "overrides": null,
            "parameters": {
              "id": 6380,
              "nodeType": "ParameterList",
              "parameters": [],
              "src": "913:2:30"
            },
            "returnParameters": {
              "id": 6381,
              "nodeType": "ParameterList",
              "parameters": [],
              "src": "925:0:30"
            },
            "scope": 6452,
            "src": "901:56:30",
            "stateMutability": "nonpayable",
            "virtual": false,
            "visibility": "internal"
          },
          {
            "body": {
              "id": 6395,
              "nodeType": "Block",
              "src": "1105:31:30",
              "statements": [
                {
                  "expression": {
                    "argumentTypes": null,
                    "id": 6393,
                    "name": "_paused",
                    "nodeType": "Identifier",
                    "overloadedDeclarations": [],
                    "referencedDeclaration": 6378,
                    "src": "1122:7:30",
                    "typeDescriptions": {
                      "typeIdentifier": "t_bool",
                      "typeString": "bool"
                    }
                  },
                  "functionReturnParameters": 6392,
                  "id": 6394,
                  "nodeType": "Return",
                  "src": "1115:14:30"
                }
              ]
            },
            "documentation": {
              "id": 6388,
              "nodeType": "StructuredDocumentation",
              "src": "963:84:30",
              "text": "@dev Returns true if the contract is paused, and false otherwise."
            },
            "functionSelector": "5c975abb",
            "id": 6396,
            "implemented": true,
            "kind": "function",
            "modifiers": [],
            "name": "paused",
            "nodeType": "FunctionDefinition",
            "overrides": null,
            "parameters": {
              "id": 6389,
              "nodeType": "ParameterList",
              "parameters": [],
              "src": "1067:2:30"
            },
            "returnParameters": {
              "id": 6392,
              "nodeType": "ParameterList",
              "parameters": [
                {
                  "constant": false,
                  "id": 6391,
                  "name": "",
                  "nodeType": "VariableDeclaration",
                  "overrides": null,
                  "scope": 6396,
                  "src": "1099:4:30",
                  "stateVariable": false,
                  "storageLocation": "default",
                  "typeDescriptions": {
                    "typeIdentifier": "t_bool",
                    "typeString": "bool"
                  },
                  "typeName": {
                    "id": 6390,
                    "name": "bool",
                    "nodeType": "ElementaryTypeName",
                    "src": "1099:4:30",
                    "typeDescriptions": {
                      "typeIdentifier": "t_bool",
                      "typeString": "bool"
                    }
                  },
                  "value": null,
                  "visibility": "internal"
                }
              ],
              "src": "1098:6:30"
            },
            "scope": 6452,
            "src": "1052:84:30",
            "stateMutability": "view",
            "virtual": true,
            "visibility": "public"
          },
          {
            "body": {
              "id": 6407,
              "nodeType": "Block",
              "src": "1347:66:30",
              "statements": [
                {
                  "expression": {
                    "argumentTypes": null,
                    "arguments": [
                      {
                        "argumentTypes": null,
                        "id": 6402,
                        "isConstant": false,
                        "isLValue": false,
                        "isPure": false,
                        "lValueRequested": false,
                        "nodeType": "UnaryOperation",
                        "operator": "!",
                        "prefix": true,
                        "src": "1365:9:30",
                        "subExpression": {
                          "argumentTypes": null,
                          "arguments": [],
                          "expression": {
                            "argumentTypes": [],
                            "id": 6400,
                            "name": "paused",
                            "nodeType": "Identifier",
                            "overloadedDeclarations": [],
                            "referencedDeclaration": 6396,
                            "src": "1366:6:30",
                            "typeDescriptions": {
                              "typeIdentifier": "t_function_internal_view$__$returns$_t_bool_$",
                              "typeString": "function () view returns (bool)"
                            }
                          },
                          "id": 6401,
                          "isConstant": false,
                          "isLValue": false,
                          "isPure": false,
                          "kind": "functionCall",
                          "lValueRequested": false,
                          "names": [],
                          "nodeType": "FunctionCall",
                          "src": "1366:8:30",
                          "tryCall": false,
                          "typeDescriptions": {
                            "typeIdentifier": "t_bool",
                            "typeString": "bool"
                          }
                        },
                        "typeDescriptions": {
                          "typeIdentifier": "t_bool",
                          "typeString": "bool"
                        }
                      },
                      {
                        "argumentTypes": null,
                        "hexValue": "5061757361626c653a20706175736564",
                        "id": 6403,
                        "isConstant": false,
                        "isLValue": false,
                        "isPure": true,
                        "kind": "string",
                        "lValueRequested": false,
                        "nodeType": "Literal",
                        "src": "1376:18:30",
                        "subdenomination": null,
                        "typeDescriptions": {
                          "typeIdentifier": "t_stringliteral_68571e1369f7a6dcdcd736cb0343b35a58ed0f64d245c2ed839c98d412744f8a",
                          "typeString": "literal_string \"Pausable: paused\""
                        },
                        "value": "Pausable: paused"
                      }
                    ],
                    "expression": {
                      "argumentTypes": [
                        {
                          "typeIdentifier": "t_bool",
                          "typeString": "bool"
                        },
                        {
                          "typeIdentifier": "t_stringliteral_68571e1369f7a6dcdcd736cb0343b35a58ed0f64d245c2ed839c98d412744f8a",
                          "typeString": "literal_string \"Pausable: paused\""
                        }
                      ],
                      "id": 6399,
                      "name": "require",
                      "nodeType": "Identifier",
                      "overloadedDeclarations": [
                        -18,
                        -18
                      ],
                      "referencedDeclaration": -18,
                      "src": "1357:7:30",
                      "typeDescriptions": {
                        "typeIdentifier": "t_function_require_pure$_t_bool_$_t_string_memory_ptr_$returns$__$",
                        "typeString": "function (bool,string memory) pure"
                      }
                    },
                    "id": 6404,
                    "isConstant": false,
                    "isLValue": false,
                    "isPure": false,
                    "kind": "functionCall",
                    "lValueRequested": false,
                    "names": [],
                    "nodeType": "FunctionCall",
                    "src": "1357:38:30",
                    "tryCall": false,
                    "typeDescriptions": {
                      "typeIdentifier": "t_tuple$__$",
                      "typeString": "tuple()"
                    }
                  },
                  "id": 6405,
                  "nodeType": "ExpressionStatement",
                  "src": "1357:38:30"
                },
                {
                  "id": 6406,
                  "nodeType": "PlaceholderStatement",
                  "src": "1405:1:30"
                }
              ]
            },
            "documentation": {
              "id": 6397,
              "nodeType": "StructuredDocumentation",
              "src": "1142:175:30",
              "text": "@dev Modifier to make a function callable only when the contract is not paused.\n     * Requirements:\n     * - The contract must not be paused."
            },
            "id": 6408,
            "name": "whenNotPaused",
            "nodeType": "ModifierDefinition",
            "overrides": null,
            "parameters": {
              "id": 6398,
              "nodeType": "ParameterList",
              "parameters": [],
              "src": "1344:2:30"
            },
            "src": "1322:91:30",
            "virtual": false,
            "visibility": "internal"
          },
          {
            "body": {
              "id": 6418,
              "nodeType": "Block",
              "src": "1613:69:30",
              "statements": [
                {
                  "expression": {
                    "argumentTypes": null,
                    "arguments": [
                      {
                        "argumentTypes": null,
                        "arguments": [],
                        "expression": {
                          "argumentTypes": [],
                          "id": 6412,
                          "name": "paused",
                          "nodeType": "Identifier",
                          "overloadedDeclarations": [],
                          "referencedDeclaration": 6396,
                          "src": "1631:6:30",
                          "typeDescriptions": {
                            "typeIdentifier": "t_function_internal_view$__$returns$_t_bool_$",
                            "typeString": "function () view returns (bool)"
                          }
                        },
                        "id": 6413,
                        "isConstant": false,
                        "isLValue": false,
                        "isPure": false,
                        "kind": "functionCall",
                        "lValueRequested": false,
                        "names": [],
                        "nodeType": "FunctionCall",
                        "src": "1631:8:30",
                        "tryCall": false,
                        "typeDescriptions": {
                          "typeIdentifier": "t_bool",
                          "typeString": "bool"
                        }
                      },
                      {
                        "argumentTypes": null,
                        "hexValue": "5061757361626c653a206e6f7420706175736564",
                        "id": 6414,
                        "isConstant": false,
                        "isLValue": false,
                        "isPure": true,
                        "kind": "string",
                        "lValueRequested": false,
                        "nodeType": "Literal",
                        "src": "1641:22:30",
                        "subdenomination": null,
                        "typeDescriptions": {
                          "typeIdentifier": "t_stringliteral_0d1d997348c4b502650619e51f7d09f80514d98b6993be5051d07f703984619a",
                          "typeString": "literal_string \"Pausable: not paused\""
                        },
                        "value": "Pausable: not paused"
                      }
                    ],
                    "expression": {
                      "argumentTypes": [
                        {
                          "typeIdentifier": "t_bool",
                          "typeString": "bool"
                        },
                        {
                          "typeIdentifier": "t_stringliteral_0d1d997348c4b502650619e51f7d09f80514d98b6993be5051d07f703984619a",
                          "typeString": "literal_string \"Pausable: not paused\""
                        }
                      ],
                      "id": 6411,
                      "name": "require",
                      "nodeType": "Identifier",
                      "overloadedDeclarations": [
                        -18,
                        -18
                      ],
                      "referencedDeclaration": -18,
                      "src": "1623:7:30",
                      "typeDescriptions": {
                        "typeIdentifier": "t_function_require_pure$_t_bool_$_t_string_memory_ptr_$returns$__$",
                        "typeString": "function (bool,string memory) pure"
                      }
                    },
                    "id": 6415,
                    "isConstant": false,
                    "isLValue": false,
                    "isPure": false,
                    "kind": "functionCall",
                    "lValueRequested": false,
                    "names": [],
                    "nodeType": "FunctionCall",
                    "src": "1623:41:30",
                    "tryCall": false,
                    "typeDescriptions": {
                      "typeIdentifier": "t_tuple$__$",
                      "typeString": "tuple()"
                    }
                  },
                  "id": 6416,
                  "nodeType": "ExpressionStatement",
                  "src": "1623:41:30"
                },
                {
                  "id": 6417,
                  "nodeType": "PlaceholderStatement",
                  "src": "1674:1:30"
                }
              ]
            },
            "documentation": {
              "id": 6409,
              "nodeType": "StructuredDocumentation",
              "src": "1419:167:30",
              "text": "@dev Modifier to make a function callable only when the contract is paused.\n     * Requirements:\n     * - The contract must be paused."
            },
            "id": 6419,
            "name": "whenPaused",
            "nodeType": "ModifierDefinition",
            "overrides": null,
            "parameters": {
              "id": 6410,
              "nodeType": "ParameterList",
              "parameters": [],
              "src": "1610:2:30"
            },
            "src": "1591:91:30",
            "virtual": false,
            "visibility": "internal"
          },
          {
            "body": {
              "id": 6434,
              "nodeType": "Block",
              "src": "1866:66:30",
              "statements": [
                {
                  "expression": {
                    "argumentTypes": null,
                    "id": 6427,
                    "isConstant": false,
                    "isLValue": false,
                    "isPure": false,
                    "lValueRequested": false,
                    "leftHandSide": {
                      "argumentTypes": null,
                      "id": 6425,
                      "name": "_paused",
                      "nodeType": "Identifier",
                      "overloadedDeclarations": [],
                      "referencedDeclaration": 6378,
                      "src": "1876:7:30",
                      "typeDescriptions": {
                        "typeIdentifier": "t_bool",
                        "typeString": "bool"
                      }
                    },
                    "nodeType": "Assignment",
                    "operator": "=",
                    "rightHandSide": {
                      "argumentTypes": null,
                      "hexValue": "74727565",
                      "id": 6426,
                      "isConstant": false,
                      "isLValue": false,
                      "isPure": true,
                      "kind": "bool",
                      "lValueRequested": false,
                      "nodeType": "Literal",
                      "src": "1886:4:30",
                      "subdenomination": null,
                      "typeDescriptions": {
                        "typeIdentifier": "t_bool",
                        "typeString": "bool"
                      },
                      "value": "true"
                    },
                    "src": "1876:14:30",
                    "typeDescriptions": {
                      "typeIdentifier": "t_bool",
                      "typeString": "bool"
                    }
                  },
                  "id": 6428,
                  "nodeType": "ExpressionStatement",
                  "src": "1876:14:30"
                },
                {
                  "eventCall": {
                    "argumentTypes": null,
                    "arguments": [
                      {
                        "argumentTypes": null,
                        "arguments": [],
                        "expression": {
                          "argumentTypes": [],
                          "id": 6430,
                          "name": "_msgSender",
                          "nodeType": "Identifier",
                          "overloadedDeclarations": [],
                          "referencedDeclaration": 5856,
                          "src": "1912:10:30",
                          "typeDescriptions": {
                            "typeIdentifier": "t_function_internal_view$__$returns$_t_address_payable_$",
                            "typeString": "function () view returns (address payable)"
                          }
                        },
                        "id": 6431,
                        "isConstant": false,
                        "isLValue": false,
                        "isPure": false,
                        "kind": "functionCall",
                        "lValueRequested": false,
                        "names": [],
                        "nodeType": "FunctionCall",
                        "src": "1912:12:30",
                        "tryCall": false,
                        "typeDescriptions": {
                          "typeIdentifier": "t_address_payable",
                          "typeString": "address payable"
                        }
                      }
                    ],
                    "expression": {
                      "argumentTypes": [
                        {
                          "typeIdentifier": "t_address_payable",
                          "typeString": "address payable"
                        }
                      ],
                      "id": 6429,
                      "name": "Paused",
                      "nodeType": "Identifier",
                      "overloadedDeclarations": [],
                      "referencedDeclaration": 6371,
                      "src": "1905:6:30",
                      "typeDescriptions": {
                        "typeIdentifier": "t_function_event_nonpayable$_t_address_$returns$__$",
                        "typeString": "function (address)"
                      }
                    },
                    "id": 6432,
                    "isConstant": false,
                    "isLValue": false,
                    "isPure": false,
                    "kind": "functionCall",
                    "lValueRequested": false,
                    "names": [],
                    "nodeType": "FunctionCall",
                    "src": "1905:20:30",
                    "tryCall": false,
                    "typeDescriptions": {
                      "typeIdentifier": "t_tuple$__$",
                      "typeString": "tuple()"
                    }
                  },
                  "id": 6433,
                  "nodeType": "EmitStatement",
                  "src": "1900:25:30"
                }
              ]
            },
            "documentation": {
              "id": 6420,
              "nodeType": "StructuredDocumentation",
              "src": "1688:124:30",
              "text": "@dev Triggers stopped state.\n     * Requirements:\n     * - The contract must not be paused."
            },
            "id": 6435,
            "implemented": true,
            "kind": "function",
            "modifiers": [
              {
                "arguments": null,
                "id": 6423,
                "modifierName": {
                  "argumentTypes": null,
                  "id": 6422,
                  "name": "whenNotPaused",
                  "nodeType": "Identifier",
                  "overloadedDeclarations": [],
                  "referencedDeclaration": 6408,
                  "src": "1852:13:30",
                  "typeDescriptions": {
                    "typeIdentifier": "t_modifier$__$",
                    "typeString": "modifier ()"
                  }
                },
                "nodeType": "ModifierInvocation",
                "src": "1852:13:30"
              }
            ],
            "name": "_pause",
            "nodeType": "FunctionDefinition",
            "overrides": null,
            "parameters": {
              "id": 6421,
              "nodeType": "ParameterList",
              "parameters": [],
              "src": "1832:2:30"
            },
            "returnParameters": {
              "id": 6424,
              "nodeType": "ParameterList",
              "parameters": [],
              "src": "1866:0:30"
            },
            "scope": 6452,
            "src": "1817:115:30",
            "stateMutability": "nonpayable",
            "virtual": true,
            "visibility": "internal"
          },
          {
            "body": {
              "id": 6450,
              "nodeType": "Block",
              "src": "2112:69:30",
              "statements": [
                {
                  "expression": {
                    "argumentTypes": null,
                    "id": 6443,
                    "isConstant": false,
                    "isLValue": false,
                    "isPure": false,
                    "lValueRequested": false,
                    "leftHandSide": {
                      "argumentTypes": null,
                      "id": 6441,
                      "name": "_paused",
                      "nodeType": "Identifier",
                      "overloadedDeclarations": [],
                      "referencedDeclaration": 6378,
                      "src": "2122:7:30",
                      "typeDescriptions": {
                        "typeIdentifier": "t_bool",
                        "typeString": "bool"
                      }
                    },
                    "nodeType": "Assignment",
                    "operator": "=",
                    "rightHandSide": {
                      "argumentTypes": null,
                      "hexValue": "66616c7365",
                      "id": 6442,
                      "isConstant": false,
                      "isLValue": false,
                      "isPure": true,
                      "kind": "bool",
                      "lValueRequested": false,
                      "nodeType": "Literal",
                      "src": "2132:5:30",
                      "subdenomination": null,
                      "typeDescriptions": {
                        "typeIdentifier": "t_bool",
                        "typeString": "bool"
                      },
                      "value": "false"
                    },
                    "src": "2122:15:30",
                    "typeDescriptions": {
                      "typeIdentifier": "t_bool",
                      "typeString": "bool"
                    }
                  },
                  "id": 6444,
                  "nodeType": "ExpressionStatement",
                  "src": "2122:15:30"
                },
                {
                  "eventCall": {
                    "argumentTypes": null,
                    "arguments": [
                      {
                        "argumentTypes": null,
                        "arguments": [],
                        "expression": {
                          "argumentTypes": [],
                          "id": 6446,
                          "name": "_msgSender",
                          "nodeType": "Identifier",
                          "overloadedDeclarations": [],
                          "referencedDeclaration": 5856,
                          "src": "2161:10:30",
                          "typeDescriptions": {
                            "typeIdentifier": "t_function_internal_view$__$returns$_t_address_payable_$",
                            "typeString": "function () view returns (address payable)"
                          }
                        },
                        "id": 6447,
                        "isConstant": false,
                        "isLValue": false,
                        "isPure": false,
                        "kind": "functionCall",
                        "lValueRequested": false,
                        "names": [],
                        "nodeType": "FunctionCall",
                        "src": "2161:12:30",
                        "tryCall": false,
                        "typeDescriptions": {
                          "typeIdentifier": "t_address_payable",
                          "typeString": "address payable"
                        }
                      }
                    ],
                    "expression": {
                      "argumentTypes": [
                        {
                          "typeIdentifier": "t_address_payable",
                          "typeString": "address payable"
                        }
                      ],
                      "id": 6445,
                      "name": "Unpaused",
                      "nodeType": "Identifier",
                      "overloadedDeclarations": [],
                      "referencedDeclaration": 6376,
                      "src": "2152:8:30",
                      "typeDescriptions": {
                        "typeIdentifier": "t_function_event_nonpayable$_t_address_$returns$__$",
                        "typeString": "function (address)"
                      }
                    },
                    "id": 6448,
                    "isConstant": false,
                    "isLValue": false,
                    "isPure": false,
                    "kind": "functionCall",
                    "lValueRequested": false,
                    "names": [],
                    "nodeType": "FunctionCall",
                    "src": "2152:22:30",
                    "tryCall": false,
                    "typeDescriptions": {
                      "typeIdentifier": "t_tuple$__$",
                      "typeString": "tuple()"
                    }
                  },
                  "id": 6449,
                  "nodeType": "EmitStatement",
                  "src": "2147:27:30"
                }
              ]
            },
            "documentation": {
              "id": 6436,
              "nodeType": "StructuredDocumentation",
              "src": "1938:121:30",
              "text": "@dev Returns to normal state.\n     * Requirements:\n     * - The contract must be paused."
            },
            "id": 6451,
            "implemented": true,
            "kind": "function",
            "modifiers": [
              {
                "arguments": null,
                "id": 6439,
                "modifierName": {
                  "argumentTypes": null,
                  "id": 6438,
                  "name": "whenPaused",
                  "nodeType": "Identifier",
                  "overloadedDeclarations": [],
                  "referencedDeclaration": 6419,
                  "src": "2101:10:30",
                  "typeDescriptions": {
                    "typeIdentifier": "t_modifier$__$",
                    "typeString": "modifier ()"
                  }
                },
                "nodeType": "ModifierInvocation",
                "src": "2101:10:30"
              }
            ],
            "name": "_unpause",
            "nodeType": "FunctionDefinition",
            "overrides": null,
            "parameters": {
              "id": 6437,
              "nodeType": "ParameterList",
              "parameters": [],
              "src": "2081:2:30"
            },
            "returnParameters": {
              "id": 6440,
              "nodeType": "ParameterList",
              "parameters": [],
              "src": "2112:0:30"
            },
            "scope": 6452,
            "src": "2064:117:30",
            "stateMutability": "nonpayable",
            "virtual": true,
            "visibility": "internal"
          }
        ],
        "scope": 6453,
        "src": "531:1652:30"
      }
    ],
    "src": "33:2151:30"
  },
  "legacyAST": {
    "attributes": {
      "absolutePath": "@openzeppelin/contracts/utils/Pausable.sol",
      "exportedSymbols": {
        "Pausable": [
          6452
        ]
      }
    },
    "children": [
      {
        "attributes": {
          "literals": [
            "solidity",
            ">=",
            "0.6",
            ".0",
            "<",
            "0.8",
            ".0"
          ]
        },
        "id": 6362,
        "name": "PragmaDirective",
        "src": "33:31:30"
      },
      {
        "attributes": {
          "SourceUnit": 5869,
          "absolutePath": "@openzeppelin/contracts/utils/Context.sol",
          "file": "./Context.sol",
          "scope": 6453,
          "symbolAliases": [
            null
          ],
          "unitAlias": ""
        },
        "id": 6363,
        "name": "ImportDirective",
        "src": "66:23:30"
      },
      {
        "attributes": {
          "abstract": true,
          "contractDependencies": [
            5868
          ],
          "contractKind": "contract",
          "fullyImplemented": true,
          "linearizedBaseContracts": [
            6452,
            5868
          ],
          "name": "Pausable",
          "scope": 6453
        },
        "children": [
          {
            "attributes": {
              "text": "@dev Contract module which allows children to implement an emergency stop\nmechanism that can be triggered by an authorized account.\n * This module is used through inheritance. It will make available the\nmodifiers `whenNotPaused` and `whenPaused`, which can be applied to\nthe functions of your contract. Note that they will not be pausable by\nsimply including this module, only once the modifiers are put in place."
            },
            "id": 6364,
            "name": "StructuredDocumentation",
            "src": "91:439:30"
          },
          {
            "attributes": {
              "arguments": null
            },
            "children": [
              {
                "attributes": {
                  "contractScope": null,
                  "name": "Context",
                  "referencedDeclaration": 5868,
                  "type": "contract Context"
                },
                "id": 6365,
                "name": "UserDefinedTypeName",
                "src": "561:7:30"
              }
            ],
            "id": 6366,
            "name": "InheritanceSpecifier",
            "src": "561:7:30"
          },
          {
            "attributes": {
              "anonymous": false,
              "name": "Paused"
            },
            "children": [
              {
                "attributes": {
                  "text": "@dev Emitted when the pause is triggered by `account`."
                },
                "id": 6367,
                "name": "StructuredDocumentation",
                "src": "575:73:30"
              },
              {
                "children": [
                  {
                    "attributes": {
                      "constant": false,
                      "indexed": false,
                      "name": "account",
                      "overrides": null,
                      "scope": 6371,
                      "stateVariable": false,
                      "storageLocation": "default",
                      "type": "address",
                      "value": null,
                      "visibility": "internal"
                    },
                    "children": [
                      {
                        "attributes": {
                          "name": "address",
                          "stateMutability": "nonpayable",
                          "type": "address"
                        },
                        "id": 6368,
                        "name": "ElementaryTypeName",
                        "src": "666:7:30"
                      }
                    ],
                    "id": 6369,
                    "name": "VariableDeclaration",
                    "src": "666:15:30"
                  }
                ],
                "id": 6370,
                "name": "ParameterList",
                "src": "665:17:30"
              }
            ],
            "id": 6371,
            "name": "EventDefinition",
            "src": "653:30:30"
          },
          {
            "attributes": {
              "anonymous": false,
              "name": "Unpaused"
            },
            "children": [
              {
                "attributes": {
                  "text": "@dev Emitted when the pause is lifted by `account`."
                },
                "id": 6372,
                "name": "StructuredDocumentation",
                "src": "689:70:30"
              },
              {
                "children": [
                  {
                    "attributes": {
                      "constant": false,
                      "indexed": false,
                      "name": "account",
                      "overrides": null,
                      "scope": 6376,
                      "stateVariable": false,
                      "storageLocation": "default",
                      "type": "address",
                      "value": null,
                      "visibility": "internal"
                    },
                    "children": [
                      {
                        "attributes": {
                          "name": "address",
                          "stateMutability": "nonpayable",
                          "type": "address"
                        },
                        "id": 6373,
                        "name": "ElementaryTypeName",
                        "src": "779:7:30"
                      }
                    ],
                    "id": 6374,
                    "name": "VariableDeclaration",
                    "src": "779:15:30"
                  }
                ],
                "id": 6375,
                "name": "ParameterList",
                "src": "778:17:30"
              }
            ],
            "id": 6376,
            "name": "EventDefinition",
            "src": "764:32:30"
          },
          {
            "attributes": {
              "constant": false,
              "name": "_paused",
              "overrides": null,
              "scope": 6452,
              "stateVariable": true,
              "storageLocation": "default",
              "type": "bool",
              "value": null,
              "visibility": "private"
            },
            "children": [
              {
                "attributes": {
                  "name": "bool",
                  "type": "bool"
                },
                "id": 6377,
                "name": "ElementaryTypeName",
                "src": "802:4:30"
              }
            ],
            "id": 6378,
            "name": "VariableDeclaration",
            "src": "802:20:30"
          },
          {
            "attributes": {
              "implemented": true,
              "isConstructor": true,
              "kind": "constructor",
              "modifiers": [
                null
              ],
              "name": "",
              "overrides": null,
              "scope": 6452,
              "stateMutability": "nonpayable",
              "virtual": false,
              "visibility": "internal"
            },
            "children": [
              {
                "attributes": {
                  "text": "@dev Initializes the contract in unpaused state."
                },
                "id": 6379,
                "name": "StructuredDocumentation",
                "src": "829:67:30"
              },
              {
                "attributes": {
                  "parameters": [
                    null
                  ]
                },
                "children": [],
                "id": 6380,
                "name": "ParameterList",
                "src": "913:2:30"
              },
              {
                "attributes": {
                  "parameters": [
                    null
                  ]
                },
                "children": [],
                "id": 6381,
                "name": "ParameterList",
                "src": "925:0:30"
              },
              {
                "children": [
                  {
                    "children": [
                      {
                        "attributes": {
                          "argumentTypes": null,
                          "isConstant": false,
                          "isLValue": false,
                          "isPure": false,
                          "lValueRequested": false,
                          "operator": "=",
                          "type": "bool"
                        },
                        "children": [
                          {
                            "attributes": {
                              "argumentTypes": null,
                              "overloadedDeclarations": [
                                null
                              ],
                              "referencedDeclaration": 6378,
                              "type": "bool",
                              "value": "_paused"
                            },
                            "id": 6382,
                            "name": "Identifier",
                            "src": "935:7:30"
                          },
                          {
                            "attributes": {
                              "argumentTypes": null,
                              "hexvalue": "66616c7365",
                              "isConstant": false,
                              "isLValue": false,
                              "isPure": true,
                              "lValueRequested": false,
                              "subdenomination": null,
                              "token": "bool",
                              "type": "bool",
                              "value": "false"
                            },
                            "id": 6383,
                            "name": "Literal",
                            "src": "945:5:30"
                          }
                        ],
                        "id": 6384,
                        "name": "Assignment",
                        "src": "935:15:30"
                      }
                    ],
                    "id": 6385,
                    "name": "ExpressionStatement",
                    "src": "935:15:30"
                  }
                ],
                "id": 6386,
                "name": "Block",
                "src": "925:32:30"
              }
            ],
            "id": 6387,
            "name": "FunctionDefinition",
            "src": "901:56:30"
          },
          {
            "attributes": {
              "functionSelector": "5c975abb",
              "implemented": true,
              "isConstructor": false,
              "kind": "function",
              "modifiers": [
                null
              ],
              "name": "paused",
              "overrides": null,
              "scope": 6452,
              "stateMutability": "view",
              "virtual": true,
              "visibility": "public"
            },
            "children": [
              {
                "attributes": {
                  "text": "@dev Returns true if the contract is paused, and false otherwise."
                },
                "id": 6388,
                "name": "StructuredDocumentation",
                "src": "963:84:30"
              },
              {
                "attributes": {
                  "parameters": [
                    null
                  ]
                },
                "children": [],
                "id": 6389,
                "name": "ParameterList",
                "src": "1067:2:30"
              },
              {
                "children": [
                  {
                    "attributes": {
                      "constant": false,
                      "name": "",
                      "overrides": null,
                      "scope": 6396,
                      "stateVariable": false,
                      "storageLocation": "default",
                      "type": "bool",
                      "value": null,
                      "visibility": "internal"
                    },
                    "children": [
                      {
                        "attributes": {
                          "name": "bool",
                          "type": "bool"
                        },
                        "id": 6390,
                        "name": "ElementaryTypeName",
                        "src": "1099:4:30"
                      }
                    ],
                    "id": 6391,
                    "name": "VariableDeclaration",
                    "src": "1099:4:30"
                  }
                ],
                "id": 6392,
                "name": "ParameterList",
                "src": "1098:6:30"
              },
              {
                "children": [
                  {
                    "attributes": {
                      "functionReturnParameters": 6392
                    },
                    "children": [
                      {
                        "attributes": {
                          "argumentTypes": null,
                          "overloadedDeclarations": [
                            null
                          ],
                          "referencedDeclaration": 6378,
                          "type": "bool",
                          "value": "_paused"
                        },
                        "id": 6393,
                        "name": "Identifier",
                        "src": "1122:7:30"
                      }
                    ],
                    "id": 6394,
                    "name": "Return",
                    "src": "1115:14:30"
                  }
                ],
                "id": 6395,
                "name": "Block",
                "src": "1105:31:30"
              }
            ],
            "id": 6396,
            "name": "FunctionDefinition",
            "src": "1052:84:30"
          },
          {
            "attributes": {
              "name": "whenNotPaused",
              "overrides": null,
              "virtual": false,
              "visibility": "internal"
            },
            "children": [
              {
                "attributes": {
                  "text": "@dev Modifier to make a function callable only when the contract is not paused.\n     * Requirements:\n     * - The contract must not be paused."
                },
                "id": 6397,
                "name": "StructuredDocumentation",
                "src": "1142:175:30"
              },
              {
                "attributes": {
                  "parameters": [
                    null
                  ]
                },
                "children": [],
                "id": 6398,
                "name": "ParameterList",
                "src": "1344:2:30"
              },
              {
                "children": [
                  {
                    "children": [
                      {
                        "attributes": {
                          "argumentTypes": null,
                          "isConstant": false,
                          "isLValue": false,
                          "isPure": false,
                          "isStructConstructorCall": false,
                          "lValueRequested": false,
                          "names": [
                            null
                          ],
                          "tryCall": false,
                          "type": "tuple()",
                          "type_conversion": false
                        },
                        "children": [
                          {
                            "attributes": {
                              "argumentTypes": [
                                {
                                  "typeIdentifier": "t_bool",
                                  "typeString": "bool"
                                },
                                {
                                  "typeIdentifier": "t_stringliteral_68571e1369f7a6dcdcd736cb0343b35a58ed0f64d245c2ed839c98d412744f8a",
                                  "typeString": "literal_string \"Pausable: paused\""
                                }
                              ],
                              "overloadedDeclarations": [
                                -18,
                                -18
                              ],
                              "referencedDeclaration": -18,
                              "type": "function (bool,string memory) pure",
                              "value": "require"
                            },
                            "id": 6399,
                            "name": "Identifier",
                            "src": "1357:7:30"
                          },
                          {
                            "attributes": {
                              "argumentTypes": null,
                              "isConstant": false,
                              "isLValue": false,
                              "isPure": false,
                              "lValueRequested": false,
                              "operator": "!",
                              "prefix": true,
                              "type": "bool"
                            },
                            "children": [
                              {
                                "attributes": {
                                  "argumentTypes": null,
                                  "arguments": [
                                    null
                                  ],
                                  "isConstant": false,
                                  "isLValue": false,
                                  "isPure": false,
                                  "isStructConstructorCall": false,
                                  "lValueRequested": false,
                                  "names": [
                                    null
                                  ],
                                  "tryCall": false,
                                  "type": "bool",
                                  "type_conversion": false
                                },
                                "children": [
                                  {
                                    "attributes": {
                                      "argumentTypes": [
                                        null
                                      ],
                                      "overloadedDeclarations": [
                                        null
                                      ],
                                      "referencedDeclaration": 6396,
                                      "type": "function () view returns (bool)",
                                      "value": "paused"
                                    },
                                    "id": 6400,
                                    "name": "Identifier",
                                    "src": "1366:6:30"
                                  }
                                ],
                                "id": 6401,
                                "name": "FunctionCall",
                                "src": "1366:8:30"
                              }
                            ],
                            "id": 6402,
                            "name": "UnaryOperation",
                            "src": "1365:9:30"
                          },
                          {
                            "attributes": {
                              "argumentTypes": null,
                              "hexvalue": "5061757361626c653a20706175736564",
                              "isConstant": false,
                              "isLValue": false,
                              "isPure": true,
                              "lValueRequested": false,
                              "subdenomination": null,
                              "token": "string",
                              "type": "literal_string \"Pausable: paused\"",
                              "value": "Pausable: paused"
                            },
                            "id": 6403,
                            "name": "Literal",
                            "src": "1376:18:30"
                          }
                        ],
                        "id": 6404,
                        "name": "FunctionCall",
                        "src": "1357:38:30"
                      }
                    ],
                    "id": 6405,
                    "name": "ExpressionStatement",
                    "src": "1357:38:30"
                  },
                  {
                    "id": 6406,
                    "name": "PlaceholderStatement",
                    "src": "1405:1:30"
                  }
                ],
                "id": 6407,
                "name": "Block",
                "src": "1347:66:30"
              }
            ],
            "id": 6408,
            "name": "ModifierDefinition",
            "src": "1322:91:30"
          },
          {
            "attributes": {
              "name": "whenPaused",
              "overrides": null,
              "virtual": false,
              "visibility": "internal"
            },
            "children": [
              {
                "attributes": {
                  "text": "@dev Modifier to make a function callable only when the contract is paused.\n     * Requirements:\n     * - The contract must be paused."
                },
                "id": 6409,
                "name": "StructuredDocumentation",
                "src": "1419:167:30"
              },
              {
                "attributes": {
                  "parameters": [
                    null
                  ]
                },
                "children": [],
                "id": 6410,
                "name": "ParameterList",
                "src": "1610:2:30"
              },
              {
                "children": [
                  {
                    "children": [
                      {
                        "attributes": {
                          "argumentTypes": null,
                          "isConstant": false,
                          "isLValue": false,
                          "isPure": false,
                          "isStructConstructorCall": false,
                          "lValueRequested": false,
                          "names": [
                            null
                          ],
                          "tryCall": false,
                          "type": "tuple()",
                          "type_conversion": false
                        },
                        "children": [
                          {
                            "attributes": {
                              "argumentTypes": [
                                {
                                  "typeIdentifier": "t_bool",
                                  "typeString": "bool"
                                },
                                {
                                  "typeIdentifier": "t_stringliteral_0d1d997348c4b502650619e51f7d09f80514d98b6993be5051d07f703984619a",
                                  "typeString": "literal_string \"Pausable: not paused\""
                                }
                              ],
                              "overloadedDeclarations": [
                                -18,
                                -18
                              ],
                              "referencedDeclaration": -18,
                              "type": "function (bool,string memory) pure",
                              "value": "require"
                            },
                            "id": 6411,
                            "name": "Identifier",
                            "src": "1623:7:30"
                          },
                          {
                            "attributes": {
                              "argumentTypes": null,
                              "arguments": [
                                null
                              ],
                              "isConstant": false,
                              "isLValue": false,
                              "isPure": false,
                              "isStructConstructorCall": false,
                              "lValueRequested": false,
                              "names": [
                                null
                              ],
                              "tryCall": false,
                              "type": "bool",
                              "type_conversion": false
                            },
                            "children": [
                              {
                                "attributes": {
                                  "argumentTypes": [
                                    null
                                  ],
                                  "overloadedDeclarations": [
                                    null
                                  ],
                                  "referencedDeclaration": 6396,
                                  "type": "function () view returns (bool)",
                                  "value": "paused"
                                },
                                "id": 6412,
                                "name": "Identifier",
                                "src": "1631:6:30"
                              }
                            ],
                            "id": 6413,
                            "name": "FunctionCall",
                            "src": "1631:8:30"
                          },
                          {
                            "attributes": {
                              "argumentTypes": null,
                              "hexvalue": "5061757361626c653a206e6f7420706175736564",
                              "isConstant": false,
                              "isLValue": false,
                              "isPure": true,
                              "lValueRequested": false,
                              "subdenomination": null,
                              "token": "string",
                              "type": "literal_string \"Pausable: not paused\"",
                              "value": "Pausable: not paused"
                            },
                            "id": 6414,
                            "name": "Literal",
                            "src": "1641:22:30"
                          }
                        ],
                        "id": 6415,
                        "name": "FunctionCall",
                        "src": "1623:41:30"
                      }
                    ],
                    "id": 6416,
                    "name": "ExpressionStatement",
                    "src": "1623:41:30"
                  },
                  {
                    "id": 6417,
                    "name": "PlaceholderStatement",
                    "src": "1674:1:30"
                  }
                ],
                "id": 6418,
                "name": "Block",
                "src": "1613:69:30"
              }
            ],
            "id": 6419,
            "name": "ModifierDefinition",
            "src": "1591:91:30"
          },
          {
            "attributes": {
              "implemented": true,
              "isConstructor": false,
              "kind": "function",
              "name": "_pause",
              "overrides": null,
              "scope": 6452,
              "stateMutability": "nonpayable",
              "virtual": true,
              "visibility": "internal"
            },
            "children": [
              {
                "attributes": {
                  "text": "@dev Triggers stopped state.\n     * Requirements:\n     * - The contract must not be paused."
                },
                "id": 6420,
                "name": "StructuredDocumentation",
                "src": "1688:124:30"
              },
              {
                "attributes": {
                  "parameters": [
                    null
                  ]
                },
                "children": [],
                "id": 6421,
                "name": "ParameterList",
                "src": "1832:2:30"
              },
              {
                "attributes": {
                  "parameters": [
                    null
                  ]
                },
                "children": [],
                "id": 6424,
                "name": "ParameterList",
                "src": "1866:0:30"
              },
              {
                "attributes": {
                  "arguments": null
                },
                "children": [
                  {
                    "attributes": {
                      "argumentTypes": null,
                      "overloadedDeclarations": [
                        null
                      ],
                      "referencedDeclaration": 6408,
                      "type": "modifier ()",
                      "value": "whenNotPaused"
                    },
                    "id": 6422,
                    "name": "Identifier",
                    "src": "1852:13:30"
                  }
                ],
                "id": 6423,
                "name": "ModifierInvocation",
                "src": "1852:13:30"
              },
              {
                "children": [
                  {
                    "children": [
                      {
                        "attributes": {
                          "argumentTypes": null,
                          "isConstant": false,
                          "isLValue": false,
                          "isPure": false,
                          "lValueRequested": false,
                          "operator": "=",
                          "type": "bool"
                        },
                        "children": [
                          {
                            "attributes": {
                              "argumentTypes": null,
                              "overloadedDeclarations": [
                                null
                              ],
                              "referencedDeclaration": 6378,
                              "type": "bool",
                              "value": "_paused"
                            },
                            "id": 6425,
                            "name": "Identifier",
                            "src": "1876:7:30"
                          },
                          {
                            "attributes": {
                              "argumentTypes": null,
                              "hexvalue": "74727565",
                              "isConstant": false,
                              "isLValue": false,
                              "isPure": true,
                              "lValueRequested": false,
                              "subdenomination": null,
                              "token": "bool",
                              "type": "bool",
                              "value": "true"
                            },
                            "id": 6426,
                            "name": "Literal",
                            "src": "1886:4:30"
                          }
                        ],
                        "id": 6427,
                        "name": "Assignment",
                        "src": "1876:14:30"
                      }
                    ],
                    "id": 6428,
                    "name": "ExpressionStatement",
                    "src": "1876:14:30"
                  },
                  {
                    "children": [
                      {
                        "attributes": {
                          "argumentTypes": null,
                          "isConstant": false,
                          "isLValue": false,
                          "isPure": false,
                          "isStructConstructorCall": false,
                          "lValueRequested": false,
                          "names": [
                            null
                          ],
                          "tryCall": false,
                          "type": "tuple()",
                          "type_conversion": false
                        },
                        "children": [
                          {
                            "attributes": {
                              "argumentTypes": [
                                {
                                  "typeIdentifier": "t_address_payable",
                                  "typeString": "address payable"
                                }
                              ],
                              "overloadedDeclarations": [
                                null
                              ],
                              "referencedDeclaration": 6371,
                              "type": "function (address)",
                              "value": "Paused"
                            },
                            "id": 6429,
                            "name": "Identifier",
                            "src": "1905:6:30"
                          },
                          {
                            "attributes": {
                              "argumentTypes": null,
                              "arguments": [
                                null
                              ],
                              "isConstant": false,
                              "isLValue": false,
                              "isPure": false,
                              "isStructConstructorCall": false,
                              "lValueRequested": false,
                              "names": [
                                null
                              ],
                              "tryCall": false,
                              "type": "address payable",
                              "type_conversion": false
                            },
                            "children": [
                              {
                                "attributes": {
                                  "argumentTypes": [
                                    null
                                  ],
                                  "overloadedDeclarations": [
                                    null
                                  ],
                                  "referencedDeclaration": 5856,
                                  "type": "function () view returns (address payable)",
                                  "value": "_msgSender"
                                },
                                "id": 6430,
                                "name": "Identifier",
                                "src": "1912:10:30"
                              }
                            ],
                            "id": 6431,
                            "name": "FunctionCall",
                            "src": "1912:12:30"
                          }
                        ],
                        "id": 6432,
                        "name": "FunctionCall",
                        "src": "1905:20:30"
                      }
                    ],
                    "id": 6433,
                    "name": "EmitStatement",
                    "src": "1900:25:30"
                  }
                ],
                "id": 6434,
                "name": "Block",
                "src": "1866:66:30"
              }
            ],
            "id": 6435,
            "name": "FunctionDefinition",
            "src": "1817:115:30"
          },
          {
            "attributes": {
              "implemented": true,
              "isConstructor": false,
              "kind": "function",
              "name": "_unpause",
              "overrides": null,
              "scope": 6452,
              "stateMutability": "nonpayable",
              "virtual": true,
              "visibility": "internal"
            },
            "children": [
              {
                "attributes": {
                  "text": "@dev Returns to normal state.\n     * Requirements:\n     * - The contract must be paused."
                },
                "id": 6436,
                "name": "StructuredDocumentation",
                "src": "1938:121:30"
              },
              {
                "attributes": {
                  "parameters": [
                    null
                  ]
                },
                "children": [],
                "id": 6437,
                "name": "ParameterList",
                "src": "2081:2:30"
              },
              {
                "attributes": {
                  "parameters": [
                    null
                  ]
                },
                "children": [],
                "id": 6440,
                "name": "ParameterList",
                "src": "2112:0:30"
              },
              {
                "attributes": {
                  "arguments": null
                },
                "children": [
                  {
                    "attributes": {
                      "argumentTypes": null,
                      "overloadedDeclarations": [
                        null
                      ],
                      "referencedDeclaration": 6419,
                      "type": "modifier ()",
                      "value": "whenPaused"
                    },
                    "id": 6438,
                    "name": "Identifier",
                    "src": "2101:10:30"
                  }
                ],
                "id": 6439,
                "name": "ModifierInvocation",
                "src": "2101:10:30"
              },
              {
                "children": [
                  {
                    "children": [
                      {
                        "attributes": {
                          "argumentTypes": null,
                          "isConstant": false,
                          "isLValue": false,
                          "isPure": false,
                          "lValueRequested": false,
                          "operator": "=",
                          "type": "bool"
                        },
                        "children": [
                          {
                            "attributes": {
                              "argumentTypes": null,
                              "overloadedDeclarations": [
                                null
                              ],
                              "referencedDeclaration": 6378,
                              "type": "bool",
                              "value": "_paused"
                            },
                            "id": 6441,
                            "name": "Identifier",
                            "src": "2122:7:30"
                          },
                          {
                            "attributes": {
                              "argumentTypes": null,
                              "hexvalue": "66616c7365",
                              "isConstant": false,
                              "isLValue": false,
                              "isPure": true,
                              "lValueRequested": false,
                              "subdenomination": null,
                              "token": "bool",
                              "type": "bool",
                              "value": "false"
                            },
                            "id": 6442,
                            "name": "Literal",
                            "src": "2132:5:30"
                          }
                        ],
                        "id": 6443,
                        "name": "Assignment",
                        "src": "2122:15:30"
                      }
                    ],
                    "id": 6444,
                    "name": "ExpressionStatement",
                    "src": "2122:15:30"
                  },
                  {
                    "children": [
                      {
                        "attributes": {
                          "argumentTypes": null,
                          "isConstant": false,
                          "isLValue": false,
                          "isPure": false,
                          "isStructConstructorCall": false,
                          "lValueRequested": false,
                          "names": [
                            null
                          ],
                          "tryCall": false,
                          "type": "tuple()",
                          "type_conversion": false
                        },
                        "children": [
                          {
                            "attributes": {
                              "argumentTypes": [
                                {
                                  "typeIdentifier": "t_address_payable",
                                  "typeString": "address payable"
                                }
                              ],
                              "overloadedDeclarations": [
                                null
                              ],
                              "referencedDeclaration": 6376,
                              "type": "function (address)",
                              "value": "Unpaused"
                            },
                            "id": 6445,
                            "name": "Identifier",
                            "src": "2152:8:30"
                          },
                          {
                            "attributes": {
                              "argumentTypes": null,
                              "arguments": [
                                null
                              ],
                              "isConstant": false,
                              "isLValue": false,
                              "isPure": false,
                              "isStructConstructorCall": false,
                              "lValueRequested": false,
                              "names": [
                                null
                              ],
                              "tryCall": false,
                              "type": "address payable",
                              "type_conversion": false
                            },
                            "children": [
                              {
                                "attributes": {
                                  "argumentTypes": [
                                    null
                                  ],
                                  "overloadedDeclarations": [
                                    null
                                  ],
                                  "referencedDeclaration": 5856,
                                  "type": "function () view returns (address payable)",
                                  "value": "_msgSender"
                                },
                                "id": 6446,
                                "name": "Identifier",
                                "src": "2161:10:30"
                              }
                            ],
                            "id": 6447,
                            "name": "FunctionCall",
                            "src": "2161:12:30"
                          }
                        ],
                        "id": 6448,
                        "name": "FunctionCall",
                        "src": "2152:22:30"
                      }
                    ],
                    "id": 6449,
                    "name": "EmitStatement",
                    "src": "2147:27:30"
                  }
                ],
                "id": 6450,
                "name": "Block",
                "src": "2112:69:30"
              }
            ],
            "id": 6451,
            "name": "FunctionDefinition",
            "src": "2064:117:30"
          }
        ],
        "id": 6452,
        "name": "ContractDefinition",
        "src": "531:1652:30"
      }
    ],
    "id": 6453,
    "name": "SourceUnit",
    "src": "33:2151:30"
  },
  "compiler": {
    "name": "solc",
    "version": "0.6.5+commit.f956cc89.Emscripten.clang"
  },
  "networks": {},
  "schemaVersion": "3.4.1",
  "updatedAt": "2021-06-29T17:32:04.071Z",
  "devdoc": {
    "details": "Contract module which allows children to implement an emergency stop mechanism that can be triggered by an authorized account. * This module is used through inheritance. It will make available the modifiers `whenNotPaused` and `whenPaused`, which can be applied to the functions of your contract. Note that they will not be pausable by simply including this module, only once the modifiers are put in place.",
    "methods": {
      "constructor": {
        "details": "Initializes the contract in unpaused state."
      },
      "paused()": {
        "details": "Returns true if the contract is paused, and false otherwise."
      }
    }
  },
  "userdoc": {
    "methods": {}
  }
}