<svg width="20" height="20" viewBox="0 0 20 20" fill="none" xmlns="http://www.w3.org/2000/svg">
<path d="M4.70058 15.1714C4.5339 15.138 4.40055 15.1047 4.23386 15.038C4.06717 14.9714 3.93382 14.938 3.80047 14.8713C3.50043 14.738 3.23373 14.5713 2.96703 14.3713C2.43363 14.0046 2.00025 13.5045 1.66687 12.9044C1.3335 12.3377 1.13347 11.6709 1.10014 11.0375C1.0668 10.7042 1.10014 10.4041 1.13347 10.0707C1.16681 9.90406 1.20015 9.77071 1.23349 9.60402C1.26682 9.43734 1.3335 9.30399 1.36684 9.1373L1.40017 9.60402C1.40017 9.77071 1.43351 9.90406 1.46685 10.0707C1.50019 10.3708 1.56686 10.6708 1.63354 10.9375C1.76689 11.5043 1.96691 12.0377 2.26695 12.5377C2.56698 13.0378 2.90036 13.5045 3.33375 13.9379C3.53377 14.1379 3.76713 14.3379 4.0005 14.538C4.10051 14.638 4.23386 14.738 4.36721 14.838L4.70058 15.1714Z" fill="#42ADE2"/>
<path d="M4.60057 16.3716C4.50056 16.4382 4.36721 16.4716 4.23386 16.5049C4.10051 16.5382 4.0005 16.5716 3.86715 16.5716C3.63379 16.6049 3.36709 16.6383 3.10039 16.6049C2.60032 16.5716 2.06692 16.4382 1.63354 16.2049C1.16681 15.9715 0.766762 15.6048 0.500062 15.1714C0.366712 14.9714 0.233362 14.738 0.13335 14.5047C0.100012 14.4046 0.0666749 14.2713 0.0333375 14.1379C0.0333375 14.0379 0 13.9379 0 13.8046C0.100012 13.9046 0.166687 13.9713 0.233362 14.0713C0.333375 14.1713 0.40005 14.2713 0.466725 14.338C0.633412 14.5047 0.766762 14.6713 0.93345 14.8047C1.26682 15.1047 1.6002 15.3714 2.00025 15.5715C2.36696 15.7715 2.80035 15.9382 3.2004 16.0715C3.40042 16.1382 3.63379 16.1715 3.86715 16.2382C3.96716 16.2715 4.10051 16.2715 4.20052 16.3049C4.36721 16.3382 4.46722 16.3382 4.60057 16.3716Z" fill="#42ADE2"/>
<path d="M12.1348 0.169525C12.3015 0.202863 12.4349 0.269538 12.6016 0.336213C12.7683 0.402888 12.9016 0.469562 13.035 0.536237C13.335 0.702925 13.6017 0.869612 13.8684 1.06964C14.4018 1.46969 14.8352 2.00309 15.1352 2.60316C15.4353 3.20324 15.6019 3.86999 15.6019 4.5034C15.6019 4.83677 15.5686 5.13681 15.5019 5.47019C15.4686 5.63687 15.4353 5.77022 15.3686 5.93691C15.3019 6.1036 15.2686 6.23695 15.2019 6.3703L15.1686 5.90357C15.1686 5.73689 15.1686 5.60354 15.1352 5.43685L15.0352 4.53674C14.9352 3.97 14.7352 3.40326 14.4685 2.86986C14.2018 2.33646 13.8684 1.86974 13.4683 1.43635C13.2683 1.20299 13.035 1.00296 12.8349 0.7696C12.7349 0.669587 12.6016 0.569575 12.4682 0.469563L12.1348 0.169525Z" fill="#42ADE2"/>
<path d="M15.0352 0.0361633C15.1686 0.0695008 15.2686 0.102838 15.3686 0.169513C15.4686 0.202851 15.6019 0.269526 15.702 0.336201C15.902 0.469551 16.102 0.602901 16.302 0.769588C16.6687 1.10296 16.9688 1.50301 17.1355 1.96974C17.3355 2.43646 17.4022 2.93652 17.3355 3.43659C17.3022 3.66995 17.2355 3.90331 17.1688 4.13667C17.1355 4.23669 17.0688 4.37004 17.0355 4.47005C16.9688 4.57006 16.9354 4.67007 16.8354 4.77009V4.10334C16.8354 3.86997 16.8021 3.66995 16.8021 3.46992C16.7354 3.03654 16.6687 2.63649 16.5021 2.26977C16.3354 1.86973 16.1353 1.53635 15.902 1.16964C15.7686 1.00295 15.6353 0.802926 15.5019 0.636238C15.4353 0.536226 15.3686 0.469551 15.2686 0.369538C15.2019 0.202851 15.1019 0.102838 15.0352 0.0361633Z" fill="#42ADE2"/>
<path d="M2.66704 5.00346C2.00029 5.3035 1.76693 6.10359 2.06696 6.77034L6.26749 15.5381L8.60111 14.438L4.40059 5.63687C4.10055 4.97012 3.33379 4.67008 2.66704 5.00346Z" fill="#FED0AC"/>
<path d="M13.7017 11.971L16.1687 10.8042L11.3681 0.802947C11.0347 0.136197 10.2346 -0.16384 9.53456 0.169534C8.86781 0.502909 8.56777 1.30301 8.90115 2.0031L13.7017 11.971Z" fill="#FED0AC"/>
<path d="M9.56789 0.136161C9.50122 0.169498 9.43454 0.202836 9.36787 0.269511C10.0013 0.102823 10.668 0.402861 10.9681 1.00294L15.7687 11.0042L16.2021 10.8042L11.4015 0.802911C11.0681 0.102823 10.268 -0.197214 9.56789 0.136161Z" fill="#E0A372"/>
<path d="M8.60105 14.4046L11.168 13.1712L6.26742 2.96989C5.93405 2.2698 5.06727 1.93642 4.36719 2.2698C3.6671 2.60317 3.36706 3.46995 3.70044 4.17004L8.60105 14.4046Z" fill="#FED0AC"/>
<path d="M4.36721 2.30315C4.30054 2.33649 4.23386 2.36983 4.16719 2.4365C4.8006 2.26982 5.53402 2.56985 5.83406 3.20326L8.86777 9.57072L9.6012 10.0041L6.26745 3.00324C5.93407 2.26981 5.10064 1.96978 4.36721 2.30315Z" fill="#E0A372"/>
<path d="M10.768 12.371L13.335 11.1375L8.43436 0.936252C8.10098 0.236164 7.23421 -0.0972105 6.53412 0.269502C5.83404 0.602877 5.534 1.46965 5.86737 2.16974L10.768 12.371Z" fill="#FED0AC"/>
<path d="M6.53412 0.236197C6.46744 0.269534 6.40077 0.336209 6.33409 0.369547C6.9675 0.202859 7.70093 0.502897 8.00097 1.13631L11.4347 8.33721L12.1682 8.77059L8.43435 0.936284C8.10098 0.202859 7.2342 -0.0971781 6.53412 0.236197Z" fill="#E0A372"/>
<path d="M2.66697 5.00344C2.60029 5.03678 2.53362 5.07011 2.46694 5.13679C3.06702 4.9701 3.70043 5.27014 3.96713 5.87021L6.46744 11.1042L7.20087 11.5376L4.40052 5.67019C4.10048 4.9701 3.33372 4.67006 2.66697 5.00344Z" fill="#E0A372"/>
<path d="M19.6024 4.00329C18.7023 3.30321 17.2354 4.06997 16.502 6.47027C16.002 8.13714 15.9353 8.6372 14.8685 9.13727L14.2684 7.90378C14.2684 7.90378 4.80056 12.471 5.16728 13.2044C5.16728 13.2044 6.30075 16.7382 8.23433 18.3717C11.1013 20.8387 17.8022 18.2051 18.1022 11.8376C18.2689 8.13714 20.5692 4.77005 19.6024 4.00329Z" fill="#FED0AC"/>
<path d="M19.6024 4.00335C19.4357 3.87 19.2357 3.80333 19.0357 3.76999C19.069 3.80333 19.1357 3.80333 19.169 3.83666C20.1691 4.60343 19.1357 6.37031 18.5689 7.97051C18.1022 9.23734 17.7022 10.5375 17.7688 11.8043C18.0355 17.3383 12.4682 19.972 9.13444 18.9719C12.4015 20.3387 18.4689 17.7384 18.2022 11.971C18.1356 10.7042 18.5023 9.4707 19.0023 8.1372C19.5357 6.537 20.5692 4.77011 19.6024 4.00335Z" fill="#E0A372"/>
<path d="M15.1685 9.00397C13.1016 9.23733 10.0679 12.2044 12.2015 15.4381C10.6346 12.171 13.2016 9.97075 14.8352 9.20399C15.0018 9.07064 15.1685 9.00397 15.1685 9.00397Z" fill="#E0A372"/>
</svg>
